Versuch1/rawData/NewFile12000hz.csv

X,CH1,CH2,Start,Increment,
Sequence,Volt,Volt,-6.000000e-04,1.000000e-06
0,-9.20e-01,1.20e+00,
1,-9.20e-01,1.20e+00,
2,-9.60e-01,1.20e+00,
3,-9.60e-01,1.20e+00,
4,-9.20e-01,1.28e+00,
5,-9.20e-01,1.28e+00,
6,-9.20e-01,1.28e+00,
7,-9.20e-01,1.28e+00,
8,-9.20e-01,1.36e+00,
9,-9.20e-01,1.36e+00,
10,-9.20e-01,1.36e+00,
11,-9.20e-01,1.36e+00,
12,-9.20e-01,1.44e+00,
13,-9.20e-01,1.44e+00,
14,-8.80e-01,1.44e+00,
15,-8.80e-01,1.44e+00,
16,-8.80e-01,1.52e+00,
17,-8.80e-01,1.52e+00,
18,-8.80e-01,1.52e+00,
19,-8.80e-01,1.52e+00,
20,-8.40e-01,1.60e+00,
21,-8.40e-01,1.60e+00,
22,-8.00e-01,1.68e+00,
23,-8.00e-01,1.68e+00,
24,-8.00e-01,1.60e+00,
25,-8.00e-01,1.60e+00,
26,-8.00e-01,1.68e+00,
27,-8.00e-01,1.68e+00,
28,-7.60e-01,1.76e+00,
29,-7.60e-01,1.76e+00,
30,-7.60e-01,1.76e+00,
31,-7.60e-01,1.76e+00,
32,-7.60e-01,1.84e+00,
33,-7.60e-01,1.84e+00,
34,-7.20e-01,1.84e+00,
35,-7.20e-01,1.84e+00,
36,-7.20e-01,1.92e+00,
37,-7.20e-01,1.92e+00,
38,-7.20e-01,1.92e+00,
39,-7.20e-01,1.92e+00,
40,-6.80e-01,1.92e+00,
41,-6.80e-01,1.92e+00,
42,-6.80e-01,2.00e+00,
43,-6.80e-01,2.00e+00,
44,-6.40e-01,2.00e+00,
45,-6.40e-01,2.00e+00,
46,-6.40e-01,2.00e+00,
47,-6.40e-01,2.00e+00,
48,-6.00e-01,2.00e+00,
49,-6.00e-01,2.00e+00,
50,-6.00e-01,2.08e+00,
51,-6.00e-01,2.08e+00,
52,-5.60e-01,2.08e+00,
53,-5.60e-01,2.08e+00,
54,-5.60e-01,2.08e+00,
55,-5.60e-01,2.08e+00,
56,-5.60e-01,2.16e+00,
57,-5.60e-01,2.16e+00,
58,-4.80e-01,2.16e+00,
59,-4.80e-01,2.16e+00,
60,-4.80e-01,2.16e+00,
61,-4.80e-01,2.16e+00,
62,-4.40e-01,2.24e+00,
63,-4.40e-01,2.24e+00,
64,-4.40e-01,2.24e+00,
65,-4.40e-01,2.24e+00,
66,-4.00e-01,2.16e+00,
67,-4.00e-01,2.16e+00,
68,-4.00e-01,2.16e+00,
69,-4.00e-01,2.16e+00,
70,-3.60e-01,2.24e+00,
71,-3.60e-01,2.24e+00,
72,-3.60e-01,2.24e+00,
73,-3.60e-01,2.24e+00,
74,-3.20e-01,2.16e+00,
75,-3.20e-01,2.16e+00,
76,-3.20e-01,2.16e+00,
77,-3.20e-01,2.16e+00,
78,-2.80e-01,2.16e+00,
79,-2.80e-01,2.16e+00,
80,-2.40e-01,2.24e+00,
81,-2.40e-01,2.24e+00,
82,-2.40e-01,2.24e+00,
83,-2.40e-01,2.24e+00,
84,-2.00e-01,2.16e+00,
85,-2.00e-01,2.16e+00,
86,-1.60e-01,2.24e+00,
87,-1.60e-01,2.24e+00,
88,-1.20e-01,2.16e+00,
89,-1.20e-01,2.16e+00,
90,-1.20e-01,2.24e+00,
91,-1.20e-01,2.24e+00,
92,-8.00e-02,2.24e+00,
93,-8.00e-02,2.24e+00,
94,-8.00e-02,2.24e+00,
95,-8.00e-02,2.24e+00,
96,-4.00e-02,2.24e+00,
97,-4.00e-02,2.24e+00,
98,-4.00e-02,2.16e+00,
99,-4.00e-02,2.16e+00,
100,0.00e+00,2.16e+00,
101,0.00e+00,2.16e+00,
102,0.00e+00,2.16e+00,
103,0.00e+00,2.16e+00,
104,8.00e-02,2.16e+00,
105,8.00e-02,2.16e+00,
106,8.00e-02,2.08e+00,
107,8.00e-02,2.08e+00,
108,8.00e-02,2.08e+00,
109,8.00e-02,2.08e+00,
110,1.60e-01,2.08e+00,
111,1.60e-01,2.08e+00,
112,1.20e-01,2.08e+00,
113,1.20e-01,2.08e+00,
114,1.60e-01,2.00e+00,
115,1.60e-01,2.00e+00,
116,2.00e-01,2.00e+00,
117,2.00e-01,2.00e+00,
118,2.40e-01,2.00e+00,
119,2.40e-01,2.00e+00,
120,2.40e-01,1.92e+00,
121,2.40e-01,1.92e+00,
122,2.80e-01,1.92e+00,
123,2.80e-01,1.92e+00,
124,2.80e-01,1.92e+00,
125,2.80e-01,1.92e+00,
126,3.20e-01,1.84e+00,
127,3.20e-01,1.84e+00,
128,3.20e-01,1.84e+00,
129,3.20e-01,1.84e+00,
130,3.60e-01,1.84e+00,
131,3.60e-01,1.84e+00,
132,4.00e-01,1.76e+00,
133,4.00e-01,1.76e+00,
134,4.00e-01,1.76e+00,
135,4.00e-01,1.76e+00,
136,4.40e-01,1.68e+00,
137,4.40e-01,1.68e+00,
138,4.80e-01,1.60e+00,
139,4.80e-01,1.60e+00,
140,4.80e-01,1.68e+00,
141,4.80e-01,1.68e+00,
142,5.20e-01,1.52e+00,
143,5.20e-01,1.52e+00,
144,5.20e-01,1.60e+00,
145,5.20e-01,1.60e+00,
146,5.60e-01,1.52e+00,
147,5.60e-01,1.52e+00,
148,5.60e-01,1.52e+00,
149,5.60e-01,1.52e+00,
150,5.60e-01,1.44e+00,
151,5.60e-01,1.44e+00,
152,5.60e-01,1.36e+00,
153,5.60e-01,1.36e+00,
154,6.40e-01,1.36e+00,
155,6.40e-01,1.36e+00,
156,6.40e-01,1.28e+00,
157,6.40e-01,1.28e+00,
158,6.40e-01,1.20e+00,
159,6.40e-01,1.20e+00,
160,7.20e-01,1.20e+00,
161,7.20e-01,1.20e+00,
162,7.20e-01,1.12e+00,
163,7.20e-01,1.12e+00,
164,7.20e-01,1.12e+00,
165,7.20e-01,1.12e+00,
166,7.20e-01,1.12e+00,
167,7.20e-01,1.12e+00,
168,7.20e-01,1.04e+00,
169,7.20e-01,1.04e+00,
170,8.00e-01,8.80e-01,
171,8.00e-01,8.80e-01,
172,8.00e-01,9.60e-01,
173,8.00e-01,9.60e-01,
174,8.00e-01,8.00e-01,
175,8.00e-01,8.00e-01,
176,8.00e-01,8.00e-01,
177,8.00e-01,8.00e-01,
178,8.40e-01,7.20e-01,
179,8.40e-01,7.20e-01,
180,8.40e-01,6.40e-01,
181,8.40e-01,6.40e-01,
182,8.80e-01,6.40e-01,
183,8.80e-01,6.40e-01,
184,8.80e-01,5.60e-01,
185,8.80e-01,5.60e-01,
186,8.80e-01,4.80e-01,
187,8.80e-01,4.80e-01,
188,9.20e-01,4.80e-01,
189,9.20e-01,4.80e-01,
190,8.80e-01,4.00e-01,
191,8.80e-01,4.00e-01,
192,9.20e-01,4.00e-01,
193,9.20e-01,4.00e-01,
194,9.20e-01,3.20e-01,
195,9.20e-01,3.20e-01,
196,9.20e-01,2.40e-01,
197,9.20e-01,2.40e-01,
198,9.60e-01,2.40e-01,
199,9.60e-01,2.40e-01,
200,9.60e-01,1.60e-01,
201,9.60e-01,1.60e-01,
202,9.60e-01,8.00e-02,
203,9.60e-01,8.00e-02,
204,9.60e-01,0.00e+00,
205,9.60e-01,0.00e+00,
206,9.60e-01,-8.00e-02,
207,9.60e-01,-8.00e-02,
208,9.60e-01,-8.00e-02,
209,9.60e-01,-8.00e-02,
210,9.60e-01,-1.60e-01,
211,9.60e-01,-1.60e-01,
212,1.00e+00,-2.40e-01,
213,1.00e+00,-2.40e-01,
214,1.00e+00,-3.20e-01,
215,1.00e+00,-3.20e-01,
216,1.00e+00,-4.00e-01,
217,1.00e+00,-4.00e-01,
218,1.00e+00,-3.20e-01,
219,1.00e+00,-3.20e-01,
220,1.00e+00,-4.80e-01,
221,1.00e+00,-4.80e-01,
222,1.04e+00,-4.80e-01,
223,1.04e+00,-4.80e-01,
224,1.04e+00,-5.60e-01,
225,1.04e+00,-5.60e-01,
226,1.04e+00,-6.40e-01,
227,1.04e+00,-6.40e-01,
228,1.04e+00,-6.40e-01,
229,1.04e+00,-6.40e-01,
230,1.00e+00,-7.20e-01,
231,1.00e+00,-7.20e-01,
232,1.00e+00,-7.20e-01,
233,1.00e+00,-7.20e-01,
234,1.00e+00,-8.00e-01,
235,1.00e+00,-8.00e-01,
236,1.00e+00,-8.80e-01,
237,1.00e+00,-8.80e-01,
238,1.00e+00,-8.80e-01,
239,1.00e+00,-8.80e-01,
240,9.60e-01,-9.60e-01,
241,9.60e-01,-9.60e-01,
242,9.60e-01,-1.04e+00,
243,9.60e-01,-1.04e+00,
244,9.60e-01,-1.04e+00,
245,9.60e-01,-1.04e+00,
246,9.60e-01,-1.20e+00,
247,9.60e-01,-1.20e+00,
248,9.60e-01,-1.20e+00,
249,9.60e-01,-1.20e+00,
250,9.60e-01,-1.28e+00,
251,9.60e-01,-1.28e+00,
252,9.60e-01,-1.28e+00,
253,9.60e-01,-1.28e+00,
254,9.20e-01,-1.36e+00,
255,9.20e-01,-1.36e+00,
256,9.20e-01,-1.36e+00,
257,9.20e-01,-1.36e+00,
258,9.20e-01,-1.44e+00,
259,9.20e-01,-1.44e+00,
260,9.20e-01,-1.44e+00,
261,9.20e-01,-1.44e+00,
262,9.20e-01,-1.52e+00,
263,9.20e-01,-1.52e+00,
264,8.80e-01,-1.52e+00,
265,8.80e-01,-1.52e+00,
266,8.80e-01,-1.60e+00,
267,8.80e-01,-1.60e+00,
268,8.80e-01,-1.60e+00,
269,8.80e-01,-1.60e+00,
270,8.40e-01,-1.68e+00,
271,8.40e-01,-1.68e+00,
272,8.40e-01,-1.68e+00,
273,8.40e-01,-1.68e+00,
274,8.40e-01,-1.68e+00,
275,8.40e-01,-1.68e+00,
276,8.00e-01,-1.76e+00,
277,8.00e-01,-1.76e+00,
278,8.00e-01,-1.84e+00,
279,8.00e-01,-1.84e+00,
280,8.00e-01,-1.84e+00,
281,8.00e-01,-1.84e+00,
282,7.60e-01,-1.92e+00,
283,7.60e-01,-1.92e+00,
284,7.60e-01,-1.92e+00,
285,7.60e-01,-1.92e+00,
286,7.60e-01,-2.00e+00,
287,7.60e-01,-2.00e+00,
288,6.80e-01,-2.00e+00,
289,6.80e-01,-2.00e+00,
290,6.80e-01,-2.00e+00,
291,6.80e-01,-2.00e+00,
292,6.80e-01,-2.08e+00,
293,6.80e-01,-2.08e+00,
294,6.40e-01,-2.08e+00,
295,6.40e-01,-2.08e+00,
296,6.40e-01,-2.08e+00,
297,6.40e-01,-2.08e+00,
298,6.00e-01,-2.08e+00,
299,6.00e-01,-2.08e+00,
300,6.00e-01,-2.16e+00,
301,6.00e-01,-2.16e+00,
302,5.60e-01,-2.16e+00,
303,5.60e-01,-2.16e+00,
304,5.20e-01,-2.16e+00,
305,5.20e-01,-2.16e+00,
306,5.20e-01,-2.16e+00,
307,5.20e-01,-2.16e+00,
308,4.80e-01,-2.24e+00,
309,4.80e-01,-2.24e+00,
310,4.80e-01,-2.24e+00,
311,4.80e-01,-2.24e+00,
312,4.40e-01,-2.24e+00,
313,4.40e-01,-2.24e+00,
314,4.40e-01,-2.24e+00,
315,4.40e-01,-2.24e+00,
316,4.00e-01,-2.24e+00,
317,4.00e-01,-2.24e+00,
318,4.00e-01,-2.24e+00,
319,4.00e-01,-2.24e+00,
320,3.60e-01,-2.32e+00,
321,3.60e-01,-2.32e+00,
322,3.60e-01,-2.24e+00,
323,3.60e-01,-2.24e+00,
324,3.20e-01,-2.24e+00,
325,3.20e-01,-2.24e+00,
326,3.20e-01,-2.24e+00,
327,3.20e-01,-2.24e+00,
328,2.80e-01,-2.24e+00,
329,2.80e-01,-2.24e+00,
330,2.40e-01,-2.32e+00,
331,2.40e-01,-2.32e+00,
332,2.40e-01,-2.32e+00,
333,2.40e-01,-2.32e+00,
334,2.00e-01,-2.32e+00,
335,2.00e-01,-2.32e+00,
336,2.00e-01,-2.32e+00,
337,2.00e-01,-2.32e+00,
338,1.20e-01,-2.24e+00,
339,1.20e-01,-2.24e+00,
340,1.20e-01,-2.24e+00,
341,1.20e-01,-2.24e+00,
342,8.00e-02,-2.24e+00,
343,8.00e-02,-2.24e+00,
344,8.00e-02,-2.24e+00,
345,8.00e-02,-2.24e+00,
346,8.00e-02,-2.32e+00,
347,8.00e-02,-2.32e+00,
348,4.00e-02,-2.32e+00,
349,4.00e-02,-2.32e+00,
350,0.00e+00,-2.32e+00,
351,0.00e+00,-2.32e+00,
352,0.00e+00,-2.24e+00,
353,0.00e+00,-2.24e+00,
354,-4.00e-02,-2.24e+00,
355,-4.00e-02,-2.24e+00,
356,-8.00e-02,-2.16e+00,
357,-8.00e-02,-2.16e+00,
358,-8.00e-02,-2.16e+00,
359,-8.00e-02,-2.16e+00,
360,-1.20e-01,-2.16e+00,
361,-1.20e-01,-2.16e+00,
362,-1.20e-01,-2.16e+00,
363,-1.20e-01,-2.16e+00,
364,-1.60e-01,-2.08e+00,
365,-1.60e-01,-2.08e+00,
366,-1.60e-01,-2.08e+00,
367,-1.60e-01,-2.08e+00,
368,-2.40e-01,-2.08e+00,
369,-2.40e-01,-2.08e+00,
370,-2.40e-01,-2.00e+00,
371,-2.40e-01,-2.00e+00,
372,-2.40e-01,-2.00e+00,
373,-2.40e-01,-2.00e+00,
374,-2.80e-01,-1.92e+00,
375,-2.80e-01,-1.92e+00,
376,-3.20e-01,-1.92e+00,
377,-3.20e-01,-1.92e+00,
378,-3.60e-01,-1.84e+00,
379,-3.60e-01,-1.84e+00,
380,-3.60e-01,-1.84e+00,
381,-3.60e-01,-1.84e+00,
382,-4.00e-01,-1.84e+00,
383,-4.00e-01,-1.84e+00,
384,-4.00e-01,-1.76e+00,
385,-4.00e-01,-1.76e+00,
386,-4.40e-01,-1.76e+00,
387,-4.40e-01,-1.76e+00,
388,-4.80e-01,-1.68e+00,
389,-4.80e-01,-1.68e+00,
390,-4.80e-01,-1.68e+00,
391,-4.80e-01,-1.68e+00,
392,-4.80e-01,-1.68e+00,
393,-4.80e-01,-1.68e+00,
394,-5.20e-01,-1.68e+00,
395,-5.20e-01,-1.68e+00,
396,-5.20e-01,-1.60e+00,
397,-5.20e-01,-1.60e+00,
398,-5.60e-01,-1.52e+00,
399,-5.60e-01,-1.52e+00,
400,-6.00e-01,-1.52e+00,
401,-6.00e-01,-1.52e+00,
402,-6.00e-01,-1.44e+00,
403,-6.00e-01,-1.44e+00,
404,-6.40e-01,-1.44e+00,
405,-6.40e-01,-1.44e+00,
406,-6.00e-01,-1.28e+00,
407,-6.00e-01,-1.28e+00,
408,-6.80e-01,-1.28e+00,
409,-6.80e-01,-1.28e+00,
410,-6.80e-01,-1.20e+00,
411,-6.80e-01,-1.20e+00,
412,-6.80e-01,-1.28e+00,
413,-6.80e-01,-1.28e+00,
414,-7.20e-01,-1.20e+00,
415,-7.20e-01,-1.20e+00,
416,-7.60e-01,-1.12e+00,
417,-7.60e-01,-1.12e+00,
418,-7.60e-01,-1.04e+00,
419,-7.60e-01,-1.04e+00,
420,-7.60e-01,-9.60e-01,
421,-7.60e-01,-9.60e-01,
422,-7.60e-01,-9.60e-01,
423,-7.60e-01,-9.60e-01,
424,-8.00e-01,-8.80e-01,
425,-8.00e-01,-8.80e-01,
426,-8.00e-01,-8.80e-01,
427,-8.00e-01,-8.80e-01,
428,-8.40e-01,-8.00e-01,
429,-8.40e-01,-8.00e-01,
430,-8.40e-01,-7.20e-01,
431,-8.40e-01,-7.20e-01,
432,-8.40e-01,-6.40e-01,
433,-8.40e-01,-6.40e-01,
434,-8.80e-01,-5.60e-01,
435,-8.80e-01,-5.60e-01,
436,-8.40e-01,-6.40e-01,
437,-8.40e-01,-6.40e-01,
438,-8.80e-01,-4.80e-01,
439,-8.80e-01,-4.80e-01,
440,-9.20e-01,-4.80e-01,
441,-9.20e-01,-4.80e-01,
442,-8.80e-01,-4.00e-01,
443,-8.80e-01,-4.00e-01,
444,-8.80e-01,-3.20e-01,
445,-8.80e-01,-3.20e-01,
446,-9.20e-01,-3.20e-01,
447,-9.20e-01,-3.20e-01,
448,-9.60e-01,-3.20e-01,
449,-9.60e-01,-3.20e-01,
450,-9.60e-01,-1.60e-01,
451,-9.60e-01,-1.60e-01,
452,-9.60e-01,-1.60e-01,
453,-9.60e-01,-1.60e-01,
454,-9.60e-01,-8.00e-02,
455,-9.60e-01,-8.00e-02,
456,-9.60e-01,0.00e+00,
457,-9.60e-01,0.00e+00,
458,-9.60e-01,0.00e+00,
459,-9.60e-01,0.00e+00,
460,-1.00e+00,8.00e-02,
461,-1.00e+00,8.00e-02,
462,-1.00e+00,8.00e-02,
463,-1.00e+00,8.00e-02,
464,-9.60e-01,1.60e-01,
465,-9.60e-01,1.60e-01,
466,-1.00e+00,2.40e-01,
467,-1.00e+00,2.40e-01,
468,-1.00e+00,3.20e-01,
469,-1.00e+00,3.20e-01,
470,-1.00e+00,3.20e-01,
471,-1.00e+00,3.20e-01,
472,-1.00e+00,4.00e-01,
473,-1.00e+00,4.00e-01,
474,-1.00e+00,4.80e-01,
475,-1.00e+00,4.80e-01,
476,-1.00e+00,5.60e-01,
477,-1.00e+00,5.60e-01,
478,-1.00e+00,5.60e-01,
479,-1.00e+00,5.60e-01,
480,-1.00e+00,6.40e-01,
481,-1.00e+00,6.40e-01,
482,-1.00e+00,7.20e-01,
483,-1.00e+00,7.20e-01,
484,-1.00e+00,7.20e-01,
485,-1.00e+00,7.20e-01,
486,-1.00e+00,8.00e-01,
487,-1.00e+00,8.00e-01,
488,-9.60e-01,8.00e-01,
489,-9.60e-01,8.00e-01,
490,-1.00e+00,8.80e-01,
491,-1.00e+00,8.80e-01,
492,-9.60e-01,9.60e-01,
493,-9.60e-01,9.60e-01,
494,-9.60e-01,1.04e+00,
495,-9.60e-01,1.04e+00,
496,-9.60e-01,1.12e+00,
497,-9.60e-01,1.12e+00,
498,-9.60e-01,1.04e+00,
499,-9.60e-01,1.04e+00,
500,-9.60e-01,1.12e+00,
501,-9.60e-01,1.12e+00,
502,-9.60e-01,1.12e+00,
503,-9.60e-01,1.12e+00,
504,-9.20e-01,1.28e+00,
505,-9.20e-01,1.28e+00,
506,-9.20e-01,1.28e+00,
507,-9.20e-01,1.28e+00,
508,-9.20e-01,1.36e+00,
509,-9.20e-01,1.36e+00,
510,-9.20e-01,1.36e+00,
511,-9.20e-01,1.36e+00,
512,-9.20e-01,1.44e+00,
513,-9.20e-01,1.44e+00,
514,-8.80e-01,1.44e+00,
515,-8.80e-01,1.44e+00,
516,-8.80e-01,1.52e+00,
517,-8.80e-01,1.52e+00,
518,-8.80e-01,1.52e+00,
519,-8.80e-01,1.52e+00,
520,-8.40e-01,1.60e+00,
521,-8.40e-01,1.60e+00,
522,-8.00e-01,1.68e+00,
523,-8.00e-01,1.68e+00,
524,-8.40e-01,1.60e+00,
525,-8.40e-01,1.60e+00,
526,-8.00e-01,1.68e+00,
527,-8.00e-01,1.68e+00,
528,-7.60e-01,1.68e+00,
529,-7.60e-01,1.68e+00,
530,-8.00e-01,1.76e+00,
531,-8.00e-01,1.76e+00,
532,-7.60e-01,1.76e+00,
533,-7.60e-01,1.76e+00,
534,-7.20e-01,1.84e+00,
535,-7.20e-01,1.84e+00,
536,-7.20e-01,1.92e+00,
537,-7.20e-01,1.92e+00,
538,-6.80e-01,1.92e+00,
539,-6.80e-01,1.92e+00,
540,-6.80e-01,1.92e+00,
541,-6.80e-01,1.92e+00,
542,-6.80e-01,2.00e+00,
543,-6.80e-01,2.00e+00,
544,-6.40e-01,2.00e+00,
545,-6.40e-01,2.00e+00,
546,-6.40e-01,2.00e+00,
547,-6.40e-01,2.00e+00,
548,-6.00e-01,2.00e+00,
549,-6.00e-01,2.00e+00,
550,-5.60e-01,2.08e+00,
551,-5.60e-01,2.08e+00,
552,-5.60e-01,2.08e+00,
553,-5.60e-01,2.08e+00,
554,-5.20e-01,2.08e+00,
555,-5.20e-01,2.08e+00,
556,-5.20e-01,2.08e+00,
557,-5.20e-01,2.08e+00,
558,-5.20e-01,2.08e+00,
559,-5.20e-01,2.08e+00,
560,-4.80e-01,2.16e+00,
561,-4.80e-01,2.16e+00,
562,-4.80e-01,2.16e+00,
563,-4.80e-01,2.16e+00,
564,-4.40e-01,2.16e+00,
565,-4.40e-01,2.16e+00,
566,-4.00e-01,2.16e+00,
567,-4.00e-01,2.16e+00,
568,-4.00e-01,2.16e+00,
569,-4.00e-01,2.16e+00,
570,-3.60e-01,2.16e+00,
571,-3.60e-01,2.16e+00,
572,-3.60e-01,2.16e+00,
573,-3.60e-01,2.16e+00,
574,-3.20e-01,2.24e+00,
575,-3.20e-01,2.24e+00,
576,-3.20e-01,2.16e+00,
577,-3.20e-01,2.16e+00,
578,-2.80e-01,2.24e+00,
579,-2.80e-01,2.24e+00,
580,-2.80e-01,2.24e+00,
581,-2.80e-01,2.24e+00,
582,-2.40e-01,2.16e+00,
583,-2.40e-01,2.16e+00,
584,-2.00e-01,2.16e+00,
585,-2.00e-01,2.16e+00,
586,-1.60e-01,2.16e+00,
587,-1.60e-01,2.16e+00,
588,-1.60e-01,2.16e+00,
589,-1.60e-01,2.16e+00,
590,-1.20e-01,2.24e+00,
591,-1.20e-01,2.24e+00,
592,-8.00e-02,2.24e+00,
593,-8.00e-02,2.24e+00,
594,-8.00e-02,2.24e+00,
595,-8.00e-02,2.24e+00,
596,-4.00e-02,2.16e+00,
597,-4.00e-02,2.16e+00,
598,-4.00e-02,2.24e+00,
599,-4.00e-02,2.24e+00,
600,0.00e+00,2.16e+00,
601,0.00e+00,2.16e+00,
602,4.00e-02,2.16e+00,
603,4.00e-02,2.16e+00,
604,4.00e-02,2.16e+00,
605,4.00e-02,2.16e+00,
606,8.00e-02,2.16e+00,
607,8.00e-02,2.16e+00,
608,8.00e-02,2.08e+00,
609,8.00e-02,2.08e+00,
610,1.20e-01,2.08e+00,
611,1.20e-01,2.08e+00,
612,1.20e-01,2.00e+00,
613,1.20e-01,2.00e+00,
614,2.00e-01,2.00e+00,
615,2.00e-01,2.00e+00,
616,1.60e-01,2.00e+00,
617,1.60e-01,2.00e+00,
618,2.00e-01,2.00e+00,
619,2.00e-01,2.00e+00,
620,2.40e-01,1.92e+00,
621,2.40e-01,1.92e+00,
622,2.80e-01,1.92e+00,
623,2.80e-01,1.92e+00,
624,2.80e-01,1.92e+00,
625,2.80e-01,1.92e+00,
626,3.20e-01,1.92e+00,
627,3.20e-01,1.92e+00,
628,3.20e-01,1.84e+00,
629,3.20e-01,1.84e+00,
630,3.60e-01,1.84e+00,
631,3.60e-01,1.84e+00,
632,3.60e-01,1.76e+00,
633,3.60e-01,1.76e+00,
634,4.00e-01,1.68e+00,
635,4.00e-01,1.68e+00,
636,4.40e-01,1.68e+00,
637,4.40e-01,1.68e+00,
638,4.40e-01,1.60e+00,
639,4.40e-01,1.60e+00,
640,4.80e-01,1.60e+00,
641,4.80e-01,1.60e+00,
642,5.20e-01,1.52e+00,
643,5.20e-01,1.52e+00,
644,5.20e-01,1.52e+00,
645,5.20e-01,1.52e+00,
646,5.60e-01,1.52e+00,
647,5.60e-01,1.52e+00,
648,5.60e-01,1.52e+00,
649,5.60e-01,1.52e+00,
650,6.00e-01,1.44e+00,
651,6.00e-01,1.44e+00,
652,6.00e-01,1.36e+00,
653,6.00e-01,1.36e+00,
654,6.40e-01,1.36e+00,
655,6.40e-01,1.36e+00,
656,6.40e-01,1.28e+00,
657,6.40e-01,1.28e+00,
658,6.80e-01,1.28e+00,
659,6.80e-01,1.28e+00,
660,7.20e-01,1.20e+00,
661,7.20e-01,1.20e+00,
662,6.80e-01,1.20e+00,
663,6.80e-01,1.20e+00,
664,7.20e-01,1.12e+00,
665,7.20e-01,1.12e+00,
666,7.20e-01,1.04e+00,
667,7.20e-01,1.04e+00,
668,7.60e-01,1.04e+00,
669,7.60e-01,1.04e+00,
670,7.60e-01,8.80e-01,
671,7.60e-01,8.80e-01,
672,8.00e-01,8.80e-01,
673,8.00e-01,8.80e-01,
674,8.00e-01,8.00e-01,
675,8.00e-01,8.00e-01,
676,8.40e-01,8.80e-01,
677,8.40e-01,8.80e-01,
678,8.40e-01,7.20e-01,
679,8.40e-01,7.20e-01,
680,8.40e-01,6.40e-01,
681,8.40e-01,6.40e-01,
682,8.80e-01,6.40e-01,
683,8.80e-01,6.40e-01,
684,8.80e-01,5.60e-01,
685,8.80e-01,5.60e-01,
686,8.80e-01,5.60e-01,
687,8.80e-01,5.60e-01,
688,8.80e-01,4.80e-01,
689,8.80e-01,4.80e-01,
690,9.20e-01,4.00e-01,
691,9.20e-01,4.00e-01,
692,9.20e-01,4.00e-01,
693,9.20e-01,4.00e-01,
694,9.20e-01,3.20e-01,
695,9.20e-01,3.20e-01,
696,9.20e-01,2.40e-01,
697,9.20e-01,2.40e-01,
698,9.60e-01,1.60e-01,
699,9.60e-01,1.60e-01,
700,9.60e-01,1.60e-01,
701,9.60e-01,1.60e-01,
702,9.60e-01,8.00e-02,
703,9.60e-01,8.00e-02,
704,9.60e-01,0.00e+00,
705,9.60e-01,0.00e+00,
706,9.60e-01,-8.00e-02,
707,9.60e-01,-8.00e-02,
708,9.60e-01,-8.00e-02,
709,9.60e-01,-8.00e-02,
710,9.60e-01,-1.60e-01,
711,9.60e-01,-1.60e-01,
712,9.60e-01,-2.40e-01,
713,9.60e-01,-2.40e-01,
714,1.00e+00,-3.20e-01,
715,1.00e+00,-3.20e-01,
716,1.04e+00,-3.20e-01,
717,1.04e+00,-3.20e-01,
718,1.00e+00,-4.00e-01,
719,1.00e+00,-4.00e-01,
720,1.00e+00,-4.80e-01,
721,1.00e+00,-4.80e-01,
722,1.04e+00,-4.80e-01,
723,1.04e+00,-4.80e-01,
724,1.04e+00,-4.80e-01,
725,1.04e+00,-4.80e-01,
726,1.00e+00,-5.60e-01,
727,1.00e+00,-5.60e-01,
728,1.00e+00,-6.40e-01,
729,1.00e+00,-6.40e-01,
730,1.00e+00,-6.40e-01,
731,1.00e+00,-6.40e-01,
732,1.04e+00,-8.00e-01,
733,1.04e+00,-8.00e-01,
734,1.00e+00,-8.00e-01,
735,1.00e+00,-8.00e-01,
736,1.00e+00,-8.80e-01,
737,1.00e+00,-8.80e-01,
738,9.60e-01,-9.60e-01,
739,9.60e-01,-9.60e-01,
740,9.60e-01,-9.60e-01,
741,9.60e-01,-9.60e-01,
742,9.60e-01,-1.04e+00,
743,9.60e-01,-1.04e+00,
744,9.60e-01,-1.12e+00,
745,9.60e-01,-1.12e+00,
746,9.60e-01,-1.20e+00,
747,9.60e-01,-1.20e+00,
748,9.60e-01,-1.20e+00,
749,9.60e-01,-1.20e+00,
750,9.60e-01,-1.20e+00,
751,9.60e-01,-1.20e+00,
752,9.20e-01,-1.20e+00,
753,9.20e-01,-1.20e+00,
754,9.20e-01,-1.28e+00,
755,9.20e-01,-1.28e+00,
756,9.20e-01,-1.36e+00,
757,9.20e-01,-1.36e+00,
758,9.20e-01,-1.44e+00,
759,9.20e-01,-1.44e+00,
760,9.20e-01,-1.44e+00,
761,9.20e-01,-1.44e+00,
762,8.80e-01,-1.52e+00,
763,8.80e-01,-1.52e+00,
764,8.80e-01,-1.52e+00,
765,8.80e-01,-1.52e+00,
766,8.80e-01,-1.60e+00,
767,8.80e-01,-1.60e+00,
768,8.80e-01,-1.60e+00,
769,8.80e-01,-1.60e+00,
770,8.40e-01,-1.68e+00,
771,8.40e-01,-1.68e+00,
772,8.40e-01,-1.68e+00,
773,8.40e-01,-1.68e+00,
774,8.40e-01,-1.68e+00,
775,8.40e-01,-1.68e+00,
776,8.00e-01,-1.76e+00,
777,8.00e-01,-1.76e+00,
778,7.60e-01,-1.76e+00,
779,7.60e-01,-1.76e+00,
780,8.00e-01,-1.92e+00,
781,8.00e-01,-1.92e+00,
782,7.60e-01,-1.84e+00,
783,7.60e-01,-1.84e+00,
784,7.60e-01,-1.92e+00,
785,7.60e-01,-1.92e+00,
786,7.20e-01,-2.00e+00,
787,7.20e-01,-2.00e+00,
788,6.80e-01,-2.00e+00,
789,6.80e-01,-2.00e+00,
790,6.80e-01,-2.00e+00,
791,6.80e-01,-2.00e+00,
792,6.40e-01,-2.08e+00,
793,6.40e-01,-2.08e+00,
794,6.40e-01,-2.08e+00,
795,6.40e-01,-2.08e+00,
796,6.40e-01,-2.08e+00,
797,6.40e-01,-2.08e+00,
798,6.00e-01,-2.08e+00,
799,6.00e-01,-2.08e+00,
800,6.00e-01,-2.16e+00,
801,6.00e-01,-2.16e+00,
802,5.60e-01,-2.16e+00,
803,5.60e-01,-2.16e+00,
804,5.60e-01,-2.16e+00,
805,5.60e-01,-2.16e+00,
806,5.20e-01,-2.16e+00,
807,5.20e-01,-2.16e+00,
808,5.20e-01,-2.16e+00,
809,5.20e-01,-2.16e+00,
810,4.80e-01,-2.24e+00,
811,4.80e-01,-2.24e+00,
812,4.40e-01,-2.24e+00,
813,4.40e-01,-2.24e+00,
814,4.40e-01,-2.24e+00,
815,4.40e-01,-2.24e+00,
816,4.00e-01,-2.24e+00,
817,4.00e-01,-2.24e+00,
818,4.00e-01,-2.24e+00,
819,4.00e-01,-2.24e+00,
820,3.60e-01,-2.24e+00,
821,3.60e-01,-2.24e+00,
822,3.60e-01,-2.24e+00,
823,3.60e-01,-2.24e+00,
824,3.20e-01,-2.32e+00,
825,3.20e-01,-2.32e+00,
826,2.80e-01,-2.32e+00,
827,2.80e-01,-2.32e+00,
828,2.80e-01,-2.32e+00,
829,2.80e-01,-2.32e+00,
830,2.40e-01,-2.32e+00,
831,2.40e-01,-2.32e+00,
832,2.40e-01,-2.32e+00,
833,2.40e-01,-2.32e+00,
834,2.00e-01,-2.32e+00,
835,2.00e-01,-2.32e+00,
836,1.60e-01,-2.32e+00,
837,1.60e-01,-2.32e+00,
838,1.60e-01,-2.24e+00,
