Versuch1/rawData/NewFile100kinv.csv

X,CH1,CH2,Start,Increment,
Sequence,Volt,Volt,-1.184000e-02,2.000000e-05
0,-9.20e-01,8.80e+00,
1,-9.20e-01,8.80e+00,
2,-8.80e-01,8.80e+00,
3,-8.80e-01,8.80e+00,
4,-8.80e-01,8.60e+00,
5,-8.80e-01,8.60e+00,
6,-8.80e-01,8.40e+00,
7,-8.80e-01,8.40e+00,
8,-8.80e-01,8.40e+00,
9,-8.80e-01,8.40e+00,
10,-8.40e-01,8.20e+00,
11,-8.40e-01,8.20e+00,
12,-8.40e-01,8.00e+00,
13,-8.40e-01,8.00e+00,
14,-8.40e-01,8.00e+00,
15,-8.40e-01,8.00e+00,
16,-7.60e-01,7.80e+00,
17,-7.60e-01,7.80e+00,
18,-8.00e-01,7.60e+00,
19,-8.00e-01,7.60e+00,
20,-8.00e-01,7.60e+00,
21,-8.00e-01,7.60e+00,
22,-7.60e-01,7.20e+00,
23,-7.60e-01,7.20e+00,
24,-7.60e-01,7.00e+00,
25,-7.60e-01,7.00e+00,
26,-6.80e-01,7.00e+00,
27,-6.80e-01,7.00e+00,
28,-7.20e-01,6.80e+00,
29,-7.20e-01,6.80e+00,
30,-6.80e-01,6.60e+00,
31,-6.80e-01,6.60e+00,
32,-6.40e-01,6.40e+00,
33,-6.40e-01,6.40e+00,
34,-6.40e-01,6.20e+00,
35,-6.40e-01,6.20e+00,
36,-6.00e-01,6.00e+00,
37,-6.00e-01,6.00e+00,
38,-6.00e-01,6.00e+00,
39,-6.00e-01,6.00e+00,
40,-5.60e-01,5.60e+00,
41,-5.60e-01,5.60e+00,
42,-5.60e-01,5.40e+00,
43,-5.60e-01,5.40e+00,
44,-5.20e-01,5.20e+00,
45,-5.20e-01,5.20e+00,
46,-5.20e-01,5.00e+00,
47,-5.20e-01,5.00e+00,
48,-4.80e-01,4.80e+00,
49,-4.80e-01,4.80e+00,
50,-4.80e-01,4.40e+00,
51,-4.80e-01,4.40e+00,
52,-4.80e-01,4.20e+00,
53,-4.80e-01,4.20e+00,
54,-4.40e-01,4.00e+00,
55,-4.40e-01,4.00e+00,
56,-4.00e-01,3.80e+00,
57,-4.00e-01,3.80e+00,
58,-3.60e-01,3.80e+00,
59,-3.60e-01,3.80e+00,
60,-3.60e-01,3.40e+00,
61,-3.60e-01,3.40e+00,
62,-3.20e-01,3.20e+00,
63,-3.20e-01,3.20e+00,
64,-2.80e-01,2.80e+00,
65,-2.80e-01,2.80e+00,
66,-2.80e-01,2.60e+00,
67,-2.80e-01,2.60e+00,
68,-2.40e-01,2.40e+00,
69,-2.40e-01,2.40e+00,
70,-2.40e-01,2.20e+00,
71,-2.40e-01,2.20e+00,
72,-2.00e-01,2.00e+00,
73,-2.00e-01,2.00e+00,
74,-2.00e-01,1.60e+00,
75,-2.00e-01,1.60e+00,
76,-1.60e-01,1.40e+00,
77,-1.60e-01,1.40e+00,
78,-1.60e-01,1.20e+00,
79,-1.60e-01,1.20e+00,
80,-1.20e-01,1.00e+00,
81,-1.20e-01,1.00e+00,
82,-1.20e-01,8.00e-01,
83,-1.20e-01,8.00e-01,
84,-8.00e-02,4.00e-01,
85,-8.00e-02,4.00e-01,
86,-4.00e-02,2.00e-01,
87,-4.00e-02,2.00e-01,
88,0.00e+00,0.00e+00,
89,0.00e+00,0.00e+00,
90,0.00e+00,-2.00e-01,
91,0.00e+00,-2.00e-01,
92,4.00e-02,-6.00e-01,
93,4.00e-02,-6.00e-01,
94,4.00e-02,-8.00e-01,
95,4.00e-02,-8.00e-01,
96,8.00e-02,-1.00e+00,
97,8.00e-02,-1.00e+00,
98,1.20e-01,-1.20e+00,
99,1.20e-01,-1.20e+00,
100,1.20e-01,-1.40e+00,
101,1.20e-01,-1.40e+00,
102,1.60e-01,-1.60e+00,
103,1.60e-01,-1.60e+00,
104,2.00e-01,-1.80e+00,
105,2.00e-01,-1.80e+00,
106,2.40e-01,-2.20e+00,
107,2.40e-01,-2.20e+00,
108,2.00e-01,-2.40e+00,
109,2.00e-01,-2.40e+00,
110,2.80e-01,-2.60e+00,
111,2.80e-01,-2.60e+00,
112,2.80e-01,-2.80e+00,
113,2.80e-01,-2.80e+00,
114,3.20e-01,-3.20e+00,
115,3.20e-01,-3.20e+00,
116,3.20e-01,-3.40e+00,
117,3.20e-01,-3.40e+00,
118,3.60e-01,-3.80e+00,
119,3.60e-01,-3.80e+00,
120,3.60e-01,-4.00e+00,
121,3.60e-01,-4.00e+00,
122,4.00e-01,-4.20e+00,
123,4.00e-01,-4.20e+00,
124,4.40e-01,-4.20e+00,
125,4.40e-01,-4.20e+00,
126,4.40e-01,-4.60e+00,
127,4.40e-01,-4.60e+00,
128,4.40e-01,-4.80e+00,
129,4.40e-01,-4.80e+00,
130,4.80e-01,-5.20e+00,
131,4.80e-01,-5.20e+00,
132,5.20e-01,-5.20e+00,
133,5.20e-01,-5.20e+00,
134,5.20e-01,-5.60e+00,
135,5.20e-01,-5.60e+00,
136,5.20e-01,-5.80e+00,
137,5.20e-01,-5.80e+00,
138,6.00e-01,-6.00e+00,
139,6.00e-01,-6.00e+00,
140,5.60e-01,-6.20e+00,
141,5.60e-01,-6.20e+00,
142,6.40e-01,-6.40e+00,
143,6.40e-01,-6.40e+00,
144,6.40e-01,-6.40e+00,
145,6.40e-01,-6.40e+00,
146,6.40e-01,-6.60e+00,
147,6.40e-01,-6.60e+00,
148,6.40e-01,-7.00e+00,
149,6.40e-01,-7.00e+00,
150,6.80e-01,-7.20e+00,
151,6.80e-01,-7.20e+00,
152,7.20e-01,-7.20e+00,
153,7.20e-01,-7.20e+00,
154,7.20e-01,-7.40e+00,
155,7.20e-01,-7.40e+00,
156,7.60e-01,-7.60e+00,
157,7.60e-01,-7.60e+00,
158,7.60e-01,-7.80e+00,
159,7.60e-01,-7.80e+00,
160,7.60e-01,-8.00e+00,
161,7.60e-01,-8.00e+00,
162,8.00e-01,-8.20e+00,
163,8.00e-01,-8.20e+00,
164,8.00e-01,-8.20e+00,
165,8.00e-01,-8.20e+00,
166,8.00e-01,-8.20e+00,
167,8.00e-01,-8.20e+00,
168,8.40e-01,-8.60e+00,
169,8.40e-01,-8.60e+00,
170,8.80e-01,-8.60e+00,
171,8.80e-01,-8.60e+00,
172,8.40e-01,-8.80e+00,
173,8.40e-01,-8.80e+00,
174,8.40e-01,-8.80e+00,
175,8.40e-01,-8.80e+00,
176,8.80e-01,-9.00e+00,
177,8.80e-01,-9.00e+00,
178,9.20e-01,-9.00e+00,
179,9.20e-01,-9.00e+00,
180,9.20e-01,-9.20e+00,
181,9.20e-01,-9.20e+00,
182,9.20e-01,-9.20e+00,
183,9.20e-01,-9.20e+00,
184,9.20e-01,-9.40e+00,
185,9.20e-01,-9.40e+00,
186,9.60e-01,-9.40e+00,
187,9.60e-01,-9.40e+00,
188,9.60e-01,-9.60e+00,
189,9.60e-01,-9.60e+00,
190,9.60e-01,-9.80e+00,
191,9.60e-01,-9.80e+00,
192,9.60e-01,-9.80e+00,
193,9.60e-01,-9.80e+00,
194,9.60e-01,-9.80e+00,
195,9.60e-01,-9.80e+00,
196,1.00e+00,-9.80e+00,
197,1.00e+00,-9.80e+00,
198,1.00e+00,-1.00e+01,
199,1.00e+00,-1.00e+01,
200,9.60e-01,-1.00e+01,
201,9.60e-01,-1.00e+01,
202,1.00e+00,-1.00e+01,
203,1.00e+00,-1.00e+01,
204,1.00e+00,-1.00e+01,
205,1.00e+00,-1.00e+01,
206,9.60e-01,-1.00e+01,
207,9.60e-01,-1.00e+01,
208,1.00e+00,-1.00e+01,
209,1.00e+00,-1.00e+01,
210,1.00e+00,-1.00e+01,
211,1.00e+00,-1.00e+01,
212,1.00e+00,-1.00e+01,
213,1.00e+00,-1.00e+01,
214,1.00e+00,-1.00e+01,
215,1.00e+00,-1.00e+01,
216,1.00e+00,-1.00e+01,
217,1.00e+00,-1.00e+01,
218,1.00e+00,-1.00e+01,
219,1.00e+00,-1.00e+01,
220,9.60e-01,-1.00e+01,
221,9.60e-01,-1.00e+01,
222,9.60e-01,-1.00e+01,
223,9.60e-01,-1.00e+01,
224,9.60e-01,-1.00e+01,
225,9.60e-01,-1.00e+01,
226,1.00e+00,-1.00e+01,
227,1.00e+00,-1.00e+01,
228,9.60e-01,-1.00e+01,
229,9.60e-01,-1.00e+01,
230,9.60e-01,-1.00e+01,
231,9.60e-01,-1.00e+01,
232,9.60e-01,-9.80e+00,
233,9.60e-01,-9.80e+00,
234,9.60e-01,-9.80e+00,
235,9.60e-01,-9.80e+00,
236,9.60e-01,-9.80e+00,
237,9.60e-01,-9.80e+00,
238,9.20e-01,-9.40e+00,
239,9.20e-01,-9.40e+00,
240,9.60e-01,-9.40e+00,
241,9.60e-01,-9.40e+00,
242,9.20e-01,-9.40e+00,
243,9.20e-01,-9.40e+00,
244,9.20e-01,-9.20e+00,
245,9.20e-01,-9.20e+00,
246,8.80e-01,-9.20e+00,
247,8.80e-01,-9.20e+00,
248,9.20e-01,-9.20e+00,
249,9.20e-01,-9.20e+00,
250,8.80e-01,-9.20e+00,
251,8.80e-01,-9.20e+00,
252,9.20e-01,-9.00e+00,
253,9.20e-01,-9.00e+00,
254,8.40e-01,-8.80e+00,
255,8.40e-01,-8.80e+00,
256,8.40e-01,-8.80e+00,
257,8.40e-01,-8.80e+00,
258,8.40e-01,-8.60e+00,
259,8.40e-01,-8.60e+00,
260,8.40e-01,-8.40e+00,
261,8.40e-01,-8.40e+00,
262,8.40e-01,-8.40e+00,
263,8.40e-01,-8.40e+00,
264,8.00e-01,-8.00e+00,
265,8.00e-01,-8.00e+00,
266,8.00e-01,-8.00e+00,
267,8.00e-01,-8.00e+00,
268,7.60e-01,-7.80e+00,
269,7.60e-01,-7.80e+00,
270,7.60e-01,-7.60e+00,
271,7.60e-01,-7.60e+00,
272,7.60e-01,-7.40e+00,
273,7.60e-01,-7.40e+00,
274,7.20e-01,-7.40e+00,
275,7.20e-01,-7.40e+00,
276,7.20e-01,-7.00e+00,
277,7.20e-01,-7.00e+00,
278,6.80e-01,-6.80e+00,
279,6.80e-01,-6.80e+00,
280,6.80e-01,-6.80e+00,
281,6.80e-01,-6.80e+00,
282,6.40e-01,-6.80e+00,
283,6.40e-01,-6.80e+00,
284,6.00e-01,-6.40e+00,
285,6.00e-01,-6.40e+00,
286,6.00e-01,-6.20e+00,
287,6.00e-01,-6.20e+00,
288,5.60e-01,-6.00e+00,
289,5.60e-01,-6.00e+00,
290,5.60e-01,-5.60e+00,
291,5.60e-01,-5.60e+00,
292,5.60e-01,-5.60e+00,
293,5.60e-01,-5.60e+00,
294,5.60e-01,-5.40e+00,
295,5.60e-01,-5.40e+00,
296,5.20e-01,-5.20e+00,
297,5.20e-01,-5.20e+00,
298,4.80e-01,-5.00e+00,
299,4.80e-01,-5.00e+00,
300,4.40e-01,-4.80e+00,
301,4.40e-01,-4.80e+00,
302,4.40e-01,-4.60e+00,
303,4.40e-01,-4.60e+00,
304,4.00e-01,-4.40e+00,
305,4.00e-01,-4.40e+00,
306,4.00e-01,-4.00e+00,
307,4.00e-01,-4.00e+00,
308,3.60e-01,-3.80e+00,
309,3.60e-01,-3.80e+00,
310,3.60e-01,-3.60e+00,
311,3.60e-01,-3.60e+00,
312,3.20e-01,-3.40e+00,
313,3.20e-01,-3.40e+00,
314,3.20e-01,-3.20e+00,
315,3.20e-01,-3.20e+00,
316,2.80e-01,-2.80e+00,
317,2.80e-01,-2.80e+00,
318,2.80e-01,-2.80e+00,
319,2.80e-01,-2.80e+00,
320,2.40e-01,-2.40e+00,
321,2.40e-01,-2.40e+00,
322,2.40e-01,-2.20e+00,
323,2.40e-01,-2.20e+00,
324,2.00e-01,-2.00e+00,
325,2.00e-01,-2.00e+00,
326,1.60e-01,-1.60e+00,
327,1.60e-01,-1.60e+00,
328,1.20e-01,-1.40e+00,
329,1.20e-01,-1.40e+00,
330,1.20e-01,-1.20e+00,
331,1.20e-01,-1.20e+00,
332,8.00e-02,-8.00e-01,
333,8.00e-02,-8.00e-01,
334,4.00e-02,-6.00e-01,
335,4.00e-02,-6.00e-01,
336,0.00e+00,-4.00e-01,
337,0.00e+00,-4.00e-01,
338,0.00e+00,-2.00e-01,
339,0.00e+00,-2.00e-01,
340,-4.00e-02,2.00e-01,
341,-4.00e-02,2.00e-01,
342,-4.00e-02,4.00e-01,
343,-4.00e-02,4.00e-01,
344,-8.00e-02,6.00e-01,
345,-8.00e-02,6.00e-01,
346,-1.20e-01,1.00e+00,
347,-1.20e-01,1.00e+00,
348,-1.20e-01,1.20e+00,
349,-1.20e-01,1.20e+00,
350,-1.60e-01,1.40e+00,
351,-1.60e-01,1.40e+00,
352,-2.00e-01,1.60e+00,
353,-2.00e-01,1.60e+00,
354,-2.00e-01,1.80e+00,
355,-2.00e-01,1.80e+00,
356,-2.40e-01,2.00e+00,
357,-2.40e-01,2.00e+00,
358,-2.40e-01,2.40e+00,
359,-2.40e-01,2.40e+00,
360,-2.80e-01,2.60e+00,
361,-2.80e-01,2.60e+00,
362,-2.80e-01,2.80e+00,
363,-2.80e-01,2.80e+00,
364,-3.20e-01,3.00e+00,
365,-3.20e-01,3.00e+00,
366,-3.20e-01,3.40e+00,
367,-3.20e-01,3.40e+00,
368,-3.60e-01,3.40e+00,
369,-3.60e-01,3.40e+00,
370,-4.00e-01,3.80e+00,
371,-4.00e-01,3.80e+00,
372,-4.40e-01,4.00e+00,
373,-4.40e-01,4.00e+00,
374,-4.40e-01,4.20e+00,
375,-4.40e-01,4.20e+00,
376,-4.80e-01,4.60e+00,
377,-4.80e-01,4.60e+00,
378,-4.80e-01,4.80e+00,
379,-4.80e-01,4.80e+00,
380,-5.20e-01,5.00e+00,
381,-5.20e-01,5.00e+00,
382,-5.20e-01,5.20e+00,
383,-5.20e-01,5.20e+00,
384,-5.60e-01,5.40e+00,
385,-5.60e-01,5.40e+00,
386,-5.60e-01,5.60e+00,
387,-5.60e-01,5.60e+00,
388,-5.60e-01,5.60e+00,
389,-5.60e-01,5.60e+00,
390,-6.00e-01,5.80e+00,
391,-6.00e-01,5.80e+00,
392,-6.40e-01,6.00e+00,
393,-6.40e-01,6.00e+00,
394,-6.40e-01,6.20e+00,
395,-6.40e-01,6.20e+00,
396,-6.80e-01,6.40e+00,
397,-6.80e-01,6.40e+00,
398,-7.20e-01,6.80e+00,
399,-7.20e-01,6.80e+00,
400,-6.80e-01,6.80e+00,
401,-6.80e-01,6.80e+00,
402,-7.20e-01,7.00e+00,
403,-7.20e-01,7.00e+00,
404,-7.20e-01,7.40e+00,
405,-7.20e-01,7.40e+00,
406,-7.20e-01,7.40e+00,
407,-7.20e-01,7.40e+00,
408,-8.00e-01,7.60e+00,
409,-8.00e-01,7.60e+00,
410,-8.00e-01,7.80e+00,
411,-8.00e-01,7.80e+00,
412,-8.00e-01,7.80e+00,
413,-8.00e-01,7.80e+00,
414,-8.40e-01,8.00e+00,
415,-8.40e-01,8.00e+00,
416,-8.40e-01,8.20e+00,
417,-8.40e-01,8.20e+00,
418,-8.40e-01,8.20e+00,
419,-8.40e-01,8.20e+00,
420,-8.80e-01,8.60e+00,
421,-8.80e-01,8.60e+00,
422,-8.80e-01,8.60e+00,
423,-8.80e-01,8.60e+00,
424,-8.80e-01,8.80e+00,
425,-8.80e-01,8.80e+00,
426,-8.80e-01,8.80e+00,
427,-8.80e-01,8.80e+00,
428,-9.20e-01,9.00e+00,
429,-9.20e-01,9.00e+00,
430,-9.20e-01,8.80e+00,
431,-9.20e-01,8.80e+00,
432,-9.20e-01,9.20e+00,
433,-9.20e-01,9.20e+00,
434,-9.20e-01,9.20e+00,
435,-9.20e-01,9.20e+00,
436,-9.60e-01,9.20e+00,
437,-9.60e-01,9.20e+00,
438,-1.00e+00,9.40e+00,
439,-1.00e+00,9.40e+00,
440,-1.00e+00,9.40e+00,
441,-1.00e+00,9.40e+00,
442,-9.60e-01,9.40e+00,
443,-9.60e-01,9.40e+00,
444,-1.00e+00,9.80e+00,
445,-1.00e+00,9.80e+00,
446,-1.00e+00,9.80e+00,
447,-1.00e+00,9.80e+00,
448,-1.00e+00,9.60e+00,
449,-1.00e+00,9.60e+00,
450,-1.00e+00,9.80e+00,
451,-1.00e+00,9.80e+00,
452,-1.00e+00,9.80e+00,
453,-1.00e+00,9.80e+00,
454,-1.04e+00,1.00e+01,
455,-1.04e+00,1.00e+01,
456,-1.00e+00,9.80e+00,
457,-1.00e+00,9.80e+00,
458,-1.04e+00,1.00e+01,
459,-1.04e+00,1.00e+01,
460,-1.04e+00,9.80e+00,
461,-1.04e+00,9.80e+00,
462,-1.00e+00,1.00e+01,
463,-1.00e+00,1.00e+01,
464,-1.00e+00,9.80e+00,
465,-1.00e+00,9.80e+00,
466,-1.04e+00,9.80e+00,
467,-1.04e+00,9.80e+00,
468,-1.04e+00,1.00e+01,
469,-1.04e+00,1.00e+01,
470,-1.04e+00,1.00e+01,
471,-1.04e+00,1.00e+01,
472,-1.00e+00,9.80e+00,
473,-1.00e+00,9.80e+00,
474,-1.00e+00,9.80e+00,
475,-1.00e+00,9.80e+00,
476,-1.00e+00,9.80e+00,
477,-1.00e+00,9.80e+00,
478,-1.00e+00,9.80e+00,
479,-1.00e+00,9.80e+00,
480,-1.00e+00,9.60e+00,
481,-1.00e+00,9.60e+00,
482,-9.60e-01,9.60e+00,
483,-9.60e-01,9.60e+00,
484,-9.60e-01,9.60e+00,
485,-9.60e-01,9.60e+00,
486,-9.60e-01,9.40e+00,
487,-9.60e-01,9.40e+00,
488,-1.00e+00,9.40e+00,
489,-1.00e+00,9.40e+00,
490,-1.00e+00,9.40e+00,
491,-1.00e+00,9.40e+00,
492,-9.20e-01,9.20e+00,
493,-9.20e-01,9.20e+00,
494,-9.20e-01,9.20e+00,
495,-9.20e-01,9.20e+00,
496,-9.20e-01,9.00e+00,
497,-9.20e-01,9.00e+00,
498,-9.20e-01,9.00e+00,
499,-9.20e-01,9.00e+00,
500,-9.20e-01,8.80e+00,
501,-9.20e-01,8.80e+00,
502,-8.80e-01,8.60e+00,
503,-8.80e-01,8.60e+00,
504,-8.80e-01,8.60e+00,
505,-8.80e-01,8.60e+00,
506,-8.80e-01,8.60e+00,
507,-8.80e-01,8.60e+00,
508,-8.40e-01,8.40e+00,
509,-8.40e-01,8.40e+00,
510,-8.40e-01,8.40e+00,
511,-8.40e-01,8.40e+00,
512,-8.00e-01,8.00e+00,
513,-8.00e-01,8.00e+00,
514,-8.40e-01,8.00e+00,
515,-8.40e-01,8.00e+00,
516,-8.00e-01,7.80e+00,
517,-8.00e-01,7.80e+00,
518,-8.00e-01,7.60e+00,
519,-8.00e-01,7.60e+00,
520,-7.60e-01,7.60e+00,
521,-7.60e-01,7.60e+00,
522,-7.20e-01,7.40e+00,
523,-7.20e-01,7.40e+00,
524,-7.60e-01,7.00e+00,
525,-7.60e-01,7.00e+00,
526,-7.20e-01,6.80e+00,
527,-7.20e-01,6.80e+00,
528,-7.20e-01,6.80e+00,
529,-7.20e-01,6.80e+00,
530,-6.80e-01,6.40e+00,
531,-6.80e-01,6.40e+00,
532,-6.40e-01,6.20e+00,
533,-6.40e-01,6.20e+00,
534,-6.40e-01,6.20e+00,
535,-6.40e-01,6.20e+00,
536,-6.40e-01,6.00e+00,
537,-6.40e-01,6.00e+00,
538,-6.00e-01,5.80e+00,
539,-6.00e-01,5.80e+00,
540,-6.00e-01,5.60e+00,
541,-6.00e-01,5.60e+00,
542,-5.60e-01,5.40e+00,
543,-5.60e-01,5.40e+00,
544,-5.20e-01,5.20e+00,
545,-5.20e-01,5.20e+00,
546,-5.20e-01,4.80e+00,
547,-5.20e-01,4.80e+00,
548,-5.20e-01,4.60e+00,
549,-5.20e-01,4.60e+00,
550,-4.80e-01,4.40e+00,
551,-4.80e-01,4.40e+00,
552,-4.80e-01,4.20e+00,
553,-4.80e-01,4.20e+00,
554,-4.40e-01,4.00e+00,
555,-4.40e-01,4.00e+00,
556,-4.00e-01,3.80e+00,
557,-4.00e-01,3.80e+00,
558,-4.00e-01,3.80e+00,
559,-4.00e-01,3.80e+00,
560,-3.60e-01,3.40e+00,
561,-3.60e-01,3.40e+00,
562,-3.60e-01,3.20e+00,
563,-3.60e-01,3.20e+00,
564,-3.20e-01,2.80e+00,
565,-3.20e-01,2.80e+00,
566,-2.80e-01,2.60e+00,
567,-2.80e-01,2.60e+00,
568,-2.80e-01,2.40e+00,
569,-2.80e-01,2.40e+00,
570,-2.40e-01,2.20e+00,
571,-2.40e-01,2.20e+00,
572,-2.00e-01,1.80e+00,
573,-2.00e-01,1.80e+00,
574,-1.60e-01,1.60e+00,
575,-1.60e-01,1.60e+00,
576,-1.60e-01,1.40e+00,
577,-1.60e-01,1.40e+00,
578,-1.20e-01,1.20e+00,
579,-1.20e-01,1.20e+00,
580,-1.20e-01,8.00e-01,
581,-1.20e-01,8.00e-01,
582,-8.00e-02,6.00e-01,
583,-8.00e-02,6.00e-01,
584,-4.00e-02,4.00e-01,
585,-4.00e-02,4.00e-01,
586,-8.00e-02,2.00e-01,
587,-8.00e-02,2.00e-01,
588,-4.00e-02,0.00e+00,
589,-4.00e-02,0.00e+00,
590,0.00e+00,-2.00e-01,
591,0.00e+00,-2.00e-01,
592,0.00e+00,-4.00e-01,
593,0.00e+00,-4.00e-01,
594,4.00e-02,-8.00e-01,
595,4.00e-02,-8.00e-01,
596,8.00e-02,-1.00e+00,
597,8.00e-02,-1.00e+00,
598,1.20e-01,-1.40e+00,
599,1.20e-01,-1.40e+00,
600,1.20e-01,-1.40e+00,
601,1.20e-01,-1.40e+00,
602,1.60e-01,-1.60e+00,
603,1.60e-01,-1.60e+00,
604,2.00e-01,-2.00e+00,
605,2.00e-01,-2.00e+00,
606,2.00e-01,-2.20e+00,
607,2.00e-01,-2.20e+00,
608,2.40e-01,-2.60e+00,
609,2.40e-01,-2.60e+00,
610,2.80e-01,-2.60e+00,
611,2.80e-01,-2.60e+00,
612,2.40e-01,-3.00e+00,
613,2.40e-01,-3.00e+00,
614,3.20e-01,-3.20e+00,
615,3.20e-01,-3.20e+00,
616,3.20e-01,-3.40e+00,
617,3.20e-01,-3.40e+00,
618,3.60e-01,-3.80e+00,
619,3.60e-01,-3.80e+00,
620,3.60e-01,-4.00e+00,
621,3.60e-01,-4.00e+00,
622,4.00e-01,-4.20e+00,
623,4.00e-01,-4.20e+00,
624,4.00e-01,-4.40e+00,
625,4.00e-01,-4.40e+00,
626,4.40e-01,-4.40e+00,
627,4.40e-01,-4.40e+00,
628,4.80e-01,-4.80e+00,
629,4.80e-01,-4.80e+00,
630,4.80e-01,-5.00e+00,
631,4.80e-01,-5.00e+00,
632,5.20e-01,-5.20e+00,
633,5.20e-01,-5.20e+00,
634,5.60e-01,-5.60e+00,
635,5.60e-01,-5.60e+00,
636,5.20e-01,-5.80e+00,
637,5.20e-01,-5.80e+00,
638,6.00e-01,-6.00e+00,
639,6.00e-01,-6.00e+00,
640,5.60e-01,-6.20e+00,
641,5.60e-01,-6.20e+00,
642,6.00e-01,-6.20e+00,
643,6.00e-01,-6.20e+00,
644,6.40e-01,-6.40e+00,
645,6.40e-01,-6.40e+00,
646,6.40e-01,-6.80e+00,
647,6.40e-01,-6.80e+00,
648,6.80e-01,-7.00e+00,
649,6.80e-01,-7.00e+00,
650,6.80e-01,-7.20e+00,
651,6.80e-01,-7.20e+00,
652,7.20e-01,-7.20e+00,
653,7.20e-01,-7.20e+00,
654,7.20e-01,-7.40e+00,
655,7.20e-01,-7.40e+00,
656,7.60e-01,-7.60e+00,
657,7.60e-01,-7.60e+00,
658,7.60e-01,-7.60e+00,
659,7.60e-01,-7.60e+00,
660,7.60e-01,-8.00e+00,
661,7.60e-01,-8.00e+00,
662,8.00e-01,-8.20e+00,
663,8.00e-01,-8.20e+00,
664,8.00e-01,-8.20e+00,
665,8.00e-01,-8.20e+00,
666,8.00e-01,-8.40e+00,
667,8.00e-01,-8.40e+00,
668,8.40e-01,-8.60e+00,
669,8.40e-01,-8.60e+00,
670,8.80e-01,-8.60e+00,
671,8.80e-01,-8.60e+00,
672,8.40e-01,-8.80e+00,
673,8.40e-01,-8.80e+00,
674,8.40e-01,-9.00e+00,
675,8.40e-01,-9.00e+00,
676,9.20e-01,-9.00e+00,
677,9.20e-01,-9.00e+00,
678,8.80e-01,-9.20e+00,
679,8.80e-01,-9.20e+00,
680,8.80e-01,-9.40e+00,
681,8.80e-01,-9.40e+00,
682,9.20e-01,-9.40e+00,
683,9.20e-01,-9.40e+00,
684,9.20e-01,-9.40e+00,
685,9.20e-01,-9.40e+00,
686,9.60e-01,-9.60e+00,
687,9.60e-01,-9.60e+00,
688,9.60e-01,-9.60e+00,
689,9.60e-01,-9.60e+00,
690,9.20e-01,-9.80e+00,
691,9.20e-01,-9.80e+00,
692,9.20e-01,-9.80e+00,
693,9.20e-01,-9.80e+00,
694,9.60e-01,-9.80e+00,
695,9.60e-01,-9.80e+00,
696,9.60e-01,-9.80e+00,
697,9.60e-01,-9.80e+00,
698,9.60e-01,-1.00e+01,
699,9.60e-01,-1.00e+01,
700,1.00e+00,-1.00e+01,
701,1.00e+00,-1.00e+01,
702,1.00e+00,-1.00e+01,
703,1.00e+00,-1.00e+01,
704,1.00e+00,-1.00e+01,
705,1.00e+00,-1.00e+01,
706,1.00e+00,-1.00e+01,
707,1.00e+00,-1.00e+01,
708,1.00e+00,-1.00e+01,
709,1.00e+00,-1.00e+01,
710,1.00e+00,-1.00e+01,
711,1.00e+00,-1.00e+01,
712,1.00e+00,-1.00e+01,
713,1.00e+00,-1.00e+01,
714,1.00e+00,-1.00e+01,
715,1.00e+00,-1.00e+01,
716,1.00e+00,-1.00e+01,
717,1.00e+00,-1.00e+01,
718,1.00e+00,-1.00e+01,
719,1.00e+00,-1.00e+01,
720,1.00e+00,-1.00e+01,
721,1.00e+00,-1.00e+01,
722,1.00e+00,-1.00e+01,
723,1.00e+00,-1.00e+01,
724,1.00e+00,-1.00e+01,
725,1.00e+00,-1.00e+01,
726,1.00e+00,-1.00e+01,
727,1.00e+00,-1.00e+01,
728,9.60e-01,-1.00e+01,
729,9.60e-01,-1.00e+01,
730,9.60e-01,-1.00e+01,
731,9.60e-01,-1.00e+01,
732,9.60e-01,-9.80e+00,
733,9.60e-01,-9.80e+00,
734,9.60e-01,-9.80e+00,
735,9.60e-01,-9.80e+00,
736,9.60e-01,-9.80e+00,
737,9.60e-01,-9.80e+00,
738,9.60e-01,-9.60e+00,
739,9.60e-01,-9.60e+00,
740,9.60e-01,-9.60e+00,
741,9.60e-01,-9.60e+00,
742,9.20e-01,-9.60e+00,
743,9.20e-01,-9.60e+00,
744,9.20e-01,-9.40e+00,
745,9.20e-01,-9.40e+00,
746,9.20e-01,-9.20e+00,
747,9.20e-01,-9.20e+00,
748,8.80e-01,-9.20e+00,
749,8.80e-01,-9.20e+00,
750,9.20e-01,-9.20e+00,
751,9.20e-01,-9.20e+00,
752,8.80e-01,-9.00e+00,
753,8.80e-01,-9.00e+00,
754,8.80e-01,-8.80e+00,
755,8.80e-01,-8.80e+00,
756,8.40e-01,-8.80e+00,
757,8.40e-01,-8.80e+00,
758,8.80e-01,-8.60e+00,
759,8.80e-01,-8.60e+00,
760,8.40e-01,-8.40e+00,
761,8.40e-01,-8.40e+00,
762,8.00e-01,-8.40e+00,
763,8.00e-01,-8.40e+00,
764,8.00e-01,-8.20e+00,
765,8.00e-01,-8.20e+00,
766,7.60e-01,-8.00e+00,
767,7.60e-01,-8.00e+00,
768,8.00e-01,-8.00e+00,
769,8.00e-01,-8.00e+00,
770,7.60e-01,-7.60e+00,
771,7.60e-01,-7.60e+00,
772,7.60e-01,-7.40e+00,
773,7.60e-01,-7.40e+00,
774,7.20e-01,-7.40e+00,
775,7.20e-01,-7.40e+00,
776,7.20e-01,-7.00e+00,
777,7.20e-01,-7.00e+00,
778,6.80e-01,-7.00e+00,
779,6.80e-01,-7.00e+00,
780,6.40e-01,-6.60e+00,
781,6.40e-01,-6.60e+00,
782,6.40e-01,-6.80e+00,
783,6.40e-01,-6.80e+00,
784,6.00e-01,-6.40e+00,
785,6.00e-01,-6.40e+00,
786,6.00e-01,-6.20e+00,
787,6.00e-01,-6.20e+00,
788,6.00e-01,-5.80e+00,
789,6.00e-01,-5.80e+00,
790,6.00e-01,-5.80e+00,
791,6.00e-01,-5.80e+00,
792,5.60e-01,-5.40e+00,
793,5.60e-01,-5.40e+00,
794,5.20e-01,-5.40e+00,
795,5.20e-01,-5.40e+00,
796,4.80e-01,-5.20e+00,
797,4.80e-01,-5.20e+00,
798,4.80e-01,-5.00e+00,
799,4.80e-01,-5.00e+00,
800,4.40e-01,-4.80e+00,
801,4.40e-01,-4.80e+00,
802,4.40e-01,-4.60e+00,
803,4.40e-01,-4.60e+00,
804,4.00e-01,-4.20e+00,
805,4.00e-01,-4.20e+00,
806,4.00e-01,-4.00e+00,
807,4.00e-01,-4.00e+00,
808,3.60e-01,-3.80e+00,
809,3.60e-01,-3.80e+00,
810,3.60e-01,-3.60e+00,
811,3.60e-01,-3.60e+00,
812,3.20e-01,-3.40e+00,
813,3.20e-01,-3.40e+00,
814,3.20e-01,-3.20e+00,
815,3.20e-01,-3.20e+00,
816,2.80e-01,-3.00e+00,
817,2.80e-01,-3.00e+00,
818,2.80e-01,-2.80e+00,
819,2.80e-01,-2.80e+00,
820,2.40e-01,-2.60e+00,
821,2.40e-01,-2.60e+00,
822,2.40e-01,-2.20e+00,
823,2.40e-01,-2.20e+00,
824,2.00e-01,-2.00e+00,
825,2.00e-01,-2.00e+00,
826,1.60e-01,-1.80e+00,
827,1.60e-01,-1.80e+00,
828,1.20e-01,-1.40e+00,
829,1.20e-01,-1.40e+00,
830,1.20e-01,-1.20e+00,
831,1.20e-01,-1.20e+00,
832,8.00e-02,-8.00e-01,
833,8.00e-02,-8.00e-01,
