Versuch1/rawData/NewFile150hz.csv

X,CH1,CH2,Start,Increment,
Sequence,Volt,Volt,-3.000000e-02,5.000000e-05
0,0.00e+00,-8.00e-01,
1,0.00e+00,-8.00e-01,
2,-4.00e-02,-4.00e-01,
3,-4.00e-02,-4.00e-01,
4,-8.00e-02,0.00e+00,
5,-8.00e-02,0.00e+00,
6,-8.00e-02,4.00e-01,
7,-8.00e-02,4.00e-01,
8,-1.60e-01,4.00e-01,
9,-1.60e-01,4.00e-01,
10,-1.60e-01,1.20e+00,
11,-1.60e-01,1.20e+00,
12,-2.00e-01,1.20e+00,
13,-2.00e-01,1.20e+00,
14,-2.40e-01,1.60e+00,
15,-2.40e-01,1.60e+00,
16,-2.80e-01,2.00e+00,
17,-2.80e-01,2.00e+00,
18,-2.80e-01,2.00e+00,
19,-2.80e-01,2.00e+00,
20,-3.20e-01,2.40e+00,
21,-3.20e-01,2.40e+00,
22,-3.20e-01,2.80e+00,
23,-3.20e-01,2.80e+00,
24,-3.60e-01,2.80e+00,
25,-3.60e-01,2.80e+00,
26,-4.00e-01,3.20e+00,
27,-4.00e-01,3.20e+00,
28,-4.40e-01,3.60e+00,
29,-4.40e-01,3.60e+00,
30,-4.40e-01,3.60e+00,
31,-4.40e-01,3.60e+00,
32,-5.20e-01,4.40e+00,
33,-5.20e-01,4.40e+00,
34,-5.20e-01,4.40e+00,
35,-5.20e-01,4.40e+00,
36,-5.60e-01,4.80e+00,
37,-5.60e-01,4.80e+00,
38,-5.60e-01,4.80e+00,
39,-5.60e-01,4.80e+00,
40,-6.00e-01,5.20e+00,
41,-6.00e-01,5.20e+00,
42,-6.40e-01,5.60e+00,
43,-6.40e-01,5.60e+00,
44,-6.40e-01,5.60e+00,
45,-6.40e-01,5.60e+00,
46,-6.80e-01,6.40e+00,
47,-6.80e-01,6.40e+00,
48,-6.80e-01,6.00e+00,
49,-6.80e-01,6.00e+00,
50,-7.20e-01,6.80e+00,
51,-7.20e-01,6.80e+00,
52,-7.20e-01,6.40e+00,
53,-7.20e-01,6.40e+00,
54,-7.20e-01,7.20e+00,
55,-7.20e-01,7.20e+00,
56,-7.60e-01,7.20e+00,
57,-7.60e-01,7.20e+00,
58,-8.00e-01,7.20e+00,
59,-8.00e-01,7.20e+00,
60,-8.00e-01,7.60e+00,
61,-8.00e-01,7.60e+00,
62,-8.00e-01,7.20e+00,
63,-8.00e-01,7.20e+00,
64,-8.40e-01,8.00e+00,
65,-8.40e-01,8.00e+00,
66,-8.80e-01,8.00e+00,
67,-8.80e-01,8.00e+00,
68,-8.80e-01,8.40e+00,
69,-8.80e-01,8.40e+00,
70,-9.20e-01,8.80e+00,
71,-9.20e-01,8.80e+00,
72,-9.20e-01,8.40e+00,
73,-9.20e-01,8.40e+00,
74,-9.20e-01,8.80e+00,
75,-9.20e-01,8.80e+00,
76,-9.20e-01,8.80e+00,
77,-9.20e-01,8.80e+00,
78,-9.60e-01,8.80e+00,
79,-9.60e-01,8.80e+00,
80,-9.60e-01,9.20e+00,
81,-9.60e-01,9.20e+00,
82,-9.60e-01,9.60e+00,
83,-9.60e-01,9.60e+00,
84,-9.60e-01,9.60e+00,
85,-9.60e-01,9.60e+00,
86,-9.60e-01,9.60e+00,
87,-9.60e-01,9.60e+00,
88,-9.60e-01,9.60e+00,
89,-9.60e-01,9.60e+00,
90,-1.00e+00,9.60e+00,
91,-1.00e+00,9.60e+00,
92,-1.00e+00,1.00e+01,
93,-1.00e+00,1.00e+01,
94,-1.00e+00,1.00e+01,
95,-1.00e+00,1.00e+01,
96,-1.00e+00,1.00e+01,
97,-1.00e+00,1.00e+01,
98,-1.00e+00,1.00e+01,
99,-1.00e+00,1.00e+01,
100,-1.00e+00,1.00e+01,
101,-1.00e+00,1.00e+01,
102,-1.00e+00,1.00e+01,
103,-1.00e+00,1.00e+01,
104,-1.00e+00,1.00e+01,
105,-1.00e+00,1.00e+01,
106,-1.00e+00,1.00e+01,
107,-1.00e+00,1.00e+01,
108,-1.00e+00,1.00e+01,
109,-1.00e+00,1.00e+01,
110,-1.00e+00,1.00e+01,
111,-1.00e+00,1.00e+01,
112,-9.60e-01,1.00e+01,
113,-9.60e-01,1.00e+01,
114,-9.60e-01,1.00e+01,
115,-9.60e-01,1.00e+01,
116,-9.60e-01,1.00e+01,
117,-9.60e-01,1.00e+01,
118,-9.60e-01,1.00e+01,
119,-9.60e-01,1.00e+01,
120,-9.20e-01,9.60e+00,
121,-9.20e-01,9.60e+00,
122,-9.20e-01,9.60e+00,
123,-9.20e-01,9.60e+00,
124,-9.20e-01,9.60e+00,
125,-9.20e-01,9.60e+00,
126,-9.20e-01,9.20e+00,
127,-9.20e-01,9.20e+00,
128,-8.80e-01,9.20e+00,
129,-8.80e-01,9.20e+00,
130,-8.80e-01,8.80e+00,
131,-8.80e-01,8.80e+00,
132,-8.80e-01,8.80e+00,
133,-8.80e-01,8.80e+00,
134,-8.40e-01,9.20e+00,
135,-8.40e-01,9.20e+00,
136,-8.40e-01,9.20e+00,
137,-8.40e-01,9.20e+00,
138,-8.00e-01,8.80e+00,
139,-8.00e-01,8.80e+00,
140,-7.60e-01,8.80e+00,
141,-7.60e-01,8.80e+00,
142,-7.60e-01,8.40e+00,
143,-7.60e-01,8.40e+00,
144,-7.60e-01,8.00e+00,
145,-7.60e-01,8.00e+00,
146,-7.60e-01,8.00e+00,
147,-7.60e-01,8.00e+00,
148,-7.20e-01,7.60e+00,
149,-7.20e-01,7.60e+00,
150,-7.20e-01,7.60e+00,
151,-7.20e-01,7.60e+00,
152,-6.40e-01,7.60e+00,
153,-6.40e-01,7.60e+00,
154,-6.40e-01,7.20e+00,
155,-6.40e-01,7.20e+00,
156,-6.00e-01,6.80e+00,
157,-6.00e-01,6.80e+00,
158,-6.00e-01,6.80e+00,
159,-6.00e-01,6.80e+00,
160,-5.60e-01,6.80e+00,
161,-5.60e-01,6.80e+00,
162,-5.60e-01,6.00e+00,
163,-5.60e-01,6.00e+00,
164,-5.20e-01,6.40e+00,
165,-5.20e-01,6.40e+00,
166,-4.80e-01,6.00e+00,
167,-4.80e-01,6.00e+00,
168,-4.40e-01,5.60e+00,
169,-4.40e-01,5.60e+00,
170,-4.00e-01,5.20e+00,
171,-4.00e-01,5.20e+00,
172,-4.00e-01,4.80e+00,
173,-4.00e-01,4.80e+00,
174,-3.60e-01,4.80e+00,
175,-3.60e-01,4.80e+00,
176,-3.20e-01,4.40e+00,
177,-3.20e-01,4.40e+00,
178,-3.20e-01,4.00e+00,
179,-3.20e-01,4.00e+00,
180,-2.80e-01,3.60e+00,
181,-2.80e-01,3.60e+00,
182,-2.40e-01,3.60e+00,
183,-2.40e-01,3.60e+00,
184,-2.40e-01,3.20e+00,
185,-2.40e-01,3.20e+00,
186,-2.00e-01,2.80e+00,
187,-2.00e-01,2.80e+00,
188,-1.60e-01,2.80e+00,
189,-1.60e-01,2.80e+00,
190,-1.20e-01,2.40e+00,
191,-1.20e-01,2.40e+00,
192,-8.00e-02,2.00e+00,
193,-8.00e-02,2.00e+00,
194,-4.00e-02,2.00e+00,
195,-4.00e-02,2.00e+00,
196,-4.00e-02,1.60e+00,
197,-4.00e-02,1.60e+00,
198,0.00e+00,8.00e-01,
199,0.00e+00,8.00e-01,
200,4.00e-02,1.20e+00,
201,4.00e-02,1.20e+00,
202,4.00e-02,8.00e-01,
203,4.00e-02,8.00e-01,
204,8.00e-02,0.00e+00,
205,8.00e-02,0.00e+00,
206,1.20e-01,0.00e+00,
207,1.20e-01,0.00e+00,
208,1.60e-01,-4.00e-01,
209,1.60e-01,-4.00e-01,
210,2.00e-01,-8.00e-01,
211,2.00e-01,-8.00e-01,
212,2.40e-01,-1.20e+00,
213,2.40e-01,-1.20e+00,
214,2.80e-01,-1.60e+00,
215,2.80e-01,-1.60e+00,
216,2.80e-01,-1.60e+00,
217,2.80e-01,-1.60e+00,
218,3.20e-01,-2.00e+00,
219,3.20e-01,-2.00e+00,
220,3.60e-01,-2.40e+00,
221,3.60e-01,-2.40e+00,
222,3.60e-01,-2.40e+00,
223,3.60e-01,-2.40e+00,
224,4.40e-01,-2.80e+00,
225,4.40e-01,-2.80e+00,
226,4.00e-01,-3.20e+00,
227,4.00e-01,-3.20e+00,
228,4.80e-01,-3.20e+00,
229,4.80e-01,-3.20e+00,
230,4.80e-01,-4.00e+00,
231,4.80e-01,-4.00e+00,
232,5.20e-01,-4.00e+00,
233,5.20e-01,-4.00e+00,
234,5.60e-01,-4.40e+00,
235,5.60e-01,-4.40e+00,
236,5.60e-01,-4.80e+00,
237,5.60e-01,-4.80e+00,
238,6.00e-01,-4.80e+00,
239,6.00e-01,-4.80e+00,
240,6.40e-01,-5.20e+00,
241,6.40e-01,-5.20e+00,
242,6.40e-01,-5.20e+00,
243,6.40e-01,-5.20e+00,
244,6.80e-01,-5.60e+00,
245,6.80e-01,-5.60e+00,
246,6.80e-01,-5.60e+00,
247,6.80e-01,-5.60e+00,
248,7.20e-01,-6.00e+00,
249,7.20e-01,-6.00e+00,
250,7.20e-01,-6.40e+00,
251,7.20e-01,-6.40e+00,
252,7.60e-01,-6.40e+00,
253,7.60e-01,-6.40e+00,
254,7.60e-01,-6.40e+00,
255,7.60e-01,-6.40e+00,
256,8.00e-01,-6.80e+00,
257,8.00e-01,-6.80e+00,
258,8.00e-01,-6.80e+00,
259,8.00e-01,-6.80e+00,
260,8.00e-01,-7.20e+00,
261,8.00e-01,-7.20e+00,
262,8.40e-01,-7.60e+00,
263,8.40e-01,-7.60e+00,
264,8.80e-01,-8.00e+00,
265,8.80e-01,-8.00e+00,
266,8.80e-01,-8.00e+00,
267,8.80e-01,-8.00e+00,
268,9.20e-01,-8.00e+00,
269,9.20e-01,-8.00e+00,
270,8.80e-01,-8.40e+00,
271,8.80e-01,-8.40e+00,
272,9.20e-01,-8.40e+00,
273,9.20e-01,-8.40e+00,
274,9.20e-01,-8.80e+00,
275,9.20e-01,-8.80e+00,
276,9.20e-01,-8.80e+00,
277,9.20e-01,-8.80e+00,
278,9.60e-01,-9.20e+00,
279,9.60e-01,-9.20e+00,
280,9.60e-01,-9.20e+00,
281,9.60e-01,-9.20e+00,
282,9.60e-01,-9.20e+00,
283,9.60e-01,-9.20e+00,
284,1.00e+00,-9.60e+00,
285,1.00e+00,-9.60e+00,
286,1.00e+00,-9.60e+00,
287,1.00e+00,-9.60e+00,
288,1.00e+00,-9.60e+00,
289,1.00e+00,-9.60e+00,
290,1.00e+00,-9.60e+00,
291,1.00e+00,-9.60e+00,
292,1.00e+00,-9.60e+00,
293,1.00e+00,-9.60e+00,
294,1.00e+00,-9.60e+00,
295,1.00e+00,-9.60e+00,
296,1.00e+00,-1.00e+01,
297,1.00e+00,-1.00e+01,
298,1.00e+00,-1.00e+01,
299,1.00e+00,-1.00e+01,
300,1.00e+00,-1.00e+01,
301,1.00e+00,-1.00e+01,
302,1.00e+00,-1.00e+01,
303,1.00e+00,-1.00e+01,
304,1.00e+00,-1.00e+01,
305,1.00e+00,-1.00e+01,
306,1.00e+00,-1.00e+01,
307,1.00e+00,-1.00e+01,
308,1.00e+00,-1.00e+01,
309,1.00e+00,-1.00e+01,
310,1.00e+00,-1.00e+01,
311,1.00e+00,-1.00e+01,
312,1.00e+00,-1.00e+01,
313,1.00e+00,-1.00e+01,
314,1.00e+00,-9.60e+00,
315,1.00e+00,-9.60e+00,
316,9.60e-01,-9.20e+00,
317,9.60e-01,-9.20e+00,
318,9.60e-01,-9.60e+00,
319,9.60e-01,-9.60e+00,
320,9.60e-01,-9.60e+00,
321,9.60e-01,-9.60e+00,
322,9.60e-01,-9.60e+00,
323,9.60e-01,-9.60e+00,
324,9.20e-01,-9.60e+00,
325,9.20e-01,-9.60e+00,
326,9.20e-01,-9.20e+00,
327,9.20e-01,-9.20e+00,
328,9.20e-01,-8.80e+00,
329,9.20e-01,-8.80e+00,
330,9.20e-01,-9.20e+00,
331,9.20e-01,-9.20e+00,
332,8.40e-01,-9.20e+00,
333,8.40e-01,-9.20e+00,
334,8.80e-01,-8.80e+00,
335,8.80e-01,-8.80e+00,
336,8.40e-01,-8.40e+00,
337,8.40e-01,-8.40e+00,
338,8.00e-01,-8.40e+00,
339,8.00e-01,-8.40e+00,
340,8.40e-01,-8.40e+00,
341,8.40e-01,-8.40e+00,
342,8.00e-01,-8.00e+00,
343,8.00e-01,-8.00e+00,
344,8.00e-01,-8.00e+00,
345,8.00e-01,-8.00e+00,
346,7.60e-01,-7.60e+00,
347,7.60e-01,-7.60e+00,
348,7.60e-01,-7.60e+00,
349,7.60e-01,-7.60e+00,
350,7.20e-01,-7.60e+00,
351,7.20e-01,-7.60e+00,
352,6.80e-01,-6.80e+00,
353,6.80e-01,-6.80e+00,
354,6.40e-01,-7.20e+00,
355,6.40e-01,-7.20e+00,
356,6.40e-01,-6.80e+00,
357,6.40e-01,-6.80e+00,
358,6.00e-01,-6.80e+00,
359,6.00e-01,-6.80e+00,
360,6.00e-01,-6.40e+00,
361,6.00e-01,-6.40e+00,
362,5.20e-01,-6.00e+00,
363,5.20e-01,-6.00e+00,
364,5.20e-01,-5.60e+00,
365,5.20e-01,-5.60e+00,
366,5.20e-01,-6.00e+00,
367,5.20e-01,-6.00e+00,
368,4.80e-01,-5.20e+00,
369,4.80e-01,-5.20e+00,
370,4.80e-01,-5.20e+00,
371,4.80e-01,-5.20e+00,
372,4.40e-01,-4.80e+00,
373,4.40e-01,-4.80e+00,
374,4.00e-01,-4.40e+00,
375,4.00e-01,-4.40e+00,
376,3.60e-01,-4.00e+00,
377,3.60e-01,-4.00e+00,
378,3.20e-01,-4.00e+00,
379,3.20e-01,-4.00e+00,
380,3.20e-01,-4.00e+00,
381,3.20e-01,-4.00e+00,
382,2.80e-01,-3.20e+00,
383,2.80e-01,-3.20e+00,
384,2.40e-01,-3.20e+00,
385,2.40e-01,-3.20e+00,
386,2.00e-01,-2.80e+00,
387,2.00e-01,-2.80e+00,
388,2.00e-01,-2.40e+00,
389,2.00e-01,-2.40e+00,
390,1.60e-01,-2.40e+00,
391,1.60e-01,-2.40e+00,
392,1.20e-01,-2.00e+00,
393,1.20e-01,-2.00e+00,
394,8.00e-02,-1.60e+00,
395,8.00e-02,-1.60e+00,
396,4.00e-02,-1.60e+00,
397,4.00e-02,-1.60e+00,
398,0.00e+00,-8.00e-01,
399,0.00e+00,-8.00e-01,
400,0.00e+00,-4.00e-01,
401,0.00e+00,-4.00e-01,
402,-4.00e-02,-4.00e-01,
403,-4.00e-02,-4.00e-01,
404,-8.00e-02,0.00e+00,
405,-8.00e-02,0.00e+00,
406,-1.20e-01,4.00e-01,
407,-1.20e-01,4.00e-01,
408,-1.60e-01,4.00e-01,
409,-1.60e-01,4.00e-01,
410,-1.60e-01,8.00e-01,
411,-1.60e-01,8.00e-01,
412,-2.00e-01,1.20e+00,
413,-2.00e-01,1.20e+00,
414,-2.40e-01,1.60e+00,
415,-2.40e-01,1.60e+00,
416,-2.80e-01,2.00e+00,
417,-2.80e-01,2.00e+00,
418,-2.80e-01,2.00e+00,
419,-2.80e-01,2.00e+00,
420,-3.20e-01,2.40e+00,
421,-3.20e-01,2.40e+00,
422,-3.60e-01,2.80e+00,
423,-3.60e-01,2.80e+00,
424,-4.00e-01,2.80e+00,
425,-4.00e-01,2.80e+00,
426,-4.40e-01,3.20e+00,
427,-4.40e-01,3.20e+00,
428,-4.40e-01,3.60e+00,
429,-4.40e-01,3.60e+00,
430,-4.40e-01,4.00e+00,
431,-4.40e-01,4.00e+00,
432,-5.20e-01,4.40e+00,
433,-5.20e-01,4.40e+00,
434,-4.80e-01,4.00e+00,
435,-4.80e-01,4.00e+00,
436,-5.20e-01,4.40e+00,
437,-5.20e-01,4.40e+00,
438,-5.60e-01,4.80e+00,
439,-5.60e-01,4.80e+00,
440,-6.00e-01,5.20e+00,
441,-6.00e-01,5.20e+00,
442,-6.40e-01,5.60e+00,
443,-6.40e-01,5.60e+00,
444,-6.40e-01,5.60e+00,
445,-6.40e-01,5.60e+00,
446,-6.80e-01,6.00e+00,
447,-6.80e-01,6.00e+00,
448,-6.80e-01,6.00e+00,
449,-6.80e-01,6.00e+00,
450,-7.20e-01,6.80e+00,
451,-7.20e-01,6.80e+00,
452,-7.60e-01,6.80e+00,
453,-7.60e-01,6.80e+00,
454,-7.60e-01,7.20e+00,
455,-7.60e-01,7.20e+00,
456,-7.60e-01,7.20e+00,
457,-7.60e-01,7.20e+00,
458,-7.60e-01,7.60e+00,
459,-7.60e-01,7.60e+00,
460,-8.00e-01,7.60e+00,
461,-8.00e-01,7.60e+00,
462,-8.00e-01,7.60e+00,
463,-8.00e-01,7.60e+00,
464,-8.40e-01,8.00e+00,
465,-8.40e-01,8.00e+00,
466,-8.80e-01,8.00e+00,
467,-8.80e-01,8.00e+00,
468,-8.40e-01,8.40e+00,
469,-8.40e-01,8.40e+00,
470,-8.80e-01,8.80e+00,
471,-8.80e-01,8.80e+00,
472,-8.80e-01,8.40e+00,
473,-8.80e-01,8.40e+00,
474,-9.20e-01,8.80e+00,
475,-9.20e-01,8.80e+00,
476,-9.20e-01,9.20e+00,
477,-9.20e-01,9.20e+00,
478,-9.60e-01,8.80e+00,
479,-9.60e-01,8.80e+00,
480,-9.60e-01,8.80e+00,
481,-9.60e-01,8.80e+00,
482,-9.60e-01,9.60e+00,
483,-9.60e-01,9.60e+00,
484,-9.60e-01,9.20e+00,
485,-9.60e-01,9.20e+00,
486,-9.60e-01,9.60e+00,
487,-9.60e-01,9.60e+00,
488,-1.00e+00,9.60e+00,
489,-1.00e+00,9.60e+00,
490,-1.00e+00,9.20e+00,
491,-1.00e+00,9.20e+00,
492,-1.00e+00,9.60e+00,
493,-1.00e+00,9.60e+00,
494,-1.00e+00,9.60e+00,
495,-1.00e+00,9.60e+00,
496,-1.00e+00,9.60e+00,
497,-1.00e+00,9.60e+00,
498,-1.00e+00,9.60e+00,
499,-1.00e+00,9.60e+00,
500,-1.00e+00,1.00e+01,
501,-1.00e+00,1.00e+01,
502,-1.00e+00,1.00e+01,
503,-1.00e+00,1.00e+01,
504,-9.60e-01,1.00e+01,
505,-9.60e-01,1.00e+01,
506,-9.60e-01,1.00e+01,
507,-9.60e-01,1.00e+01,
508,-9.60e-01,1.00e+01,
509,-9.60e-01,1.00e+01,
510,-1.00e+00,1.00e+01,
511,-1.00e+00,1.00e+01,
512,-9.60e-01,9.60e+00,
513,-9.60e-01,9.60e+00,
514,-9.60e-01,1.00e+01,
515,-9.60e-01,1.00e+01,
516,-9.60e-01,1.00e+01,
517,-9.60e-01,1.00e+01,
518,-9.60e-01,9.60e+00,
519,-9.60e-01,9.60e+00,
520,-9.20e-01,9.20e+00,
521,-9.20e-01,9.20e+00,
522,-9.20e-01,9.60e+00,
523,-9.20e-01,9.60e+00,
524,-9.20e-01,9.20e+00,
525,-9.20e-01,9.20e+00,
526,-9.20e-01,9.60e+00,
527,-9.20e-01,9.60e+00,
528,-8.80e-01,9.60e+00,
529,-8.80e-01,9.60e+00,
530,-8.80e-01,9.20e+00,
531,-8.80e-01,9.20e+00,
532,-8.80e-01,8.80e+00,
533,-8.80e-01,8.80e+00,
534,-8.40e-01,9.20e+00,
535,-8.40e-01,9.20e+00,
536,-8.40e-01,8.80e+00,
537,-8.40e-01,8.80e+00,
538,-8.00e-01,8.40e+00,
539,-8.00e-01,8.40e+00,
540,-7.60e-01,8.40e+00,
541,-7.60e-01,8.40e+00,
542,-8.00e-01,8.40e+00,
543,-8.00e-01,8.40e+00,
544,-7.20e-01,8.00e+00,
545,-7.20e-01,8.00e+00,
546,-7.20e-01,8.00e+00,
547,-7.20e-01,8.00e+00,
548,-6.80e-01,7.60e+00,
549,-6.80e-01,7.60e+00,
550,-6.80e-01,7.60e+00,
551,-6.80e-01,7.60e+00,
552,-6.40e-01,7.60e+00,
553,-6.40e-01,7.60e+00,
554,-6.40e-01,6.80e+00,
555,-6.40e-01,6.80e+00,
556,-6.00e-01,6.80e+00,
557,-6.00e-01,6.80e+00,
558,-6.00e-01,6.80e+00,
559,-6.00e-01,6.80e+00,
560,-5.60e-01,6.40e+00,
561,-5.60e-01,6.40e+00,
562,-5.60e-01,6.00e+00,
563,-5.60e-01,6.00e+00,
564,-5.20e-01,6.00e+00,
565,-5.20e-01,6.00e+00,
566,-4.80e-01,5.60e+00,
567,-4.80e-01,5.60e+00,
568,-4.40e-01,5.60e+00,
569,-4.40e-01,5.60e+00,
570,-4.00e-01,5.20e+00,
571,-4.00e-01,5.20e+00,
572,-4.00e-01,4.80e+00,
573,-4.00e-01,4.80e+00,
574,-3.60e-01,4.80e+00,
575,-3.60e-01,4.80e+00,
576,-3.20e-01,4.00e+00,
577,-3.20e-01,4.00e+00,
578,-3.20e-01,4.40e+00,
579,-3.20e-01,4.40e+00,
580,-2.80e-01,4.00e+00,
581,-2.80e-01,4.00e+00,
582,-2.40e-01,3.60e+00,
583,-2.40e-01,3.60e+00,
584,-2.00e-01,3.20e+00,
585,-2.00e-01,3.20e+00,
586,-1.60e-01,2.80e+00,
587,-1.60e-01,2.80e+00,
588,-1.60e-01,2.80e+00,
589,-1.60e-01,2.80e+00,
590,-1.20e-01,2.40e+00,
591,-1.20e-01,2.40e+00,
592,-8.00e-02,2.00e+00,
593,-8.00e-02,2.00e+00,
594,-4.00e-02,2.00e+00,
595,-4.00e-02,2.00e+00,
596,0.00e+00,1.20e+00,
597,0.00e+00,1.20e+00,
598,0.00e+00,8.00e-01,
599,0.00e+00,8.00e-01,
600,4.00e-02,8.00e-01,
601,4.00e-02,8.00e-01,
602,8.00e-02,4.00e-01,
603,8.00e-02,4.00e-01,
604,8.00e-02,0.00e+00,
605,8.00e-02,0.00e+00,
606,1.20e-01,0.00e+00,
607,1.20e-01,0.00e+00,
608,1.60e-01,-4.00e-01,
609,1.60e-01,-4.00e-01,
610,1.60e-01,-8.00e-01,
611,1.60e-01,-8.00e-01,
612,2.00e-01,-8.00e-01,
613,2.00e-01,-8.00e-01,
614,2.40e-01,-1.60e+00,
615,2.40e-01,-1.60e+00,
616,2.40e-01,-1.60e+00,
617,2.40e-01,-1.60e+00,
618,3.20e-01,-2.00e+00,
619,3.20e-01,-2.00e+00,
620,3.60e-01,-2.40e+00,
621,3.60e-01,-2.40e+00,
622,3.60e-01,-2.40e+00,
623,3.60e-01,-2.40e+00,
624,4.00e-01,-2.80e+00,
625,4.00e-01,-2.80e+00,
626,4.40e-01,-3.20e+00,
627,4.40e-01,-3.20e+00,
628,4.40e-01,-3.20e+00,
629,4.40e-01,-3.20e+00,
630,4.80e-01,-3.60e+00,
631,4.80e-01,-3.60e+00,
632,5.20e-01,-4.00e+00,
633,5.20e-01,-4.00e+00,
634,5.60e-01,-4.00e+00,
635,5.60e-01,-4.00e+00,
636,5.60e-01,-4.40e+00,
637,5.60e-01,-4.40e+00,
638,6.00e-01,-4.80e+00,
639,6.00e-01,-4.80e+00,
640,6.00e-01,-5.20e+00,
641,6.00e-01,-5.20e+00,
642,6.40e-01,-5.20e+00,
643,6.40e-01,-5.20e+00,
644,6.80e-01,-5.60e+00,
645,6.80e-01,-5.60e+00,
646,6.80e-01,-6.00e+00,
647,6.80e-01,-6.00e+00,
648,7.20e-01,-6.40e+00,
649,7.20e-01,-6.40e+00,
650,7.20e-01,-6.40e+00,
651,7.20e-01,-6.40e+00,
652,7.60e-01,-6.80e+00,
653,7.60e-01,-6.80e+00,
654,7.60e-01,-6.80e+00,
655,7.60e-01,-6.80e+00,
656,8.00e-01,-7.20e+00,
657,8.00e-01,-7.20e+00,
658,8.40e-01,-6.80e+00,
659,8.40e-01,-6.80e+00,
660,8.00e-01,-7.60e+00,
661,8.00e-01,-7.60e+00,
662,8.80e-01,-7.60e+00,
663,8.80e-01,-7.60e+00,
664,8.40e-01,-8.00e+00,
665,8.40e-01,-8.00e+00,
666,8.80e-01,-8.00e+00,
667,8.80e-01,-8.00e+00,
668,9.20e-01,-8.00e+00,
669,9.20e-01,-8.00e+00,
670,9.20e-01,-8.40e+00,
671,9.20e-01,-8.40e+00,
672,9.20e-01,-8.40e+00,
673,9.20e-01,-8.40e+00,
674,9.60e-01,-8.40e+00,
675,9.60e-01,-8.40e+00,
676,9.60e-01,-8.80e+00,
677,9.60e-01,-8.80e+00,
678,9.60e-01,-8.80e+00,
679,9.60e-01,-8.80e+00,
680,9.60e-01,-9.20e+00,
681,9.60e-01,-9.20e+00,
682,9.60e-01,-9.20e+00,
683,9.60e-01,-9.20e+00,
684,1.00e+00,-9.60e+00,
685,1.00e+00,-9.60e+00,
686,1.00e+00,-9.20e+00,
687,1.00e+00,-9.20e+00,
688,1.00e+00,-9.20e+00,
689,1.00e+00,-9.20e+00,
690,1.00e+00,-9.60e+00,
691,1.00e+00,-9.60e+00,
692,1.00e+00,-9.20e+00,
693,1.00e+00,-9.20e+00,
694,1.00e+00,-9.20e+00,
695,1.00e+00,-9.20e+00,
696,1.00e+00,-9.60e+00,
697,1.00e+00,-9.60e+00,
698,1.00e+00,-1.00e+01,
699,1.00e+00,-1.00e+01,
700,1.00e+00,-1.00e+01,
701,1.00e+00,-1.00e+01,
702,1.00e+00,-1.00e+01,
703,1.00e+00,-1.00e+01,
704,1.00e+00,-9.60e+00,
705,1.00e+00,-9.60e+00,
706,1.00e+00,-1.00e+01,
707,1.00e+00,-1.00e+01,
708,1.00e+00,-1.00e+01,
709,1.00e+00,-1.00e+01,
710,1.00e+00,-1.00e+01,
711,1.00e+00,-1.00e+01,
712,1.00e+00,-1.00e+01,
713,1.00e+00,-1.00e+01,
714,1.00e+00,-9.60e+00,
715,1.00e+00,-9.60e+00,
716,9.60e-01,-9.60e+00,
717,9.60e-01,-9.60e+00,
718,9.60e-01,-9.60e+00,
719,9.60e-01,-9.60e+00,
720,9.60e-01,-9.20e+00,
721,9.60e-01,-9.20e+00,
722,9.60e-01,-9.20e+00,
723,9.60e-01,-9.20e+00,
724,9.20e-01,-9.60e+00,
725,9.20e-01,-9.60e+00,
726,9.20e-01,-9.20e+00,
727,9.20e-01,-9.20e+00,
728,9.20e-01,-9.20e+00,
729,9.20e-01,-9.20e+00,
730,9.20e-01,-8.80e+00,
731,9.20e-01,-8.80e+00,
732,8.80e-01,-9.20e+00,
733,8.80e-01,-9.20e+00,
734,8.80e-01,-8.80e+00,
735,8.80e-01,-8.80e+00,
736,8.40e-01,-8.40e+00,
737,8.40e-01,-8.40e+00,
738,8.00e-01,-8.40e+00,
739,8.00e-01,-8.40e+00,
740,8.40e-01,-8.40e+00,
741,8.40e-01,-8.40e+00,
742,8.00e-01,-8.00e+00,
743,8.00e-01,-8.00e+00,
744,7.60e-01,-8.00e+00,
745,7.60e-01,-8.00e+00,
746,7.60e-01,-7.60e+00,
747,7.60e-01,-7.60e+00,
748,7.20e-01,-7.60e+00,
749,7.20e-01,-7.60e+00,
750,6.80e-01,-7.60e+00,
751,6.80e-01,-7.60e+00,
752,6.80e-01,-7.20e+00,
753,6.80e-01,-7.20e+00,
754,6.40e-01,-6.80e+00,
755,6.40e-01,-6.80e+00,
756,6.40e-01,-6.80e+00,
757,6.40e-01,-6.80e+00,
758,6.00e-01,-6.80e+00,
759,6.00e-01,-6.80e+00,
760,6.00e-01,-6.00e+00,
761,6.00e-01,-6.00e+00,
762,5.60e-01,-6.40e+00,
763,5.60e-01,-6.40e+00,
764,5.60e-01,-5.60e+00,
765,5.60e-01,-5.60e+00,
766,4.80e-01,-5.60e+00,
767,4.80e-01,-5.60e+00,
768,4.80e-01,-5.20e+00,
769,4.80e-01,-5.20e+00,
770,4.40e-01,-5.20e+00,
771,4.40e-01,-5.20e+00,
772,4.00e-01,-4.80e+00,
773,4.00e-01,-4.80e+00,
774,4.00e-01,-4.40e+00,
775,4.00e-01,-4.40e+00,
776,3.60e-01,-4.40e+00,
777,3.60e-01,-4.40e+00,
778,3.20e-01,-3.60e+00,
779,3.20e-01,-3.60e+00,
780,2.80e-01,-3.60e+00,
781,2.80e-01,-3.60e+00,
782,2.80e-01,-3.20e+00,
783,2.80e-01,-3.20e+00,
784,2.40e-01,-3.20e+00,
785,2.40e-01,-3.20e+00,
786,2.40e-01,-2.80e+00,
787,2.40e-01,-2.80e+00,
788,2.00e-01,-2.40e+00,
789,2.00e-01,-2.40e+00,
790,1.60e-01,-2.40e+00,
791,1.60e-01,-2.40e+00,
792,1.20e-01,-2.00e+00,
793,1.20e-01,-2.00e+00,
794,8.00e-02,-1.60e+00,
795,8.00e-02,-1.60e+00,
796,4.00e-02,-1.60e+00,
797,4.00e-02,-1.60e+00,
798,0.00e+00,-1.20e+00,
799,0.00e+00,-1.20e+00,
800,0.00e+00,-8.00e-01,
801,0.00e+00,-8.00e-01,
802,-4.00e-02,-8.00e-01,
803,-4.00e-02,-8.00e-01,
804,-8.00e-02,0.00e+00,
805,-8.00e-02,0.00e+00,
806,-1.20e-01,4.00e-01,
807,-1.20e-01,4.00e-01,
808,-1.20e-01,8.00e-01,
809,-1.20e-01,8.00e-01,
810,-1.60e-01,8.00e-01,
811,-1.60e-01,8.00e-01,
812,-1.60e-01,1.20e+00,
813,-1.60e-01,1.20e+00,
814,-2.00e-01,1.60e+00,
815,-2.00e-01,1.60e+00,
816,-2.40e-01,2.00e+00,
817,-2.40e-01,2.00e+00,
818,-2.80e-01,2.00e+00,
819,-2.80e-01,2.00e+00,
820,-3.20e-01,2.40e+00,
821,-3.20e-01,2.40e+00,
822,-3.60e-01,2.80e+00,
823,-3.60e-01,2.80e+00,
824,-3.60e-01,2.80e+00,
825,-3.60e-01,2.80e+00,
826,-4.00e-01,3.60e+00,
827,-4.00e-01,3.60e+00,
828,-4.40e-01,3.60e+00,
829,-4.40e-01,3.60e+00,
830,-4.40e-01,3.60e+00,
831,-4.40e-01,3.60e+00,
832,-5.20e-01,4.40e+00,
833,-5.20e-01,4.40e+00,
834,-5.20e-01,4.00e+00,
