Versuch1/rawData/NewFile10v.csv

X,CH1,CH2,Start,Increment,
Sequence,Volt,Volt,-1.192000e-02,2.000000e-05
0,-7.40e+00,-4.00e-02,
1,-7.40e+00,-4.00e-02,
2,-7.40e+00,0.00e+00,
3,-7.40e+00,0.00e+00,
4,-7.20e+00,-4.00e-02,
5,-7.20e+00,-4.00e-02,
6,-7.00e+00,-4.00e-02,
7,-7.00e+00,-4.00e-02,
8,-6.80e+00,-4.00e-02,
9,-6.80e+00,-4.00e-02,
10,-6.60e+00,0.00e+00,
11,-6.60e+00,0.00e+00,
12,-6.60e+00,0.00e+00,
13,-6.60e+00,0.00e+00,
14,-6.40e+00,0.00e+00,
15,-6.40e+00,0.00e+00,
16,-6.20e+00,0.00e+00,
17,-6.20e+00,0.00e+00,
18,-6.20e+00,0.00e+00,
19,-6.20e+00,0.00e+00,
20,-6.00e+00,-4.00e-02,
21,-6.00e+00,-4.00e-02,
22,-6.00e+00,-4.00e-02,
23,-6.00e+00,-4.00e-02,
24,-5.80e+00,-4.00e-02,
25,-5.80e+00,-4.00e-02,
26,-5.60e+00,0.00e+00,
27,-5.60e+00,0.00e+00,
28,-5.60e+00,0.00e+00,
29,-5.60e+00,0.00e+00,
30,-5.20e+00,-4.00e-02,
31,-5.20e+00,-4.00e-02,
32,-5.20e+00,-4.00e-02,
33,-5.20e+00,-4.00e-02,
34,-5.00e+00,0.00e+00,
35,-5.00e+00,0.00e+00,
36,-4.60e+00,-4.00e-02,
37,-4.60e+00,-4.00e-02,
38,-4.80e+00,0.00e+00,
39,-4.80e+00,0.00e+00,
40,-4.60e+00,0.00e+00,
41,-4.60e+00,0.00e+00,
42,-4.40e+00,0.00e+00,
43,-4.40e+00,0.00e+00,
44,-4.20e+00,4.00e-02,
45,-4.20e+00,4.00e-02,
46,-4.00e+00,4.00e-02,
47,-4.00e+00,4.00e-02,
48,-4.00e+00,8.00e-02,
49,-4.00e+00,8.00e-02,
50,-3.80e+00,8.00e-02,
51,-3.80e+00,8.00e-02,
52,-3.60e+00,1.20e-01,
53,-3.60e+00,1.20e-01,
54,-3.60e+00,1.20e-01,
55,-3.60e+00,1.20e-01,
56,-3.20e+00,2.00e-01,
57,-3.20e+00,2.00e-01,
58,-3.20e+00,2.40e-01,
59,-3.20e+00,2.40e-01,
60,-3.00e+00,2.00e-01,
61,-3.00e+00,2.00e-01,
62,-2.80e+00,2.80e-01,
63,-2.80e+00,2.80e-01,
64,-2.80e+00,3.20e-01,
65,-2.80e+00,3.20e-01,
66,-2.60e+00,3.20e-01,
67,-2.60e+00,3.20e-01,
68,-2.40e+00,4.00e-01,
69,-2.40e+00,4.00e-01,
70,-2.40e+00,4.00e-01,
71,-2.40e+00,4.00e-01,
72,-2.20e+00,4.40e-01,
73,-2.20e+00,4.40e-01,
74,-2.20e+00,4.80e-01,
75,-2.20e+00,4.80e-01,
76,-2.00e+00,4.80e-01,
77,-2.00e+00,4.80e-01,
78,-1.80e+00,5.20e-01,
79,-1.80e+00,5.20e-01,
80,-1.60e+00,6.00e-01,
81,-1.60e+00,6.00e-01,
82,-1.40e+00,6.00e-01,
83,-1.40e+00,6.00e-01,
84,-1.40e+00,6.80e-01,
85,-1.40e+00,6.80e-01,
86,-1.20e+00,6.80e-01,
87,-1.20e+00,6.80e-01,
88,-1.00e+00,7.60e-01,
89,-1.00e+00,7.60e-01,
90,-1.00e+00,8.00e-01,
91,-1.00e+00,8.00e-01,
92,-8.00e-01,8.40e-01,
93,-8.00e-01,8.40e-01,
94,-6.00e-01,8.80e-01,
95,-6.00e-01,8.80e-01,
96,-4.00e-01,9.20e-01,
97,-4.00e-01,9.20e-01,
98,-2.00e-01,9.60e-01,
99,-2.00e-01,9.60e-01,
100,-2.00e-01,1.00e+00,
101,-2.00e-01,1.00e+00,
102,0.00e+00,1.04e+00,
103,0.00e+00,1.04e+00,
104,2.00e-01,1.08e+00,
105,2.00e-01,1.08e+00,
106,2.00e-01,1.12e+00,
107,2.00e-01,1.12e+00,
108,6.00e-01,1.12e+00,
109,6.00e-01,1.12e+00,
110,6.00e-01,1.20e+00,
111,6.00e-01,1.20e+00,
112,6.00e-01,1.24e+00,
113,6.00e-01,1.24e+00,
114,8.00e-01,1.28e+00,
115,8.00e-01,1.28e+00,
116,8.00e-01,1.36e+00,
117,8.00e-01,1.36e+00,
118,1.20e+00,1.40e+00,
119,1.20e+00,1.40e+00,
120,1.20e+00,1.44e+00,
121,1.20e+00,1.44e+00,
122,1.40e+00,1.48e+00,
123,1.40e+00,1.48e+00,
124,1.60e+00,1.56e+00,
125,1.60e+00,1.56e+00,
126,1.60e+00,1.60e+00,
127,1.60e+00,1.60e+00,
128,2.00e+00,1.64e+00,
129,2.00e+00,1.64e+00,
130,2.00e+00,1.68e+00,
131,2.00e+00,1.68e+00,
132,2.20e+00,1.72e+00,
133,2.20e+00,1.72e+00,
134,2.40e+00,1.76e+00,
135,2.40e+00,1.76e+00,
136,2.40e+00,1.76e+00,
137,2.40e+00,1.76e+00,
138,2.60e+00,1.76e+00,
139,2.60e+00,1.76e+00,
140,2.80e+00,1.80e+00,
141,2.80e+00,1.80e+00,
142,3.00e+00,1.76e+00,
143,3.00e+00,1.76e+00,
144,3.20e+00,1.80e+00,
145,3.20e+00,1.80e+00,
146,3.20e+00,1.80e+00,
147,3.20e+00,1.80e+00,
148,3.40e+00,1.80e+00,
149,3.40e+00,1.80e+00,
150,3.60e+00,1.80e+00,
151,3.60e+00,1.80e+00,
152,3.60e+00,1.80e+00,
153,3.60e+00,1.80e+00,
154,3.80e+00,1.84e+00,
155,3.80e+00,1.84e+00,
156,3.80e+00,1.80e+00,
157,3.80e+00,1.80e+00,
158,4.20e+00,1.84e+00,
159,4.20e+00,1.84e+00,
160,4.20e+00,1.84e+00,
161,4.20e+00,1.84e+00,
162,4.40e+00,1.84e+00,
163,4.40e+00,1.84e+00,
164,4.60e+00,1.84e+00,
165,4.60e+00,1.84e+00,
166,4.60e+00,1.84e+00,
167,4.60e+00,1.84e+00,
168,4.60e+00,1.80e+00,
169,4.60e+00,1.80e+00,
170,5.00e+00,1.80e+00,
171,5.00e+00,1.80e+00,
172,5.00e+00,1.84e+00,
173,5.00e+00,1.84e+00,
174,5.20e+00,1.80e+00,
175,5.20e+00,1.80e+00,
176,5.40e+00,1.84e+00,
177,5.40e+00,1.84e+00,
178,5.40e+00,1.80e+00,
179,5.40e+00,1.80e+00,
180,5.60e+00,1.84e+00,
181,5.60e+00,1.84e+00,
182,5.80e+00,1.84e+00,
183,5.80e+00,1.84e+00,
184,5.80e+00,1.84e+00,
185,5.80e+00,1.84e+00,
186,6.20e+00,1.84e+00,
187,6.20e+00,1.84e+00,
188,6.00e+00,1.84e+00,
189,6.00e+00,1.84e+00,
190,6.40e+00,1.84e+00,
191,6.40e+00,1.84e+00,
192,6.40e+00,1.84e+00,
193,6.40e+00,1.84e+00,
194,6.60e+00,1.84e+00,
195,6.60e+00,1.84e+00,
196,7.00e+00,1.84e+00,
197,7.00e+00,1.84e+00,
198,6.80e+00,1.84e+00,
199,6.80e+00,1.84e+00,
200,7.00e+00,1.80e+00,
201,7.00e+00,1.80e+00,
202,7.20e+00,1.84e+00,
203,7.20e+00,1.84e+00,
204,7.40e+00,1.80e+00,
205,7.40e+00,1.80e+00,
206,7.60e+00,1.84e+00,
207,7.60e+00,1.84e+00,
208,7.60e+00,1.84e+00,
209,7.60e+00,1.84e+00,
210,7.80e+00,1.84e+00,
211,7.80e+00,1.84e+00,
212,8.00e+00,1.84e+00,
213,8.00e+00,1.84e+00,
214,8.00e+00,1.84e+00,
215,8.00e+00,1.84e+00,
216,8.20e+00,1.84e+00,
217,8.20e+00,1.84e+00,
218,8.40e+00,1.84e+00,
219,8.40e+00,1.84e+00,
220,8.60e+00,1.84e+00,
221,8.60e+00,1.84e+00,
222,8.60e+00,1.84e+00,
223,8.60e+00,1.84e+00,
224,8.80e+00,1.88e+00,
225,8.80e+00,1.88e+00,
226,9.00e+00,1.84e+00,
227,9.00e+00,1.84e+00,
228,8.80e+00,1.84e+00,
229,8.80e+00,1.84e+00,
230,8.80e+00,1.84e+00,
231,8.80e+00,1.84e+00,
232,8.60e+00,1.84e+00,
233,8.60e+00,1.84e+00,
234,8.40e+00,1.88e+00,
235,8.40e+00,1.88e+00,
236,8.40e+00,1.84e+00,
237,8.40e+00,1.84e+00,
238,8.20e+00,1.84e+00,
239,8.20e+00,1.84e+00,
240,8.00e+00,1.84e+00,
241,8.00e+00,1.84e+00,
242,7.80e+00,1.84e+00,
243,7.80e+00,1.84e+00,
244,7.80e+00,1.88e+00,
245,7.80e+00,1.88e+00,
246,7.60e+00,1.84e+00,
247,7.60e+00,1.84e+00,
248,7.40e+00,1.84e+00,
249,7.40e+00,1.84e+00,
250,7.40e+00,1.84e+00,
251,7.40e+00,1.84e+00,
252,7.20e+00,1.84e+00,
253,7.20e+00,1.84e+00,
254,7.00e+00,1.84e+00,
255,7.00e+00,1.84e+00,
256,6.80e+00,1.84e+00,
257,6.80e+00,1.84e+00,
258,6.60e+00,1.84e+00,
259,6.60e+00,1.84e+00,
260,6.80e+00,1.84e+00,
261,6.80e+00,1.84e+00,
262,6.60e+00,1.84e+00,
263,6.60e+00,1.84e+00,
264,6.40e+00,1.84e+00,
265,6.40e+00,1.84e+00,
266,6.20e+00,1.84e+00,
267,6.20e+00,1.84e+00,
268,5.80e+00,1.80e+00,
269,5.80e+00,1.80e+00,
270,6.00e+00,1.84e+00,
271,6.00e+00,1.84e+00,
272,5.60e+00,1.84e+00,
273,5.60e+00,1.84e+00,
274,5.60e+00,1.80e+00,
275,5.60e+00,1.80e+00,
276,5.60e+00,1.84e+00,
277,5.60e+00,1.84e+00,
278,5.40e+00,1.84e+00,
279,5.40e+00,1.84e+00,
280,5.40e+00,1.84e+00,
281,5.40e+00,1.84e+00,
282,5.00e+00,1.84e+00,
283,5.00e+00,1.84e+00,
284,4.80e+00,1.80e+00,
285,4.80e+00,1.80e+00,
286,4.80e+00,1.80e+00,
287,4.80e+00,1.80e+00,
288,4.60e+00,1.80e+00,
289,4.60e+00,1.80e+00,
290,4.40e+00,1.80e+00,
291,4.40e+00,1.80e+00,
292,4.40e+00,1.84e+00,
293,4.40e+00,1.84e+00,
294,4.00e+00,1.84e+00,
295,4.00e+00,1.84e+00,
296,4.00e+00,1.84e+00,
297,4.00e+00,1.84e+00,
298,3.80e+00,1.84e+00,
299,3.80e+00,1.84e+00,
300,3.60e+00,1.84e+00,
301,3.60e+00,1.84e+00,
302,3.60e+00,1.84e+00,
303,3.60e+00,1.84e+00,
304,3.40e+00,1.84e+00,
305,3.40e+00,1.84e+00,
306,3.40e+00,1.84e+00,
307,3.40e+00,1.84e+00,
308,3.20e+00,1.80e+00,
309,3.20e+00,1.80e+00,
310,3.00e+00,1.84e+00,
311,3.00e+00,1.84e+00,
312,2.80e+00,1.80e+00,
313,2.80e+00,1.80e+00,
314,2.60e+00,1.80e+00,
315,2.60e+00,1.80e+00,
316,2.60e+00,1.76e+00,
317,2.60e+00,1.76e+00,
318,2.40e+00,1.76e+00,
319,2.40e+00,1.76e+00,
320,2.20e+00,1.76e+00,
321,2.20e+00,1.76e+00,
322,2.20e+00,1.72e+00,
323,2.20e+00,1.72e+00,
324,2.00e+00,1.68e+00,
325,2.00e+00,1.68e+00,
326,1.80e+00,1.64e+00,
327,1.80e+00,1.64e+00,
328,1.60e+00,1.60e+00,
329,1.60e+00,1.60e+00,
330,1.40e+00,1.52e+00,
331,1.40e+00,1.52e+00,
332,1.40e+00,1.48e+00,
333,1.40e+00,1.48e+00,
334,1.20e+00,1.44e+00,
335,1.20e+00,1.44e+00,
336,1.00e+00,1.36e+00,
337,1.00e+00,1.36e+00,
338,1.00e+00,1.32e+00,
339,1.00e+00,1.32e+00,
340,6.00e-01,1.28e+00,
341,6.00e-01,1.28e+00,
342,8.00e-01,1.24e+00,
343,8.00e-01,1.24e+00,
344,6.00e-01,1.20e+00,
345,6.00e-01,1.20e+00,
346,4.00e-01,1.16e+00,
347,4.00e-01,1.16e+00,
348,2.00e-01,1.08e+00,
349,2.00e-01,1.08e+00,
350,0.00e+00,1.08e+00,
351,0.00e+00,1.08e+00,
352,0.00e+00,1.04e+00,
353,0.00e+00,1.04e+00,
354,-2.00e-01,1.00e+00,
355,-2.00e-01,1.00e+00,
356,-6.00e-01,9.20e-01,
357,-6.00e-01,9.20e-01,
358,-4.00e-01,9.20e-01,
359,-4.00e-01,9.20e-01,
360,-8.00e-01,8.80e-01,
361,-8.00e-01,8.80e-01,
362,-8.00e-01,8.00e-01,
363,-8.00e-01,8.00e-01,
364,-1.00e+00,8.00e-01,
365,-1.00e+00,8.00e-01,
366,-1.20e+00,7.60e-01,
367,-1.20e+00,7.60e-01,
368,-1.20e+00,6.80e-01,
369,-1.20e+00,6.80e-01,
370,-1.40e+00,6.40e-01,
371,-1.40e+00,6.40e-01,
372,-1.60e+00,6.40e-01,
373,-1.60e+00,6.40e-01,
374,-1.60e+00,6.00e-01,
375,-1.60e+00,6.00e-01,
376,-2.00e+00,5.60e-01,
377,-2.00e+00,5.60e-01,
378,-1.80e+00,5.20e-01,
379,-1.80e+00,5.20e-01,
380,-2.20e+00,4.80e-01,
381,-2.20e+00,4.80e-01,
382,-2.40e+00,4.40e-01,
383,-2.40e+00,4.40e-01,
384,-2.40e+00,4.00e-01,
385,-2.40e+00,4.00e-01,
386,-2.60e+00,3.60e-01,
387,-2.60e+00,3.60e-01,
388,-2.60e+00,3.20e-01,
389,-2.60e+00,3.20e-01,
390,-2.80e+00,3.20e-01,
391,-2.80e+00,3.20e-01,
392,-3.20e+00,2.80e-01,
393,-3.20e+00,2.80e-01,
394,-3.00e+00,2.40e-01,
395,-3.00e+00,2.40e-01,
396,-3.40e+00,2.40e-01,
397,-3.40e+00,2.40e-01,
398,-3.60e+00,1.60e-01,
399,-3.60e+00,1.60e-01,
400,-3.60e+00,1.60e-01,
401,-3.60e+00,1.60e-01,
402,-3.80e+00,1.20e-01,
403,-3.80e+00,1.20e-01,
404,-3.80e+00,8.00e-02,
405,-3.80e+00,8.00e-02,
406,-4.00e+00,8.00e-02,
407,-4.00e+00,8.00e-02,
408,-4.20e+00,4.00e-02,
409,-4.20e+00,4.00e-02,
410,-4.20e+00,4.00e-02,
411,-4.20e+00,4.00e-02,
412,-4.60e+00,0.00e+00,
413,-4.60e+00,0.00e+00,
414,-4.60e+00,0.00e+00,
415,-4.60e+00,0.00e+00,
416,-4.80e+00,0.00e+00,
417,-4.80e+00,0.00e+00,
418,-5.00e+00,0.00e+00,
419,-5.00e+00,0.00e+00,
420,-5.00e+00,0.00e+00,
421,-5.00e+00,0.00e+00,
422,-5.20e+00,0.00e+00,
423,-5.20e+00,0.00e+00,
424,-5.40e+00,0.00e+00,
425,-5.40e+00,0.00e+00,
426,-5.40e+00,0.00e+00,
427,-5.40e+00,0.00e+00,
428,-5.80e+00,0.00e+00,
429,-5.80e+00,0.00e+00,
430,-5.80e+00,0.00e+00,
431,-5.80e+00,0.00e+00,
432,-6.00e+00,0.00e+00,
433,-6.00e+00,0.00e+00,
434,-6.20e+00,0.00e+00,
435,-6.20e+00,0.00e+00,
436,-6.40e+00,0.00e+00,
437,-6.40e+00,0.00e+00,
438,-6.40e+00,0.00e+00,
439,-6.40e+00,0.00e+00,
440,-6.40e+00,0.00e+00,
441,-6.40e+00,0.00e+00,
442,-6.60e+00,-4.00e-02,
443,-6.60e+00,-4.00e-02,
444,-6.80e+00,0.00e+00,
445,-6.80e+00,0.00e+00,
446,-6.80e+00,0.00e+00,
447,-6.80e+00,0.00e+00,
448,-7.20e+00,0.00e+00,
449,-7.20e+00,0.00e+00,
450,-7.20e+00,0.00e+00,
451,-7.20e+00,0.00e+00,
452,-7.40e+00,0.00e+00,
453,-7.40e+00,0.00e+00,
454,-7.60e+00,0.00e+00,
455,-7.60e+00,0.00e+00,
456,-7.60e+00,0.00e+00,
457,-7.60e+00,0.00e+00,
458,-7.80e+00,0.00e+00,
459,-7.80e+00,0.00e+00,
460,-8.00e+00,0.00e+00,
461,-8.00e+00,0.00e+00,
462,-8.00e+00,0.00e+00,
463,-8.00e+00,0.00e+00,
464,-8.20e+00,0.00e+00,
465,-8.20e+00,0.00e+00,
466,-8.40e+00,0.00e+00,
467,-8.40e+00,0.00e+00,
468,-8.60e+00,0.00e+00,
469,-8.60e+00,0.00e+00,
470,-8.60e+00,0.00e+00,
471,-8.60e+00,0.00e+00,
472,-8.80e+00,0.00e+00,
473,-8.80e+00,0.00e+00,
474,-9.00e+00,0.00e+00,
475,-9.00e+00,0.00e+00,
476,-9.00e+00,0.00e+00,
477,-9.00e+00,0.00e+00,
478,-9.00e+00,0.00e+00,
479,-9.00e+00,0.00e+00,
480,-8.80e+00,0.00e+00,
481,-8.80e+00,0.00e+00,
482,-8.80e+00,0.00e+00,
483,-8.80e+00,0.00e+00,
484,-8.60e+00,0.00e+00,
485,-8.60e+00,0.00e+00,
486,-8.60e+00,0.00e+00,
487,-8.60e+00,0.00e+00,
488,-8.40e+00,-4.00e-02,
489,-8.40e+00,-4.00e-02,
490,-8.00e+00,0.00e+00,
491,-8.00e+00,0.00e+00,
492,-8.20e+00,-4.00e-02,
493,-8.20e+00,-4.00e-02,
494,-7.80e+00,-4.00e-02,
495,-7.80e+00,-4.00e-02,
496,-7.80e+00,0.00e+00,
497,-7.80e+00,0.00e+00,
498,-7.60e+00,0.00e+00,
499,-7.60e+00,0.00e+00,
500,-7.40e+00,-4.00e-02,
501,-7.40e+00,-4.00e-02,
502,-7.40e+00,0.00e+00,
503,-7.40e+00,0.00e+00,
504,-7.20e+00,0.00e+00,
505,-7.20e+00,0.00e+00,
506,-7.00e+00,-4.00e-02,
507,-7.00e+00,-4.00e-02,
508,-6.80e+00,-4.00e-02,
509,-6.80e+00,-4.00e-02,
510,-6.60e+00,0.00e+00,
511,-6.60e+00,0.00e+00,
512,-6.60e+00,0.00e+00,
513,-6.60e+00,0.00e+00,
514,-6.40e+00,0.00e+00,
515,-6.40e+00,0.00e+00,
516,-6.20e+00,0.00e+00,
517,-6.20e+00,0.00e+00,
518,-6.20e+00,0.00e+00,
519,-6.20e+00,0.00e+00,
520,-6.00e+00,-4.00e-02,
521,-6.00e+00,-4.00e-02,
522,-6.00e+00,0.00e+00,
523,-6.00e+00,0.00e+00,
524,-5.80e+00,-4.00e-02,
525,-5.80e+00,-4.00e-02,
526,-5.60e+00,0.00e+00,
527,-5.60e+00,0.00e+00,
528,-5.40e+00,0.00e+00,
529,-5.40e+00,0.00e+00,
530,-5.20e+00,-4.00e-02,
531,-5.20e+00,-4.00e-02,
532,-5.00e+00,0.00e+00,
533,-5.00e+00,0.00e+00,
534,-5.00e+00,-4.00e-02,
535,-5.00e+00,-4.00e-02,
536,-4.80e+00,-4.00e-02,
537,-4.80e+00,-4.00e-02,
538,-4.80e+00,0.00e+00,
539,-4.80e+00,0.00e+00,
540,-4.60e+00,0.00e+00,
541,-4.60e+00,0.00e+00,
542,-4.40e+00,0.00e+00,
543,-4.40e+00,0.00e+00,
544,-4.20e+00,4.00e-02,
545,-4.20e+00,4.00e-02,
546,-4.00e+00,4.00e-02,
547,-4.00e+00,4.00e-02,
548,-4.00e+00,8.00e-02,
549,-4.00e+00,8.00e-02,
550,-3.80e+00,1.20e-01,
551,-3.80e+00,1.20e-01,
552,-3.60e+00,1.20e-01,
553,-3.60e+00,1.20e-01,
554,-3.60e+00,1.60e-01,
555,-3.60e+00,1.60e-01,
556,-3.40e+00,1.60e-01,
557,-3.40e+00,1.60e-01,
558,-3.20e+00,2.00e-01,
559,-3.20e+00,2.00e-01,
560,-3.00e+00,2.40e-01,
561,-3.00e+00,2.40e-01,
562,-2.80e+00,2.40e-01,
563,-2.80e+00,2.40e-01,
564,-2.80e+00,3.20e-01,
565,-2.80e+00,3.20e-01,
566,-2.60e+00,3.20e-01,
567,-2.60e+00,3.20e-01,
568,-2.60e+00,3.60e-01,
569,-2.60e+00,3.60e-01,
570,-2.40e+00,4.00e-01,
571,-2.40e+00,4.00e-01,
572,-2.20e+00,4.40e-01,
573,-2.20e+00,4.40e-01,
574,-2.20e+00,4.40e-01,
575,-2.20e+00,4.40e-01,
576,-2.00e+00,4.80e-01,
577,-2.00e+00,4.80e-01,
578,-1.80e+00,5.20e-01,
579,-1.80e+00,5.20e-01,
580,-1.60e+00,5.60e-01,
581,-1.60e+00,5.60e-01,
582,-1.40e+00,6.00e-01,
583,-1.40e+00,6.00e-01,
584,-1.40e+00,6.40e-01,
585,-1.40e+00,6.40e-01,
586,-1.20e+00,6.80e-01,
587,-1.20e+00,6.80e-01,
588,-1.00e+00,7.20e-01,
589,-1.00e+00,7.20e-01,
590,-1.00e+00,8.00e-01,
591,-1.00e+00,8.00e-01,
592,-8.00e-01,8.00e-01,
593,-8.00e-01,8.00e-01,
594,-6.00e-01,8.40e-01,
595,-6.00e-01,8.40e-01,
596,-6.00e-01,9.20e-01,
597,-6.00e-01,9.20e-01,
598,-4.00e-01,9.60e-01,
599,-4.00e-01,9.60e-01,
600,-2.00e-01,9.60e-01,
601,-2.00e-01,9.60e-01,
602,0.00e+00,1.04e+00,
603,0.00e+00,1.04e+00,
604,2.00e-01,1.08e+00,
605,2.00e-01,1.08e+00,
606,2.00e-01,1.12e+00,
607,2.00e-01,1.12e+00,
608,4.00e-01,1.16e+00,
609,4.00e-01,1.16e+00,
610,6.00e-01,1.20e+00,
611,6.00e-01,1.20e+00,
612,6.00e-01,1.24e+00,
613,6.00e-01,1.24e+00,
614,1.00e+00,1.32e+00,
615,1.00e+00,1.32e+00,
616,1.00e+00,1.32e+00,
617,1.00e+00,1.32e+00,
618,1.20e+00,1.40e+00,
619,1.20e+00,1.40e+00,
620,1.20e+00,1.44e+00,
621,1.20e+00,1.44e+00,
622,1.40e+00,1.52e+00,
623,1.40e+00,1.52e+00,
624,1.60e+00,1.56e+00,
625,1.60e+00,1.56e+00,
626,1.60e+00,1.60e+00,
627,1.60e+00,1.60e+00,
628,2.00e+00,1.64e+00,
629,2.00e+00,1.64e+00,
630,2.00e+00,1.72e+00,
631,2.00e+00,1.72e+00,
632,2.20e+00,1.72e+00,
633,2.20e+00,1.72e+00,
634,2.40e+00,1.76e+00,
635,2.40e+00,1.76e+00,
636,2.40e+00,1.76e+00,
637,2.40e+00,1.76e+00,
638,2.60e+00,1.76e+00,
639,2.60e+00,1.76e+00,
640,3.00e+00,1.80e+00,
641,3.00e+00,1.80e+00,
642,3.00e+00,1.80e+00,
643,3.00e+00,1.80e+00,
644,3.20e+00,1.80e+00,
645,3.20e+00,1.80e+00,
646,3.20e+00,1.80e+00,
647,3.20e+00,1.80e+00,
648,3.40e+00,1.80e+00,
649,3.40e+00,1.80e+00,
650,3.40e+00,1.80e+00,
651,3.40e+00,1.80e+00,
652,3.60e+00,1.84e+00,
653,3.60e+00,1.84e+00,
654,3.80e+00,1.84e+00,
655,3.80e+00,1.84e+00,
656,4.00e+00,1.80e+00,
657,4.00e+00,1.80e+00,
658,4.00e+00,1.80e+00,
659,4.00e+00,1.80e+00,
660,4.20e+00,1.80e+00,
661,4.20e+00,1.80e+00,
662,4.20e+00,1.84e+00,
663,4.20e+00,1.84e+00,
664,4.40e+00,1.80e+00,
665,4.40e+00,1.80e+00,
666,4.60e+00,1.80e+00,
667,4.60e+00,1.80e+00,
668,4.80e+00,1.80e+00,
669,4.80e+00,1.80e+00,
670,5.00e+00,1.84e+00,
671,5.00e+00,1.84e+00,
672,5.00e+00,1.84e+00,
673,5.00e+00,1.84e+00,
674,5.20e+00,1.84e+00,
675,5.20e+00,1.84e+00,
676,5.40e+00,1.84e+00,
677,5.40e+00,1.84e+00,
678,5.40e+00,1.84e+00,
679,5.40e+00,1.84e+00,
680,5.80e+00,1.80e+00,
681,5.80e+00,1.80e+00,
682,5.60e+00,1.84e+00,
683,5.60e+00,1.84e+00,
684,5.80e+00,1.84e+00,
685,5.80e+00,1.84e+00,
686,6.20e+00,1.84e+00,
687,6.20e+00,1.84e+00,
688,6.20e+00,1.84e+00,
689,6.20e+00,1.84e+00,
690,6.60e+00,1.84e+00,
691,6.60e+00,1.84e+00,
692,6.40e+00,1.84e+00,
693,6.40e+00,1.84e+00,
694,6.60e+00,1.84e+00,
695,6.60e+00,1.84e+00,
696,7.00e+00,1.80e+00,
697,7.00e+00,1.80e+00,
698,6.80e+00,1.84e+00,
699,6.80e+00,1.84e+00,
700,7.00e+00,1.84e+00,
701,7.00e+00,1.84e+00,
702,7.20e+00,1.84e+00,
703,7.20e+00,1.84e+00,
704,7.40e+00,1.84e+00,
705,7.40e+00,1.84e+00,
706,7.60e+00,1.84e+00,
707,7.60e+00,1.84e+00,
708,7.80e+00,1.84e+00,
709,7.80e+00,1.84e+00,
710,7.80e+00,1.84e+00,
711,7.80e+00,1.84e+00,
712,8.00e+00,1.84e+00,
713,8.00e+00,1.84e+00,
714,8.00e+00,1.84e+00,
715,8.00e+00,1.84e+00,
716,8.20e+00,1.84e+00,
717,8.20e+00,1.84e+00,
718,8.40e+00,1.84e+00,
719,8.40e+00,1.84e+00,
720,8.60e+00,1.84e+00,
721,8.60e+00,1.84e+00,
722,8.80e+00,1.84e+00,
723,8.80e+00,1.84e+00,
724,8.80e+00,1.84e+00,
725,8.80e+00,1.84e+00,
726,9.20e+00,1.84e+00,
727,9.20e+00,1.84e+00,
728,8.80e+00,1.84e+00,
729,8.80e+00,1.84e+00,
730,8.80e+00,1.84e+00,
731,8.80e+00,1.84e+00,
732,8.60e+00,1.84e+00,
733,8.60e+00,1.84e+00,
734,8.60e+00,1.84e+00,
735,8.60e+00,1.84e+00,
736,8.40e+00,1.84e+00,
737,8.40e+00,1.84e+00,
738,8.00e+00,1.88e+00,
739,8.00e+00,1.88e+00,
740,8.00e+00,1.88e+00,
741,8.00e+00,1.88e+00,
742,7.80e+00,1.84e+00,
743,7.80e+00,1.84e+00,
744,8.00e+00,1.88e+00,
745,8.00e+00,1.88e+00,
746,7.60e+00,1.84e+00,
747,7.60e+00,1.84e+00,
748,7.40e+00,1.84e+00,
749,7.40e+00,1.84e+00,
750,7.20e+00,1.84e+00,
751,7.20e+00,1.84e+00,
752,7.20e+00,1.84e+00,
753,7.20e+00,1.84e+00,
754,7.00e+00,1.84e+00,
755,7.00e+00,1.84e+00,
756,7.00e+00,1.84e+00,
757,7.00e+00,1.84e+00,
758,6.80e+00,1.84e+00,
759,6.80e+00,1.84e+00,
760,6.60e+00,1.84e+00,
761,6.60e+00,1.84e+00,
762,6.40e+00,1.84e+00,
763,6.40e+00,1.84e+00,
764,6.40e+00,1.84e+00,
765,6.40e+00,1.84e+00,
766,6.20e+00,1.84e+00,
767,6.20e+00,1.84e+00,
768,6.00e+00,1.84e+00,
769,6.00e+00,1.84e+00,
770,6.00e+00,1.84e+00,
771,6.00e+00,1.84e+00,
772,5.80e+00,1.84e+00,
773,5.80e+00,1.84e+00,
774,5.60e+00,1.84e+00,
775,5.60e+00,1.84e+00,
776,5.40e+00,1.84e+00,
777,5.40e+00,1.84e+00,
778,5.20e+00,1.84e+00,
779,5.20e+00,1.84e+00,
780,5.20e+00,1.84e+00,
781,5.20e+00,1.84e+00,
782,5.00e+00,1.80e+00,
783,5.00e+00,1.80e+00,
784,4.80e+00,1.84e+00,
785,4.80e+00,1.84e+00,
786,4.80e+00,1.80e+00,
787,4.80e+00,1.80e+00,
788,4.40e+00,1.80e+00,
789,4.40e+00,1.80e+00,
790,4.60e+00,1.84e+00,
791,4.60e+00,1.84e+00,
792,4.20e+00,1.80e+00,
793,4.20e+00,1.80e+00,
794,4.20e+00,1.84e+00,
795,4.20e+00,1.84e+00,
796,4.00e+00,1.84e+00,
797,4.00e+00,1.84e+00,
798,3.80e+00,1.80e+00,
799,3.80e+00,1.80e+00,
800,3.60e+00,1.80e+00,
801,3.60e+00,1.80e+00,
802,3.40e+00,1.80e+00,
803,3.40e+00,1.80e+00,
804,3.40e+00,1.80e+00,
805,3.40e+00,1.80e+00,
806,3.40e+00,1.80e+00,
807,3.40e+00,1.80e+00,
808,3.00e+00,1.84e+00,
809,3.00e+00,1.84e+00,
810,3.00e+00,1.80e+00,
811,3.00e+00,1.80e+00,
812,2.80e+00,1.80e+00,
813,2.80e+00,1.80e+00,
814,2.60e+00,1.80e+00,
815,2.60e+00,1.80e+00,
816,2.60e+00,1.80e+00,
817,2.60e+00,1.80e+00,
818,2.40e+00,1.76e+00,
819,2.40e+00,1.76e+00,
820,2.20e+00,1.76e+00,
821,2.20e+00,1.76e+00,
822,2.20e+00,1.72e+00,
823,2.20e+00,1.72e+00,
824,1.80e+00,1.68e+00,
825,1.80e+00,1.68e+00,
826,2.00e+00,1.64e+00,
827,2.00e+00,1.64e+00,
828,1.60e+00,1.56e+00,
829,1.60e+00,1.56e+00,
830,1.40e+00,1.56e+00,
831,1.40e+00,1.56e+00,
832,1.40e+00,1.48e+00,
833,1.40e+00,1.48e+00,
834,1.20e+00,1.44e+00,
835,1.20e+00,1.44e+00,
836,1.00e+00,1.40e+00,
837,1.00e+00,1.40e+00,
838,1.00e+00,1.32e+00,
839,1.00e+00,1.32e+00,
840,6.00e-01,1.28e+00,
841,6.00e-01,1.28e+00,
842,6.00e-01,1.24e+00,
843,6.00e-01,1.24e+00,
844,4.00e-01,1.20e+00,
845,4.00e-01,1.20e+00,
846,2.00e-01,1.12e+00,
847,2.00e-01,1.12e+00,
848,2.00e-01,1.12e+00,
849,2.00e-01,1.12e+00,
850,0.00e+00,1.08e+00,
851,0.00e+00,1.08e+00,
852,-2.00e-01,1.04e+00,
