Versuch1/rawData/NewFile1c5r.csv

X,CH1,CH2,Start,Increment,
Sequence,Volt,Volt,-1.200000e-02,2.000000e-05
0,-4.80e-02,1.08e+01,
1,-4.80e-02,1.08e+01,
2,-5.60e-02,1.08e+01,
3,-5.60e-02,1.08e+01,
4,-5.60e-02,1.08e+01,
5,-5.60e-02,1.08e+01,
6,-5.60e-02,1.08e+01,
7,-5.60e-02,1.08e+01,
8,-5.60e-02,1.08e+01,
9,-5.60e-02,1.08e+01,
10,-5.60e-02,1.08e+01,
11,-5.60e-02,1.08e+01,
12,-5.60e-02,1.12e+01,
13,-5.60e-02,1.12e+01,
14,-5.60e-02,1.12e+01,
15,-5.60e-02,1.12e+01,
16,-5.60e-02,1.12e+01,
17,-5.60e-02,1.12e+01,
18,-5.60e-02,1.16e+01,
19,-5.60e-02,1.16e+01,
20,-4.80e-02,1.12e+01,
21,-4.80e-02,1.12e+01,
22,-4.80e-02,1.16e+01,
23,-4.80e-02,1.16e+01,
24,-5.60e-02,1.16e+01,
25,-5.60e-02,1.16e+01,
26,-5.60e-02,1.16e+01,
27,-5.60e-02,1.16e+01,
28,-4.80e-02,1.16e+01,
29,-4.80e-02,1.16e+01,
30,-5.60e-02,1.16e+01,
31,-5.60e-02,1.16e+01,
32,-5.60e-02,1.20e+01,
33,-5.60e-02,1.20e+01,
34,-5.60e-02,1.16e+01,
35,-5.60e-02,1.16e+01,
36,-4.80e-02,1.16e+01,
37,-4.80e-02,1.16e+01,
38,-4.80e-02,1.16e+01,
39,-4.80e-02,1.16e+01,
40,-5.60e-02,1.16e+01,
41,-5.60e-02,1.16e+01,
42,-5.60e-02,1.20e+01,
43,-5.60e-02,1.20e+01,
44,-5.60e-02,1.20e+01,
45,-5.60e-02,1.20e+01,
46,-5.60e-02,1.24e+01,
47,-5.60e-02,1.24e+01,
48,-5.60e-02,1.24e+01,
49,-5.60e-02,1.24e+01,
50,-5.60e-02,1.24e+01,
51,-5.60e-02,1.24e+01,
52,-4.80e-02,1.24e+01,
53,-4.80e-02,1.24e+01,
54,-4.80e-02,1.24e+01,
55,-4.80e-02,1.24e+01,
56,-4.80e-02,1.24e+01,
57,-4.80e-02,1.24e+01,
58,-4.80e-02,1.24e+01,
59,-4.80e-02,1.24e+01,
60,-4.80e-02,1.24e+01,
61,-4.80e-02,1.24e+01,
62,-5.60e-02,1.24e+01,
63,-5.60e-02,1.24e+01,
64,-5.60e-02,1.28e+01,
65,-5.60e-02,1.28e+01,
66,-5.60e-02,1.28e+01,
67,-5.60e-02,1.28e+01,
68,-5.60e-02,1.28e+01,
69,-5.60e-02,1.28e+01,
70,-5.60e-02,1.28e+01,
71,-5.60e-02,1.28e+01,
72,-5.60e-02,1.28e+01,
73,-5.60e-02,1.28e+01,
74,-5.60e-02,1.28e+01,
75,-5.60e-02,1.28e+01,
76,-5.60e-02,1.28e+01,
77,-5.60e-02,1.28e+01,
78,-5.60e-02,1.32e+01,
79,-5.60e-02,1.32e+01,
80,-5.60e-02,1.32e+01,
81,-5.60e-02,1.32e+01,
82,-4.80e-02,1.32e+01,
83,-4.80e-02,1.32e+01,
84,-4.80e-02,1.32e+01,
85,-4.80e-02,1.32e+01,
86,-5.60e-02,1.32e+01,
87,-5.60e-02,1.32e+01,
88,-5.60e-02,1.32e+01,
89,-5.60e-02,1.32e+01,
90,-4.80e-02,1.32e+01,
91,-4.80e-02,1.32e+01,
92,-5.60e-02,1.32e+01,
93,-5.60e-02,1.32e+01,
94,-5.60e-02,1.32e+01,
95,-5.60e-02,1.32e+01,
96,-5.60e-02,1.36e+01,
97,-5.60e-02,1.36e+01,
98,4.80e-02,1.36e+01,
99,4.80e-02,1.36e+01,
100,4.80e-02,1.32e+01,
101,4.80e-02,1.32e+01,
102,4.80e-02,1.32e+01,
103,4.80e-02,1.32e+01,
104,4.80e-02,1.32e+01,
105,4.80e-02,1.32e+01,
106,4.80e-02,1.32e+01,
107,4.80e-02,1.32e+01,
108,4.80e-02,1.32e+01,
109,4.80e-02,1.32e+01,
110,4.80e-02,1.32e+01,
111,4.80e-02,1.32e+01,
112,4.80e-02,1.32e+01,
113,4.80e-02,1.32e+01,
114,4.80e-02,1.32e+01,
115,4.80e-02,1.32e+01,
116,4.80e-02,1.28e+01,
117,4.80e-02,1.28e+01,
118,4.80e-02,1.28e+01,
119,4.80e-02,1.28e+01,
120,4.80e-02,1.28e+01,
121,4.80e-02,1.28e+01,
122,4.80e-02,1.28e+01,
123,4.80e-02,1.28e+01,
124,4.80e-02,1.28e+01,
125,4.80e-02,1.28e+01,
126,4.80e-02,1.28e+01,
127,4.80e-02,1.28e+01,
128,4.80e-02,1.28e+01,
129,4.80e-02,1.28e+01,
130,4.80e-02,1.28e+01,
131,4.80e-02,1.28e+01,
132,4.80e-02,1.24e+01,
133,4.80e-02,1.24e+01,
134,4.80e-02,1.24e+01,
135,4.80e-02,1.24e+01,
136,4.80e-02,1.20e+01,
137,4.80e-02,1.20e+01,
138,4.80e-02,1.20e+01,
139,4.80e-02,1.20e+01,
140,4.80e-02,1.24e+01,
141,4.80e-02,1.24e+01,
142,4.80e-02,1.24e+01,
143,4.80e-02,1.24e+01,
144,4.80e-02,1.24e+01,
145,4.80e-02,1.24e+01,
146,4.80e-02,1.24e+01,
147,4.80e-02,1.24e+01,
148,4.80e-02,1.20e+01,
149,4.80e-02,1.20e+01,
150,4.80e-02,1.20e+01,
151,4.80e-02,1.20e+01,
152,4.80e-02,1.20e+01,
153,4.80e-02,1.20e+01,
154,4.80e-02,1.20e+01,
155,4.80e-02,1.20e+01,
156,4.80e-02,1.20e+01,
157,4.80e-02,1.20e+01,
158,4.80e-02,1.20e+01,
159,4.80e-02,1.20e+01,
160,4.80e-02,1.16e+01,
161,4.80e-02,1.16e+01,
162,4.80e-02,1.20e+01,
163,4.80e-02,1.20e+01,
164,4.80e-02,1.16e+01,
165,4.80e-02,1.16e+01,
166,4.80e-02,1.12e+01,
167,4.80e-02,1.12e+01,
168,4.80e-02,1.16e+01,
169,4.80e-02,1.16e+01,
170,4.80e-02,1.12e+01,
171,4.80e-02,1.12e+01,
172,4.80e-02,1.16e+01,
173,4.80e-02,1.16e+01,
174,4.80e-02,1.16e+01,
175,4.80e-02,1.16e+01,
176,4.80e-02,1.12e+01,
177,4.80e-02,1.12e+01,
178,4.80e-02,1.16e+01,
179,4.80e-02,1.16e+01,
180,4.80e-02,1.12e+01,
181,4.80e-02,1.12e+01,
182,4.80e-02,1.08e+01,
183,4.80e-02,1.08e+01,
184,4.80e-02,1.08e+01,
185,4.80e-02,1.08e+01,
186,4.80e-02,1.08e+01,
187,4.80e-02,1.08e+01,
188,4.80e-02,1.08e+01,
189,4.80e-02,1.08e+01,
190,4.80e-02,1.08e+01,
191,4.80e-02,1.08e+01,
192,4.80e-02,1.08e+01,
193,4.80e-02,1.08e+01,
194,4.80e-02,1.08e+01,
195,4.80e-02,1.08e+01,
196,4.80e-02,1.04e+01,
197,4.80e-02,1.04e+01,
198,4.80e-02,1.04e+01,
199,4.80e-02,1.04e+01,
200,4.80e-02,1.04e+01,
201,4.80e-02,1.04e+01,
202,4.80e-02,1.04e+01,
203,4.80e-02,1.04e+01,
204,4.80e-02,1.04e+01,
205,4.80e-02,1.04e+01,
206,4.80e-02,1.04e+01,
207,4.80e-02,1.04e+01,
208,4.80e-02,1.04e+01,
209,4.80e-02,1.04e+01,
210,4.80e-02,1.04e+01,
211,4.80e-02,1.04e+01,
212,4.80e-02,1.00e+01,
213,4.80e-02,1.00e+01,
214,4.80e-02,9.60e+00,
215,4.80e-02,9.60e+00,
216,4.80e-02,9.60e+00,
217,4.80e-02,9.60e+00,
218,4.80e-02,1.00e+01,
219,4.80e-02,1.00e+01,
220,4.80e-02,1.00e+01,
221,4.80e-02,1.00e+01,
222,4.80e-02,1.00e+01,
223,4.80e-02,1.00e+01,
224,4.80e-02,1.00e+01,
225,4.80e-02,1.00e+01,
226,4.80e-02,1.00e+01,
227,4.80e-02,1.00e+01,
228,4.80e-02,1.00e+01,
229,4.80e-02,1.00e+01,
230,4.80e-02,9.60e+00,
231,4.80e-02,9.60e+00,
232,4.80e-02,9.60e+00,
233,4.80e-02,9.60e+00,
234,4.80e-02,9.60e+00,
235,4.80e-02,9.60e+00,
236,4.80e-02,9.60e+00,
237,4.80e-02,9.60e+00,
238,4.80e-02,9.60e+00,
239,4.80e-02,9.60e+00,
240,4.80e-02,9.60e+00,
241,4.80e-02,9.60e+00,
242,4.80e-02,9.60e+00,
243,4.80e-02,9.60e+00,
244,4.80e-02,9.60e+00,
245,4.80e-02,9.60e+00,
246,4.80e-02,8.80e+00,
247,4.80e-02,8.80e+00,
248,4.80e-02,9.20e+00,
249,4.80e-02,9.20e+00,
250,4.80e-02,9.20e+00,
251,4.80e-02,9.20e+00,
252,4.80e-02,9.20e+00,
253,4.80e-02,9.20e+00,
254,4.80e-02,9.20e+00,
255,4.80e-02,9.20e+00,
256,4.80e-02,9.20e+00,
257,4.80e-02,9.20e+00,
258,4.80e-02,9.20e+00,
259,4.80e-02,9.20e+00,
260,4.80e-02,9.20e+00,
261,4.80e-02,9.20e+00,
262,4.80e-02,8.80e+00,
263,4.80e-02,8.80e+00,
264,4.80e-02,8.40e+00,
265,4.80e-02,8.40e+00,
266,4.80e-02,8.80e+00,
267,4.80e-02,8.80e+00,
268,4.80e-02,8.40e+00,
269,4.80e-02,8.40e+00,
270,4.80e-02,8.40e+00,
271,4.80e-02,8.40e+00,
272,4.80e-02,8.40e+00,
273,4.80e-02,8.40e+00,
274,4.80e-02,8.40e+00,
275,4.80e-02,8.40e+00,
276,4.80e-02,8.40e+00,
277,4.80e-02,8.40e+00,
278,4.80e-02,8.40e+00,
279,4.80e-02,8.40e+00,
280,4.80e-02,8.00e+00,
281,4.80e-02,8.00e+00,
282,4.80e-02,8.00e+00,
283,4.80e-02,8.00e+00,
284,4.80e-02,8.00e+00,
285,4.80e-02,8.00e+00,
286,4.80e-02,8.00e+00,
287,4.80e-02,8.00e+00,
288,4.80e-02,8.00e+00,
289,4.80e-02,8.00e+00,
290,4.80e-02,8.00e+00,
291,4.80e-02,8.00e+00,
292,4.80e-02,8.00e+00,
293,4.80e-02,8.00e+00,
294,4.80e-02,7.60e+00,
295,4.80e-02,7.60e+00,
296,4.80e-02,7.60e+00,
297,4.80e-02,7.60e+00,
298,4.80e-02,7.60e+00,
299,4.80e-02,7.60e+00,
300,4.80e-02,7.60e+00,
301,4.80e-02,7.60e+00,
302,4.80e-02,7.60e+00,
303,4.80e-02,7.60e+00,
304,4.80e-02,7.60e+00,
305,4.80e-02,7.60e+00,
306,4.80e-02,7.60e+00,
307,4.80e-02,7.60e+00,
308,4.80e-02,7.60e+00,
309,4.80e-02,7.60e+00,
310,4.80e-02,7.60e+00,
311,4.80e-02,7.60e+00,
312,4.80e-02,7.20e+00,
313,4.80e-02,7.20e+00,
314,4.80e-02,7.20e+00,
315,4.80e-02,7.20e+00,
316,4.80e-02,7.20e+00,
317,4.80e-02,7.20e+00,
318,4.80e-02,7.20e+00,
319,4.80e-02,7.20e+00,
320,4.80e-02,7.20e+00,
321,4.80e-02,7.20e+00,
322,4.80e-02,7.20e+00,
323,4.80e-02,7.20e+00,
324,4.80e-02,7.20e+00,
325,4.80e-02,7.20e+00,
326,4.80e-02,7.20e+00,
327,4.80e-02,7.20e+00,
328,4.80e-02,6.80e+00,
329,4.80e-02,6.80e+00,
330,4.80e-02,6.80e+00,
331,4.80e-02,6.80e+00,
332,4.80e-02,6.80e+00,
333,4.80e-02,6.80e+00,
334,4.80e-02,6.80e+00,
335,4.80e-02,6.80e+00,
336,4.80e-02,6.80e+00,
337,4.80e-02,6.80e+00,
338,4.80e-02,6.40e+00,
339,4.80e-02,6.40e+00,
340,4.80e-02,6.80e+00,
341,4.80e-02,6.80e+00,
342,4.80e-02,6.40e+00,
343,4.80e-02,6.40e+00,
344,4.80e-02,6.40e+00,
345,4.80e-02,6.40e+00,
346,4.80e-02,6.00e+00,
347,4.80e-02,6.00e+00,
348,-5.60e-02,6.40e+00,
349,-5.60e-02,6.40e+00,
350,-5.60e-02,6.40e+00,
351,-5.60e-02,6.40e+00,
352,-5.60e-02,6.80e+00,
353,-5.60e-02,6.80e+00,
354,-5.60e-02,6.80e+00,
355,-5.60e-02,6.80e+00,
356,-5.60e-02,6.80e+00,
357,-5.60e-02,6.80e+00,
358,-5.60e-02,6.80e+00,
359,-5.60e-02,6.80e+00,
360,-5.60e-02,6.40e+00,
361,-5.60e-02,6.40e+00,
362,-5.60e-02,6.80e+00,
363,-5.60e-02,6.80e+00,
364,-5.60e-02,6.40e+00,
365,-5.60e-02,6.40e+00,
366,-5.60e-02,6.80e+00,
367,-5.60e-02,6.80e+00,
368,-5.60e-02,6.80e+00,
369,-5.60e-02,6.80e+00,
370,-5.60e-02,7.20e+00,
371,-5.60e-02,7.20e+00,
372,-5.60e-02,7.20e+00,
373,-5.60e-02,7.20e+00,
374,-5.60e-02,7.20e+00,
375,-5.60e-02,7.20e+00,
376,-5.60e-02,7.20e+00,
377,-5.60e-02,7.20e+00,
378,-5.60e-02,6.80e+00,
379,-5.60e-02,6.80e+00,
380,-5.60e-02,7.20e+00,
381,-5.60e-02,7.20e+00,
382,-5.60e-02,7.60e+00,
383,-5.60e-02,7.60e+00,
384,-5.60e-02,7.60e+00,
385,-5.60e-02,7.60e+00,
386,-5.60e-02,7.60e+00,
387,-5.60e-02,7.60e+00,
388,-5.60e-02,7.60e+00,
389,-5.60e-02,7.60e+00,
390,-5.60e-02,7.60e+00,
391,-5.60e-02,7.60e+00,
392,-5.60e-02,7.60e+00,
393,-5.60e-02,7.60e+00,
394,-5.60e-02,7.60e+00,
395,-5.60e-02,7.60e+00,
396,-4.80e-02,7.60e+00,
397,-4.80e-02,7.60e+00,
398,-5.60e-02,8.00e+00,
399,-5.60e-02,8.00e+00,
400,-5.60e-02,8.00e+00,
401,-5.60e-02,8.00e+00,
402,-5.60e-02,8.00e+00,
403,-5.60e-02,8.00e+00,
404,-5.60e-02,8.00e+00,
405,-5.60e-02,8.00e+00,
406,-4.80e-02,8.00e+00,
407,-4.80e-02,8.00e+00,
408,-4.80e-02,8.00e+00,
409,-4.80e-02,8.00e+00,
410,-5.60e-02,8.00e+00,
411,-5.60e-02,8.00e+00,
412,-5.60e-02,8.00e+00,
413,-5.60e-02,8.00e+00,
414,-5.60e-02,8.40e+00,
415,-5.60e-02,8.40e+00,
416,-4.80e-02,8.40e+00,
417,-4.80e-02,8.40e+00,
418,-4.80e-02,8.80e+00,
419,-4.80e-02,8.80e+00,
420,-4.80e-02,8.80e+00,
421,-4.80e-02,8.80e+00,
422,-4.80e-02,8.40e+00,
423,-4.80e-02,8.40e+00,
424,-4.80e-02,8.40e+00,
425,-4.80e-02,8.40e+00,
426,-4.80e-02,8.40e+00,
427,-4.80e-02,8.40e+00,
428,-5.60e-02,8.40e+00,
429,-5.60e-02,8.40e+00,
430,-5.60e-02,9.20e+00,
431,-5.60e-02,9.20e+00,
432,-4.80e-02,9.20e+00,
433,-4.80e-02,9.20e+00,
434,-5.60e-02,9.20e+00,
435,-5.60e-02,9.20e+00,
436,-5.60e-02,9.20e+00,
437,-5.60e-02,9.20e+00,
438,-5.60e-02,9.20e+00,
439,-5.60e-02,9.20e+00,
440,-5.60e-02,9.20e+00,
441,-5.60e-02,9.20e+00,
442,-5.60e-02,8.80e+00,
443,-5.60e-02,8.80e+00,
444,-5.60e-02,9.20e+00,
445,-5.60e-02,9.20e+00,
446,-5.60e-02,9.60e+00,
447,-5.60e-02,9.60e+00,
448,-5.60e-02,9.60e+00,
449,-5.60e-02,9.60e+00,
450,-5.60e-02,9.60e+00,
451,-5.60e-02,9.60e+00,
452,-4.80e-02,9.20e+00,
453,-4.80e-02,9.20e+00,
454,-5.60e-02,9.20e+00,
455,-5.60e-02,9.20e+00,
456,-5.60e-02,9.60e+00,
457,-5.60e-02,9.60e+00,
458,-5.60e-02,9.20e+00,
459,-5.60e-02,9.20e+00,
460,-5.60e-02,9.20e+00,
461,-5.60e-02,9.20e+00,
462,-5.60e-02,1.00e+01,
463,-5.60e-02,1.00e+01,
464,-4.80e-02,1.00e+01,
465,-4.80e-02,1.00e+01,
466,-4.80e-02,1.00e+01,
467,-4.80e-02,1.00e+01,
468,-5.60e-02,1.00e+01,
469,-5.60e-02,1.00e+01,
470,-5.60e-02,1.00e+01,
471,-5.60e-02,1.00e+01,
472,-5.60e-02,1.00e+01,
473,-5.60e-02,1.00e+01,
474,-5.60e-02,1.00e+01,
475,-5.60e-02,1.00e+01,
476,-5.60e-02,9.60e+00,
477,-5.60e-02,9.60e+00,
478,-5.60e-02,1.00e+01,
479,-5.60e-02,1.00e+01,
480,-4.80e-02,1.04e+01,
481,-4.80e-02,1.04e+01,
482,-4.80e-02,1.04e+01,
483,-4.80e-02,1.04e+01,
484,-4.80e-02,1.04e+01,
485,-4.80e-02,1.04e+01,
486,-5.60e-02,1.04e+01,
487,-5.60e-02,1.04e+01,
488,-5.60e-02,1.04e+01,
489,-5.60e-02,1.04e+01,
490,-5.60e-02,1.04e+01,
491,-5.60e-02,1.04e+01,
492,-5.60e-02,1.04e+01,
493,-5.60e-02,1.04e+01,
494,-5.60e-02,1.08e+01,
495,-5.60e-02,1.08e+01,
496,-4.80e-02,1.08e+01,
497,-4.80e-02,1.08e+01,
498,-5.60e-02,1.08e+01,
499,-5.60e-02,1.08e+01,
500,-5.60e-02,1.08e+01,
501,-5.60e-02,1.08e+01,
502,-4.80e-02,1.08e+01,
503,-4.80e-02,1.08e+01,
504,-4.80e-02,1.12e+01,
505,-4.80e-02,1.12e+01,
506,-5.60e-02,1.08e+01,
507,-5.60e-02,1.08e+01,
508,-5.60e-02,1.08e+01,
509,-5.60e-02,1.08e+01,
510,-4.80e-02,1.12e+01,
511,-4.80e-02,1.12e+01,
512,-5.60e-02,1.12e+01,
513,-5.60e-02,1.12e+01,
514,-5.60e-02,1.16e+01,
515,-5.60e-02,1.16e+01,
516,-5.60e-02,1.16e+01,
517,-5.60e-02,1.16e+01,
518,-5.60e-02,1.12e+01,
519,-5.60e-02,1.12e+01,
520,-4.80e-02,1.12e+01,
521,-4.80e-02,1.12e+01,
522,-5.60e-02,1.16e+01,
523,-5.60e-02,1.16e+01,
524,-5.60e-02,1.12e+01,
525,-5.60e-02,1.12e+01,
526,-5.60e-02,1.16e+01,
527,-5.60e-02,1.16e+01,
528,-5.60e-02,1.16e+01,
529,-5.60e-02,1.16e+01,
530,-4.80e-02,1.16e+01,
531,-4.80e-02,1.16e+01,
532,-4.80e-02,1.16e+01,
533,-4.80e-02,1.16e+01,
534,-4.80e-02,1.20e+01,
535,-4.80e-02,1.20e+01,
536,-5.60e-02,1.16e+01,
537,-5.60e-02,1.16e+01,
538,-5.60e-02,1.16e+01,
539,-5.60e-02,1.16e+01,
540,-4.80e-02,1.16e+01,
541,-4.80e-02,1.16e+01,
542,-4.80e-02,1.16e+01,
543,-4.80e-02,1.16e+01,
544,-4.80e-02,1.20e+01,
545,-4.80e-02,1.20e+01,
546,-4.80e-02,1.20e+01,
547,-4.80e-02,1.20e+01,
548,-5.60e-02,1.20e+01,
549,-5.60e-02,1.20e+01,
550,-5.60e-02,1.20e+01,
551,-5.60e-02,1.20e+01,
552,-5.60e-02,1.20e+01,
553,-5.60e-02,1.20e+01,
554,-5.60e-02,1.24e+01,
555,-5.60e-02,1.24e+01,
556,-5.60e-02,1.24e+01,
557,-5.60e-02,1.24e+01,
558,-5.60e-02,1.24e+01,
559,-5.60e-02,1.24e+01,
560,-5.60e-02,1.24e+01,
561,-5.60e-02,1.24e+01,
562,-5.60e-02,1.28e+01,
563,-5.60e-02,1.28e+01,
564,-5.60e-02,1.24e+01,
565,-5.60e-02,1.24e+01,
566,-5.60e-02,1.24e+01,
567,-5.60e-02,1.24e+01,
568,-5.60e-02,1.28e+01,
569,-5.60e-02,1.28e+01,
570,-5.60e-02,1.28e+01,
571,-5.60e-02,1.28e+01,
572,-5.60e-02,1.28e+01,
573,-5.60e-02,1.28e+01,
574,-5.60e-02,1.28e+01,
575,-5.60e-02,1.28e+01,
576,-5.60e-02,1.28e+01,
577,-5.60e-02,1.28e+01,
578,-5.60e-02,1.32e+01,
579,-5.60e-02,1.32e+01,
580,-5.60e-02,1.32e+01,
581,-5.60e-02,1.32e+01,
582,-5.60e-02,1.32e+01,
583,-5.60e-02,1.32e+01,
584,-5.60e-02,1.32e+01,
585,-5.60e-02,1.32e+01,
586,-5.60e-02,1.32e+01,
587,-5.60e-02,1.32e+01,
588,-5.60e-02,1.32e+01,
589,-5.60e-02,1.32e+01,
590,-5.60e-02,1.32e+01,
591,-5.60e-02,1.32e+01,
592,-5.60e-02,1.32e+01,
593,-5.60e-02,1.32e+01,
594,-5.60e-02,1.36e+01,
595,-5.60e-02,1.36e+01,
596,-4.80e-02,1.40e+01,
597,-4.80e-02,1.40e+01,
598,4.80e-02,1.36e+01,
599,4.80e-02,1.36e+01,
600,4.80e-02,1.36e+01,
601,4.80e-02,1.36e+01,
602,4.80e-02,1.32e+01,
603,4.80e-02,1.32e+01,
604,4.80e-02,1.32e+01,
605,4.80e-02,1.32e+01,
606,4.80e-02,1.32e+01,
607,4.80e-02,1.32e+01,
608,4.80e-02,1.32e+01,
609,4.80e-02,1.32e+01,
610,4.80e-02,1.32e+01,
611,4.80e-02,1.32e+01,
612,4.80e-02,1.32e+01,
613,4.80e-02,1.32e+01,
614,4.80e-02,1.32e+01,
615,4.80e-02,1.32e+01,
616,4.80e-02,1.28e+01,
617,4.80e-02,1.28e+01,
618,4.80e-02,1.28e+01,
619,4.80e-02,1.28e+01,
620,4.80e-02,1.28e+01,
621,4.80e-02,1.28e+01,
622,4.80e-02,1.28e+01,
623,4.80e-02,1.28e+01,
624,4.80e-02,1.28e+01,
625,4.80e-02,1.28e+01,
626,4.80e-02,1.28e+01,
627,4.80e-02,1.28e+01,
628,4.80e-02,1.28e+01,
629,4.80e-02,1.28e+01,
630,4.80e-02,1.28e+01,
631,4.80e-02,1.28e+01,
632,4.80e-02,1.24e+01,
633,4.80e-02,1.24e+01,
634,4.80e-02,1.24e+01,
635,4.80e-02,1.24e+01,
636,4.80e-02,1.24e+01,
637,4.80e-02,1.24e+01,
638,4.80e-02,1.24e+01,
639,4.80e-02,1.24e+01,
640,4.80e-02,1.24e+01,
641,4.80e-02,1.24e+01,
642,4.80e-02,1.20e+01,
643,4.80e-02,1.20e+01,
644,4.80e-02,1.20e+01,
645,4.80e-02,1.20e+01,
646,4.80e-02,1.20e+01,
647,4.80e-02,1.20e+01,
648,4.80e-02,1.20e+01,
649,4.80e-02,1.20e+01,
650,4.80e-02,1.20e+01,
651,4.80e-02,1.20e+01,
652,4.80e-02,1.20e+01,
653,4.80e-02,1.20e+01,
654,4.80e-02,1.20e+01,
655,4.80e-02,1.20e+01,
656,4.80e-02,1.20e+01,
657,4.80e-02,1.20e+01,
658,4.80e-02,1.20e+01,
659,4.80e-02,1.20e+01,
660,4.80e-02,1.16e+01,
661,4.80e-02,1.16e+01,
662,4.80e-02,1.20e+01,
663,4.80e-02,1.20e+01,
664,4.80e-02,1.16e+01,
665,4.80e-02,1.16e+01,
666,4.80e-02,1.16e+01,
667,4.80e-02,1.16e+01,
668,4.80e-02,1.12e+01,
669,4.80e-02,1.12e+01,
670,4.80e-02,1.16e+01,
671,4.80e-02,1.16e+01,
672,4.80e-02,1.12e+01,
673,4.80e-02,1.12e+01,
674,4.80e-02,1.16e+01,
675,4.80e-02,1.16e+01,
676,4.80e-02,1.16e+01,
677,4.80e-02,1.16e+01,
678,4.80e-02,1.12e+01,
679,4.80e-02,1.12e+01,
680,4.80e-02,1.12e+01,
681,4.80e-02,1.12e+01,
682,4.80e-02,1.12e+01,
683,4.80e-02,1.12e+01,
684,4.80e-02,1.08e+01,
685,4.80e-02,1.08e+01,
686,4.80e-02,1.08e+01,
687,4.80e-02,1.08e+01,
688,4.80e-02,1.08e+01,
689,4.80e-02,1.08e+01,
690,4.80e-02,1.08e+01,
691,4.80e-02,1.08e+01,
692,4.80e-02,1.08e+01,
693,4.80e-02,1.08e+01,
694,4.80e-02,1.08e+01,
695,4.80e-02,1.08e+01,
696,4.80e-02,1.04e+01,
697,4.80e-02,1.04e+01,
698,4.80e-02,1.04e+01,
699,4.80e-02,1.04e+01,
700,4.80e-02,1.04e+01,
701,4.80e-02,1.04e+01,
702,4.80e-02,1.04e+01,
703,4.80e-02,1.04e+01,
704,4.80e-02,1.04e+01,
705,4.80e-02,1.04e+01,
706,4.80e-02,1.04e+01,
707,4.80e-02,1.04e+01,
708,4.80e-02,1.04e+01,
709,4.80e-02,1.04e+01,
710,4.80e-02,1.04e+01,
711,4.80e-02,1.04e+01,
712,4.80e-02,1.04e+01,
713,4.80e-02,1.04e+01,
714,4.80e-02,9.60e+00,
715,4.80e-02,9.60e+00,
716,4.80e-02,9.60e+00,
717,4.80e-02,9.60e+00,
718,4.80e-02,9.60e+00,
719,4.80e-02,9.60e+00,
720,4.80e-02,1.00e+01,
721,4.80e-02,1.00e+01,
722,4.80e-02,1.00e+01,
723,4.80e-02,1.00e+01,
724,4.80e-02,1.00e+01,
725,4.80e-02,1.00e+01,
726,4.80e-02,1.00e+01,
727,4.80e-02,1.00e+01,
728,4.80e-02,1.00e+01,
729,4.80e-02,1.00e+01,
730,4.80e-02,9.60e+00,
731,4.80e-02,9.60e+00,
732,4.80e-02,9.20e+00,
733,4.80e-02,9.20e+00,
734,4.80e-02,9.60e+00,
735,4.80e-02,9.60e+00,
736,4.80e-02,9.60e+00,
737,4.80e-02,9.60e+00,
738,4.80e-02,9.60e+00,
739,4.80e-02,9.60e+00,
740,4.80e-02,9.20e+00,
741,4.80e-02,9.20e+00,
742,4.80e-02,9.20e+00,
743,4.80e-02,9.20e+00,
744,4.80e-02,9.20e+00,
745,4.80e-02,9.20e+00,
746,4.80e-02,9.20e+00,
747,4.80e-02,9.20e+00,
748,4.80e-02,8.80e+00,
749,4.80e-02,8.80e+00,
750,4.80e-02,9.20e+00,
751,4.80e-02,9.20e+00,
752,4.80e-02,8.80e+00,
753,4.80e-02,8.80e+00,
754,4.80e-02,9.20e+00,
755,4.80e-02,9.20e+00,
756,4.80e-02,9.20e+00,
757,4.80e-02,9.20e+00,
758,4.80e-02,8.80e+00,
759,4.80e-02,8.80e+00,
760,4.80e-02,9.20e+00,
761,4.80e-02,9.20e+00,
762,4.80e-02,8.80e+00,
763,4.80e-02,8.80e+00,
764,4.80e-02,8.40e+00,
765,4.80e-02,8.40e+00,
766,4.80e-02,8.80e+00,
767,4.80e-02,8.80e+00,
768,4.80e-02,8.80e+00,
769,4.80e-02,8.80e+00,
770,4.80e-02,8.40e+00,
771,4.80e-02,8.40e+00,
772,4.80e-02,8.40e+00,
773,4.80e-02,8.40e+00,
774,4.80e-02,8.40e+00,
775,4.80e-02,8.40e+00,
776,4.80e-02,8.40e+00,
777,4.80e-02,8.40e+00,
778,4.80e-02,8.00e+00,
779,4.80e-02,8.00e+00,
780,4.80e-02,8.00e+00,
781,4.80e-02,8.00e+00,
782,4.80e-02,8.00e+00,
783,4.80e-02,8.00e+00,
784,4.80e-02,8.00e+00,
785,4.80e-02,8.00e+00,
786,4.80e-02,8.00e+00,
787,4.80e-02,8.00e+00,
788,4.80e-02,8.00e+00,
789,4.80e-02,8.00e+00,
790,4.80e-02,8.00e+00,
791,4.80e-02,8.00e+00,
792,4.80e-02,8.00e+00,
793,4.80e-02,8.00e+00,
794,4.80e-02,7.60e+00,
795,4.80e-02,7.60e+00,
796,4.80e-02,7.60e+00,
797,4.80e-02,7.60e+00,
798,4.80e-02,7.60e+00,
799,4.80e-02,7.60e+00,
800,4.80e-02,7.60e+00,
801,4.80e-02,7.60e+00,
802,4.80e-02,7.60e+00,
803,4.80e-02,7.60e+00,
804,4.80e-02,7.60e+00,
805,4.80e-02,7.60e+00,
806,4.80e-02,7.60e+00,
807,4.80e-02,7.60e+00,
808,4.80e-02,7.60e+00,
809,4.80e-02,7.60e+00,
810,4.80e-02,7.60e+00,
811,4.80e-02,7.60e+00,
812,4.80e-02,7.20e+00,
813,4.80e-02,7.20e+00,
814,4.80e-02,7.20e+00,
815,4.80e-02,7.20e+00,
816,4.80e-02,7.20e+00,
817,4.80e-02,7.20e+00,
818,4.80e-02,7.20e+00,
819,4.80e-02,7.20e+00,
820,4.80e-02,7.20e+00,
821,4.80e-02,7.20e+00,
822,4.80e-02,7.20e+00,
823,4.80e-02,7.20e+00,
824,4.80e-02,7.20e+00,
825,4.80e-02,7.20e+00,
826,4.80e-02,7.20e+00,
827,4.80e-02,7.20e+00,
828,4.80e-02,6.80e+00,
829,4.80e-02,6.80e+00,
830,4.80e-02,6.80e+00,
831,4.80e-02,6.80e+00,
832,4.80e-02,6.80e+00,
833,4.80e-02,6.80e+00,
834,4.80e-02,6.80e+00,
835,4.80e-02,6.80e+00,
836,4.80e-02,6.80e+00,
837,4.80e-02,6.80e+00,
838,4.80e-02,6.80e+00,
839,4.80e-02,6.80e+00,
840,4.80e-02,6.80e+00,
841,4.80e-02,6.80e+00,
842,4.80e-02,6.80e+00,
843,4.80e-02,6.80e+00,
844,4.80e-02,6.40e+00,
845,4.80e-02,6.40e+00,
846,4.80e-02,6.00e+00,
847,4.80e-02,6.00e+00,
848,-5.60e-02,6.00e+00,
849,-5.60e-02,6.00e+00,
850,-5.60e-02,6.40e+00,
851,-5.60e-02,6.40e+00,
852,-5.60e-02,6.40e+00,
853,-5.60e-02,6.40e+00,
854,-5.60e-02,6.40e+00,
