Versuch1/rawData/NewFile1c1s.csv

X,CH1,CH2,Start,Increment,
Sequence,Volt,Volt,-1.200000e-02,2.000000e-05
0,-9.20e-01,1.36e+01,
1,-9.20e-01,1.36e+01,
2,-9.20e-01,1.36e+01,
3,-9.20e-01,1.36e+01,
4,-9.20e-01,1.36e+01,
5,-9.20e-01,1.36e+01,
6,-9.20e-01,1.36e+01,
7,-9.20e-01,1.36e+01,
8,-8.80e-01,1.36e+01,
9,-8.80e-01,1.36e+01,
10,-8.40e-01,1.36e+01,
11,-8.40e-01,1.36e+01,
12,-8.80e-01,1.36e+01,
13,-8.80e-01,1.36e+01,
14,-8.80e-01,1.36e+01,
15,-8.80e-01,1.36e+01,
16,-8.40e-01,1.36e+01,
17,-8.40e-01,1.36e+01,
18,-8.40e-01,1.36e+01,
19,-8.40e-01,1.36e+01,
20,-8.40e-01,1.36e+01,
21,-8.40e-01,1.36e+01,
22,-8.00e-01,1.36e+01,
23,-8.00e-01,1.36e+01,
24,-7.60e-01,1.36e+01,
25,-7.60e-01,1.36e+01,
26,-8.00e-01,1.36e+01,
27,-8.00e-01,1.36e+01,
28,-8.00e-01,1.40e+01,
29,-8.00e-01,1.40e+01,
30,-7.60e-01,1.36e+01,
31,-7.60e-01,1.36e+01,
32,-7.60e-01,1.40e+01,
33,-7.60e-01,1.40e+01,
34,-7.20e-01,1.36e+01,
35,-7.20e-01,1.36e+01,
36,-6.80e-01,1.40e+01,
37,-6.80e-01,1.40e+01,
38,-6.80e-01,1.36e+01,
39,-6.80e-01,1.36e+01,
40,-6.80e-01,1.40e+01,
41,-6.80e-01,1.40e+01,
42,-6.40e-01,1.36e+01,
43,-6.40e-01,1.36e+01,
44,-6.00e-01,1.36e+01,
45,-6.00e-01,1.36e+01,
46,-6.00e-01,1.36e+01,
47,-6.00e-01,1.36e+01,
48,-6.00e-01,1.36e+01,
49,-6.00e-01,1.36e+01,
50,-5.20e-01,1.40e+01,
51,-5.20e-01,1.40e+01,
52,-5.20e-01,1.40e+01,
53,-5.20e-01,1.40e+01,
54,-4.80e-01,1.40e+01,
55,-4.80e-01,1.40e+01,
56,-4.80e-01,1.40e+01,
57,-4.80e-01,1.40e+01,
58,-4.40e-01,1.36e+01,
59,-4.40e-01,1.36e+01,
60,-4.80e-01,1.40e+01,
61,-4.80e-01,1.40e+01,
62,-4.40e-01,1.40e+01,
63,-4.40e-01,1.40e+01,
64,-4.40e-01,1.40e+01,
65,-4.40e-01,1.40e+01,
66,-4.00e-01,1.40e+01,
67,-4.00e-01,1.40e+01,
68,-3.60e-01,1.36e+01,
69,-3.60e-01,1.36e+01,
70,-3.20e-01,1.36e+01,
71,-3.20e-01,1.36e+01,
72,-3.20e-01,1.36e+01,
73,-3.20e-01,1.36e+01,
74,-2.80e-01,1.36e+01,
75,-2.80e-01,1.36e+01,
76,-2.80e-01,1.36e+01,
77,-2.80e-01,1.36e+01,
78,-2.40e-01,1.36e+01,
79,-2.40e-01,1.36e+01,
80,-2.40e-01,1.36e+01,
81,-2.40e-01,1.36e+01,
82,-1.60e-01,1.36e+01,
83,-1.60e-01,1.36e+01,
84,-2.00e-01,1.40e+01,
85,-2.00e-01,1.40e+01,
86,-1.60e-01,1.36e+01,
87,-1.60e-01,1.36e+01,
88,-1.20e-01,1.36e+01,
89,-1.20e-01,1.36e+01,
90,-1.20e-01,1.36e+01,
91,-1.20e-01,1.36e+01,
92,-4.00e-02,1.36e+01,
93,-4.00e-02,1.36e+01,
94,-4.00e-02,1.36e+01,
95,-4.00e-02,1.36e+01,
96,0.00e+00,1.36e+01,
97,0.00e+00,1.36e+01,
98,0.00e+00,1.36e+01,
99,0.00e+00,1.36e+01,
100,4.00e-02,1.36e+01,
101,4.00e-02,1.36e+01,
102,4.00e-02,1.36e+01,
103,4.00e-02,1.36e+01,
104,8.00e-02,1.36e+01,
105,8.00e-02,1.36e+01,
106,8.00e-02,1.32e+01,
107,8.00e-02,1.32e+01,
108,1.60e-01,1.32e+01,
109,1.60e-01,1.32e+01,
110,1.60e-01,1.32e+01,
111,1.60e-01,1.32e+01,
112,2.00e-01,1.28e+01,
113,2.00e-01,1.28e+01,
114,2.40e-01,1.28e+01,
115,2.40e-01,1.28e+01,
116,2.40e-01,1.20e+01,
117,2.40e-01,1.20e+01,
118,2.80e-01,1.24e+01,
119,2.80e-01,1.24e+01,
120,2.80e-01,1.16e+01,
121,2.80e-01,1.16e+01,
122,3.20e-01,1.16e+01,
123,3.20e-01,1.16e+01,
124,3.20e-01,1.12e+01,
125,3.20e-01,1.12e+01,
126,3.60e-01,1.08e+01,
127,3.60e-01,1.08e+01,
128,3.60e-01,1.04e+01,
129,3.60e-01,1.04e+01,
130,4.00e-01,1.00e+01,
131,4.00e-01,1.00e+01,
132,4.00e-01,9.60e+00,
133,4.00e-01,9.60e+00,
134,4.80e-01,8.80e+00,
135,4.80e-01,8.80e+00,
136,4.80e-01,8.80e+00,
137,4.80e-01,8.80e+00,
138,5.20e-01,8.00e+00,
139,5.20e-01,8.00e+00,
140,5.20e-01,7.60e+00,
141,5.20e-01,7.60e+00,
142,5.60e-01,6.80e+00,
143,5.60e-01,6.80e+00,
144,5.60e-01,6.40e+00,
145,5.60e-01,6.40e+00,
146,5.60e-01,6.00e+00,
147,5.60e-01,6.00e+00,
148,6.00e-01,5.20e+00,
149,6.00e-01,5.20e+00,
150,6.40e-01,4.00e+00,
151,6.40e-01,4.00e+00,
152,6.40e-01,3.60e+00,
153,6.40e-01,3.60e+00,
154,6.80e-01,2.80e+00,
155,6.80e-01,2.80e+00,
156,6.80e-01,2.00e+00,
157,6.80e-01,2.00e+00,
158,7.20e-01,1.20e+00,
159,7.20e-01,1.20e+00,
160,7.20e-01,4.00e-01,
161,7.20e-01,4.00e-01,
162,7.20e-01,0.00e+00,
163,7.20e-01,0.00e+00,
164,7.60e-01,-8.00e-01,
165,7.60e-01,-8.00e-01,
166,8.00e-01,-1.60e+00,
167,8.00e-01,-1.60e+00,
168,7.60e-01,-2.80e+00,
169,7.60e-01,-2.80e+00,
170,8.40e-01,-3.60e+00,
171,8.40e-01,-3.60e+00,
172,8.00e-01,-4.40e+00,
173,8.00e-01,-4.40e+00,
174,8.40e-01,-5.20e+00,
175,8.40e-01,-5.20e+00,
176,8.80e-01,-6.00e+00,
177,8.80e-01,-6.00e+00,
178,8.80e-01,-7.20e+00,
179,8.80e-01,-7.20e+00,
180,8.80e-01,-8.00e+00,
181,8.80e-01,-8.00e+00,
182,8.80e-01,-8.80e+00,
183,8.80e-01,-8.80e+00,
184,8.80e-01,-1.00e+01,
185,8.80e-01,-1.00e+01,
186,9.20e-01,-1.08e+01,
187,9.20e-01,-1.08e+01,
188,9.20e-01,-1.16e+01,
189,9.20e-01,-1.16e+01,
190,9.20e-01,-1.28e+01,
191,9.20e-01,-1.28e+01,
192,9.60e-01,-1.36e+01,
193,9.60e-01,-1.36e+01,
194,9.60e-01,-1.40e+01,
195,9.60e-01,-1.40e+01,
196,9.60e-01,-1.40e+01,
197,9.60e-01,-1.40e+01,
198,9.60e-01,-1.40e+01,
199,9.60e-01,-1.40e+01,
200,1.00e+00,-1.40e+01,
201,1.00e+00,-1.40e+01,
202,1.00e+00,-1.40e+01,
203,1.00e+00,-1.40e+01,
204,1.00e+00,-1.40e+01,
205,1.00e+00,-1.40e+01,
206,1.00e+00,-1.40e+01,
207,1.00e+00,-1.40e+01,
208,1.00e+00,-1.40e+01,
209,1.00e+00,-1.40e+01,
210,1.00e+00,-1.40e+01,
211,1.00e+00,-1.40e+01,
212,1.04e+00,-1.40e+01,
213,1.04e+00,-1.40e+01,
214,1.04e+00,-1.40e+01,
215,1.04e+00,-1.40e+01,
216,1.04e+00,-1.40e+01,
217,1.04e+00,-1.40e+01,
218,1.04e+00,-1.40e+01,
219,1.04e+00,-1.40e+01,
220,1.04e+00,-1.40e+01,
221,1.04e+00,-1.40e+01,
222,1.04e+00,-1.40e+01,
223,1.04e+00,-1.40e+01,
224,1.04e+00,-1.40e+01,
225,1.04e+00,-1.40e+01,
226,1.04e+00,-1.40e+01,
227,1.04e+00,-1.40e+01,
228,1.04e+00,-1.40e+01,
229,1.04e+00,-1.40e+01,
230,1.04e+00,-1.40e+01,
231,1.04e+00,-1.40e+01,
232,1.04e+00,-1.40e+01,
233,1.04e+00,-1.40e+01,
234,1.04e+00,-1.40e+01,
235,1.04e+00,-1.40e+01,
236,1.04e+00,-1.40e+01,
237,1.04e+00,-1.40e+01,
238,1.00e+00,-1.40e+01,
239,1.00e+00,-1.40e+01,
240,1.00e+00,-1.40e+01,
241,1.00e+00,-1.40e+01,
242,1.00e+00,-1.40e+01,
243,1.00e+00,-1.40e+01,
244,1.00e+00,-1.40e+01,
245,1.00e+00,-1.40e+01,
246,1.00e+00,-1.40e+01,
247,1.00e+00,-1.40e+01,
248,1.00e+00,-1.40e+01,
249,1.00e+00,-1.40e+01,
250,1.00e+00,-1.40e+01,
251,1.00e+00,-1.40e+01,
252,9.60e-01,-1.40e+01,
253,9.60e-01,-1.40e+01,
254,9.60e-01,-1.40e+01,
255,9.60e-01,-1.40e+01,
256,9.60e-01,-1.40e+01,
257,9.60e-01,-1.40e+01,
258,9.60e-01,-1.40e+01,
259,9.60e-01,-1.40e+01,
260,9.60e-01,-1.40e+01,
261,9.60e-01,-1.40e+01,
262,8.80e-01,-1.40e+01,
263,8.80e-01,-1.40e+01,
264,8.80e-01,-1.40e+01,
265,8.80e-01,-1.40e+01,
266,8.80e-01,-1.40e+01,
267,8.80e-01,-1.40e+01,
268,8.80e-01,-1.40e+01,
269,8.80e-01,-1.40e+01,
270,8.80e-01,-1.40e+01,
271,8.80e-01,-1.40e+01,
272,8.40e-01,-1.40e+01,
273,8.40e-01,-1.40e+01,
274,8.40e-01,-1.40e+01,
275,8.40e-01,-1.40e+01,
276,8.00e-01,-1.40e+01,
277,8.00e-01,-1.40e+01,
278,8.40e-01,-1.40e+01,
279,8.40e-01,-1.40e+01,
280,8.00e-01,-1.40e+01,
281,8.00e-01,-1.40e+01,
282,7.60e-01,-1.40e+01,
283,7.60e-01,-1.40e+01,
284,7.60e-01,-1.40e+01,
285,7.60e-01,-1.40e+01,
286,7.20e-01,-1.40e+01,
287,7.20e-01,-1.40e+01,
288,7.20e-01,-1.40e+01,
289,7.20e-01,-1.40e+01,
290,7.20e-01,-1.40e+01,
291,7.20e-01,-1.40e+01,
292,6.80e-01,-1.40e+01,
293,6.80e-01,-1.40e+01,
294,6.80e-01,-1.40e+01,
295,6.80e-01,-1.40e+01,
296,6.40e-01,-1.40e+01,
297,6.40e-01,-1.40e+01,
298,6.40e-01,-1.40e+01,
299,6.40e-01,-1.40e+01,
300,6.00e-01,-1.40e+01,
301,6.00e-01,-1.40e+01,
302,6.00e-01,-1.40e+01,
303,6.00e-01,-1.40e+01,
304,6.00e-01,-1.40e+01,
305,6.00e-01,-1.40e+01,
306,5.60e-01,-1.40e+01,
307,5.60e-01,-1.40e+01,
308,5.20e-01,-1.40e+01,
309,5.20e-01,-1.40e+01,
310,5.20e-01,-1.40e+01,
311,5.20e-01,-1.40e+01,
312,4.80e-01,-1.36e+01,
313,4.80e-01,-1.36e+01,
314,4.80e-01,-1.40e+01,
315,4.80e-01,-1.40e+01,
316,4.40e-01,-1.40e+01,
317,4.40e-01,-1.40e+01,
318,4.00e-01,-1.40e+01,
319,4.00e-01,-1.40e+01,
320,4.00e-01,-1.36e+01,
321,4.00e-01,-1.36e+01,
322,3.60e-01,-1.40e+01,
323,3.60e-01,-1.40e+01,
324,3.60e-01,-1.40e+01,
325,3.60e-01,-1.40e+01,
326,3.20e-01,-1.36e+01,
327,3.20e-01,-1.36e+01,
328,2.80e-01,-1.40e+01,
329,2.80e-01,-1.40e+01,
330,2.80e-01,-1.40e+01,
331,2.80e-01,-1.40e+01,
332,2.40e-01,-1.36e+01,
333,2.40e-01,-1.36e+01,
334,2.00e-01,-1.36e+01,
335,2.00e-01,-1.36e+01,
336,1.60e-01,-1.36e+01,
337,1.60e-01,-1.36e+01,
338,2.00e-01,-1.40e+01,
339,2.00e-01,-1.40e+01,
340,1.60e-01,-1.40e+01,
341,1.60e-01,-1.40e+01,
342,1.20e-01,-1.40e+01,
343,1.20e-01,-1.40e+01,
344,8.00e-02,-1.40e+01,
345,8.00e-02,-1.40e+01,
346,4.00e-02,-1.40e+01,
347,4.00e-02,-1.40e+01,
348,8.00e-02,-1.36e+01,
349,8.00e-02,-1.36e+01,
350,0.00e+00,-1.40e+01,
351,0.00e+00,-1.40e+01,
352,0.00e+00,-1.36e+01,
353,0.00e+00,-1.36e+01,
354,-4.00e-02,-1.36e+01,
355,-4.00e-02,-1.36e+01,
356,-4.00e-02,-1.36e+01,
357,-4.00e-02,-1.36e+01,
358,-1.20e-01,-1.36e+01,
359,-1.20e-01,-1.36e+01,
360,-1.20e-01,-1.36e+01,
361,-1.20e-01,-1.36e+01,
362,-1.20e-01,-1.32e+01,
363,-1.20e-01,-1.32e+01,
364,-1.60e-01,-1.28e+01,
365,-1.60e-01,-1.28e+01,
366,-1.60e-01,-1.24e+01,
367,-1.60e-01,-1.24e+01,
368,-2.40e-01,-1.24e+01,
369,-2.40e-01,-1.24e+01,
370,-2.40e-01,-1.20e+01,
371,-2.40e-01,-1.20e+01,
372,-2.80e-01,-1.16e+01,
373,-2.80e-01,-1.16e+01,
374,-2.80e-01,-1.12e+01,
375,-2.80e-01,-1.12e+01,
376,-3.20e-01,-1.08e+01,
377,-3.20e-01,-1.08e+01,
378,-3.20e-01,-1.08e+01,
379,-3.20e-01,-1.08e+01,
380,-3.60e-01,-1.00e+01,
381,-3.60e-01,-1.00e+01,
382,-3.60e-01,-9.60e+00,
383,-3.60e-01,-9.60e+00,
384,-4.00e-01,-9.20e+00,
385,-4.00e-01,-9.20e+00,
386,-4.00e-01,-8.80e+00,
387,-4.00e-01,-8.80e+00,
388,-4.40e-01,-8.00e+00,
389,-4.40e-01,-8.00e+00,
390,-4.40e-01,-7.60e+00,
391,-4.40e-01,-7.60e+00,
392,-4.80e-01,-6.80e+00,
393,-4.80e-01,-6.80e+00,
394,-5.20e-01,-6.40e+00,
395,-5.20e-01,-6.40e+00,
396,-5.60e-01,-5.60e+00,
397,-5.60e-01,-5.60e+00,
398,-5.60e-01,-5.20e+00,
399,-5.60e-01,-5.20e+00,
400,-5.60e-01,-4.40e+00,
401,-5.60e-01,-4.40e+00,
402,-6.00e-01,-3.60e+00,
403,-6.00e-01,-3.60e+00,
404,-6.00e-01,-2.80e+00,
405,-6.00e-01,-2.80e+00,
406,-6.40e-01,-2.00e+00,
407,-6.40e-01,-2.00e+00,
408,-6.40e-01,-1.20e+00,
409,-6.40e-01,-1.20e+00,
410,-6.80e-01,-8.00e-01,
411,-6.80e-01,-8.00e-01,
412,-6.80e-01,0.00e+00,
413,-6.80e-01,0.00e+00,
414,-6.80e-01,1.20e+00,
415,-6.80e-01,1.20e+00,
416,-7.60e-01,2.00e+00,
417,-7.60e-01,2.00e+00,
418,-7.60e-01,2.80e+00,
419,-7.60e-01,2.80e+00,
420,-7.60e-01,3.60e+00,
421,-7.60e-01,3.60e+00,
422,-7.60e-01,4.40e+00,
423,-7.60e-01,4.40e+00,
424,-7.60e-01,5.20e+00,
425,-7.60e-01,5.20e+00,
426,-8.00e-01,6.00e+00,
427,-8.00e-01,6.00e+00,
428,-8.00e-01,6.80e+00,
429,-8.00e-01,6.80e+00,
430,-8.00e-01,8.00e+00,
431,-8.00e-01,8.00e+00,
432,-8.40e-01,8.80e+00,
433,-8.40e-01,8.80e+00,
434,-8.80e-01,1.00e+01,
435,-8.80e-01,1.00e+01,
436,-8.40e-01,1.12e+01,
437,-8.40e-01,1.12e+01,
438,-8.40e-01,1.20e+01,
439,-8.40e-01,1.20e+01,
440,-8.80e-01,1.28e+01,
441,-8.80e-01,1.28e+01,
442,-9.20e-01,1.40e+01,
443,-9.20e-01,1.40e+01,
444,-9.20e-01,1.40e+01,
445,-9.20e-01,1.40e+01,
446,-9.20e-01,1.36e+01,
447,-9.20e-01,1.36e+01,
448,-9.20e-01,1.40e+01,
449,-9.20e-01,1.40e+01,
450,-9.20e-01,1.36e+01,
451,-9.20e-01,1.36e+01,
452,-9.60e-01,1.40e+01,
453,-9.60e-01,1.40e+01,
454,-9.60e-01,1.40e+01,
455,-9.60e-01,1.40e+01,
456,-9.60e-01,1.36e+01,
457,-9.60e-01,1.36e+01,
458,-9.60e-01,1.36e+01,
459,-9.60e-01,1.36e+01,
460,-9.60e-01,1.36e+01,
461,-9.60e-01,1.36e+01,
462,-9.60e-01,1.36e+01,
463,-9.60e-01,1.36e+01,
464,-9.60e-01,1.36e+01,
465,-9.60e-01,1.36e+01,
466,-9.60e-01,1.40e+01,
467,-9.60e-01,1.40e+01,
468,-9.60e-01,1.36e+01,
469,-9.60e-01,1.36e+01,
470,-1.00e+00,1.36e+01,
471,-1.00e+00,1.36e+01,
472,-9.60e-01,1.36e+01,
473,-9.60e-01,1.36e+01,
474,-1.00e+00,1.40e+01,
475,-1.00e+00,1.40e+01,
476,-1.00e+00,1.36e+01,
477,-1.00e+00,1.36e+01,
478,-1.00e+00,1.40e+01,
479,-1.00e+00,1.40e+01,
480,-9.60e-01,1.40e+01,
481,-9.60e-01,1.40e+01,
482,-9.60e-01,1.36e+01,
483,-9.60e-01,1.36e+01,
484,-9.60e-01,1.40e+01,
485,-9.60e-01,1.40e+01,
486,-9.60e-01,1.36e+01,
487,-9.60e-01,1.36e+01,
488,-9.60e-01,1.40e+01,
489,-9.60e-01,1.40e+01,
490,-9.60e-01,1.36e+01,
491,-9.60e-01,1.36e+01,
492,-9.60e-01,1.36e+01,
493,-9.60e-01,1.36e+01,
494,-9.60e-01,1.36e+01,
495,-9.60e-01,1.36e+01,
496,-9.60e-01,1.36e+01,
497,-9.60e-01,1.36e+01,
498,-9.20e-01,1.36e+01,
499,-9.20e-01,1.36e+01,
500,-9.20e-01,1.36e+01,
501,-9.20e-01,1.36e+01,
502,-9.20e-01,1.40e+01,
503,-9.20e-01,1.40e+01,
504,-9.20e-01,1.40e+01,
505,-9.20e-01,1.40e+01,
506,-9.20e-01,1.36e+01,
507,-9.20e-01,1.36e+01,
508,-8.80e-01,1.40e+01,
509,-8.80e-01,1.40e+01,
510,-8.80e-01,1.36e+01,
511,-8.80e-01,1.36e+01,
512,-8.80e-01,1.36e+01,
513,-8.80e-01,1.36e+01,
514,-8.80e-01,1.36e+01,
515,-8.80e-01,1.36e+01,
516,-8.40e-01,1.40e+01,
517,-8.40e-01,1.40e+01,
518,-8.40e-01,1.40e+01,
519,-8.40e-01,1.40e+01,
520,-8.40e-01,1.40e+01,
521,-8.40e-01,1.40e+01,
522,-8.40e-01,1.36e+01,
523,-8.40e-01,1.36e+01,
524,-8.00e-01,1.40e+01,
525,-8.00e-01,1.40e+01,
526,-7.60e-01,1.36e+01,
527,-7.60e-01,1.36e+01,
528,-8.00e-01,1.36e+01,
529,-8.00e-01,1.36e+01,
530,-7.60e-01,1.36e+01,
531,-7.60e-01,1.36e+01,
532,-7.60e-01,1.40e+01,
533,-7.60e-01,1.40e+01,
534,-7.20e-01,1.36e+01,
535,-7.20e-01,1.36e+01,
536,-7.20e-01,1.40e+01,
537,-7.20e-01,1.40e+01,
538,-7.20e-01,1.36e+01,
539,-7.20e-01,1.36e+01,
540,-6.80e-01,1.40e+01,
541,-6.80e-01,1.40e+01,
542,-6.80e-01,1.36e+01,
543,-6.80e-01,1.36e+01,
544,-6.40e-01,1.36e+01,
545,-6.40e-01,1.36e+01,
546,-6.00e-01,1.36e+01,
547,-6.00e-01,1.36e+01,
548,-6.00e-01,1.36e+01,
549,-6.00e-01,1.36e+01,
550,-5.60e-01,1.36e+01,
551,-5.60e-01,1.36e+01,
552,-5.60e-01,1.36e+01,
553,-5.60e-01,1.36e+01,
554,-5.20e-01,1.40e+01,
555,-5.20e-01,1.40e+01,
556,-5.20e-01,1.40e+01,
557,-5.20e-01,1.40e+01,
558,-4.80e-01,1.36e+01,
559,-4.80e-01,1.36e+01,
560,-4.40e-01,1.36e+01,
561,-4.40e-01,1.36e+01,
562,-4.40e-01,1.36e+01,
563,-4.40e-01,1.36e+01,
564,-4.40e-01,1.36e+01,
565,-4.40e-01,1.36e+01,
566,-3.60e-01,1.36e+01,
567,-3.60e-01,1.36e+01,
568,-3.60e-01,1.36e+01,
569,-3.60e-01,1.36e+01,
570,-3.20e-01,1.40e+01,
571,-3.20e-01,1.40e+01,
572,-3.20e-01,1.40e+01,
573,-3.20e-01,1.40e+01,
574,-2.80e-01,1.40e+01,
575,-2.80e-01,1.40e+01,
576,-2.80e-01,1.40e+01,
577,-2.80e-01,1.40e+01,
578,-2.40e-01,1.36e+01,
579,-2.40e-01,1.36e+01,
580,-2.40e-01,1.36e+01,
581,-2.40e-01,1.36e+01,
582,-2.00e-01,1.36e+01,
583,-2.00e-01,1.36e+01,
584,-2.00e-01,1.40e+01,
585,-2.00e-01,1.40e+01,
586,-1.20e-01,1.40e+01,
587,-1.20e-01,1.40e+01,
588,-1.20e-01,1.36e+01,
589,-1.20e-01,1.36e+01,
590,-8.00e-02,1.36e+01,
591,-8.00e-02,1.36e+01,
592,-8.00e-02,1.36e+01,
593,-8.00e-02,1.36e+01,
594,-4.00e-02,1.40e+01,
595,-4.00e-02,1.40e+01,
596,0.00e+00,1.36e+01,
597,0.00e+00,1.36e+01,
598,0.00e+00,1.40e+01,
599,0.00e+00,1.40e+01,
600,4.00e-02,1.40e+01,
601,4.00e-02,1.40e+01,
602,4.00e-02,1.40e+01,
603,4.00e-02,1.40e+01,
604,8.00e-02,1.36e+01,
605,8.00e-02,1.36e+01,
606,8.00e-02,1.32e+01,
607,8.00e-02,1.32e+01,
608,1.20e-01,1.32e+01,
609,1.20e-01,1.32e+01,
610,1.60e-01,1.32e+01,
611,1.60e-01,1.32e+01,
612,1.60e-01,1.28e+01,
613,1.60e-01,1.28e+01,
614,2.00e-01,1.28e+01,
615,2.00e-01,1.28e+01,
616,2.40e-01,1.24e+01,
617,2.40e-01,1.24e+01,
618,2.80e-01,1.24e+01,
619,2.80e-01,1.24e+01,
620,2.40e-01,1.20e+01,
621,2.40e-01,1.20e+01,
622,3.20e-01,1.12e+01,
623,3.20e-01,1.12e+01,
624,3.20e-01,1.16e+01,
625,3.20e-01,1.16e+01,
626,3.60e-01,1.08e+01,
627,3.60e-01,1.08e+01,
628,3.60e-01,1.04e+01,
629,3.60e-01,1.04e+01,
630,4.00e-01,1.00e+01,
631,4.00e-01,1.00e+01,
632,4.00e-01,9.60e+00,
633,4.00e-01,9.60e+00,
634,4.40e-01,9.20e+00,
635,4.40e-01,9.20e+00,
636,4.80e-01,8.80e+00,
637,4.80e-01,8.80e+00,
638,4.80e-01,8.40e+00,
639,4.80e-01,8.40e+00,
640,5.20e-01,7.60e+00,
641,5.20e-01,7.60e+00,
642,5.60e-01,6.80e+00,
643,5.60e-01,6.80e+00,
644,5.60e-01,6.00e+00,
645,5.60e-01,6.00e+00,
646,6.00e-01,5.60e+00,
647,6.00e-01,5.60e+00,
648,6.00e-01,5.20e+00,
649,6.00e-01,5.20e+00,
650,6.40e-01,4.00e+00,
651,6.40e-01,4.00e+00,
652,6.40e-01,3.60e+00,
653,6.40e-01,3.60e+00,
654,6.80e-01,2.80e+00,
655,6.80e-01,2.80e+00,
656,6.80e-01,2.40e+00,
657,6.80e-01,2.40e+00,
658,7.20e-01,1.60e+00,
659,7.20e-01,1.60e+00,
660,7.20e-01,4.00e-01,
661,7.20e-01,4.00e-01,
662,7.20e-01,0.00e+00,
663,7.20e-01,0.00e+00,
664,7.60e-01,-8.00e-01,
665,7.60e-01,-8.00e-01,
666,8.00e-01,-2.00e+00,
667,8.00e-01,-2.00e+00,
668,8.00e-01,-2.80e+00,
669,8.00e-01,-2.80e+00,
670,8.00e-01,-3.60e+00,
671,8.00e-01,-3.60e+00,
672,8.40e-01,-4.40e+00,
673,8.40e-01,-4.40e+00,
674,8.40e-01,-5.20e+00,
675,8.40e-01,-5.20e+00,
676,8.80e-01,-6.00e+00,
677,8.80e-01,-6.00e+00,
678,8.80e-01,-6.80e+00,
679,8.80e-01,-6.80e+00,
680,8.80e-01,-8.00e+00,
681,8.80e-01,-8.00e+00,
682,9.20e-01,-8.80e+00,
683,9.20e-01,-8.80e+00,
684,8.80e-01,-1.00e+01,
685,8.80e-01,-1.00e+01,
686,8.80e-01,-1.08e+01,
687,8.80e-01,-1.08e+01,
688,9.20e-01,-1.20e+01,
689,9.20e-01,-1.20e+01,
690,9.20e-01,-1.28e+01,
691,9.20e-01,-1.28e+01,
692,9.20e-01,-1.36e+01,
693,9.20e-01,-1.36e+01,
694,9.20e-01,-1.40e+01,
695,9.20e-01,-1.40e+01,
696,9.20e-01,-1.40e+01,
697,9.20e-01,-1.40e+01,
698,1.00e+00,-1.40e+01,
699,1.00e+00,-1.40e+01,
700,1.00e+00,-1.40e+01,
701,1.00e+00,-1.40e+01,
702,1.00e+00,-1.40e+01,
703,1.00e+00,-1.40e+01,
704,1.00e+00,-1.40e+01,
705,1.00e+00,-1.40e+01,
706,1.00e+00,-1.40e+01,
707,1.00e+00,-1.40e+01,
708,1.00e+00,-1.40e+01,
709,1.00e+00,-1.40e+01,
710,1.00e+00,-1.40e+01,
711,1.00e+00,-1.40e+01,
712,1.00e+00,-1.40e+01,
713,1.00e+00,-1.40e+01,
714,1.00e+00,-1.40e+01,
715,1.00e+00,-1.40e+01,
716,1.04e+00,-1.40e+01,
717,1.04e+00,-1.40e+01,
718,1.04e+00,-1.40e+01,
719,1.04e+00,-1.40e+01,
720,1.04e+00,-1.40e+01,
721,1.04e+00,-1.40e+01,
722,1.04e+00,-1.40e+01,
723,1.04e+00,-1.40e+01,
724,1.04e+00,-1.40e+01,
725,1.04e+00,-1.40e+01,
726,1.04e+00,-1.40e+01,
727,1.04e+00,-1.40e+01,
728,1.04e+00,-1.40e+01,
729,1.04e+00,-1.40e+01,
730,1.04e+00,-1.40e+01,
731,1.04e+00,-1.40e+01,
732,1.04e+00,-1.40e+01,
733,1.04e+00,-1.40e+01,
734,1.04e+00,-1.40e+01,
735,1.04e+00,-1.40e+01,
736,1.04e+00,-1.40e+01,
737,1.04e+00,-1.40e+01,
738,1.00e+00,-1.40e+01,
739,1.00e+00,-1.40e+01,
740,1.04e+00,-1.40e+01,
741,1.04e+00,-1.40e+01,
742,1.00e+00,-1.40e+01,
743,1.00e+00,-1.40e+01,
744,1.00e+00,-1.40e+01,
745,1.00e+00,-1.40e+01,
746,1.00e+00,-1.40e+01,
747,1.00e+00,-1.40e+01,
748,1.00e+00,-1.40e+01,
749,1.00e+00,-1.40e+01,
750,1.00e+00,-1.40e+01,
751,1.00e+00,-1.40e+01,
752,9.60e-01,-1.40e+01,
753,9.60e-01,-1.40e+01,
754,9.60e-01,-1.40e+01,
755,9.60e-01,-1.40e+01,
756,9.60e-01,-1.40e+01,
757,9.60e-01,-1.40e+01,
758,9.60e-01,-1.40e+01,
759,9.60e-01,-1.40e+01,
760,9.60e-01,-1.40e+01,
761,9.60e-01,-1.40e+01,
762,9.20e-01,-1.40e+01,
763,9.20e-01,-1.40e+01,
764,9.20e-01,-1.40e+01,
765,9.20e-01,-1.40e+01,
766,8.80e-01,-1.40e+01,
767,8.80e-01,-1.40e+01,
768,8.80e-01,-1.40e+01,
769,8.80e-01,-1.40e+01,
770,8.80e-01,-1.40e+01,
771,8.80e-01,-1.40e+01,
772,8.80e-01,-1.40e+01,
773,8.80e-01,-1.40e+01,
774,8.40e-01,-1.40e+01,
775,8.40e-01,-1.40e+01,
776,8.40e-01,-1.40e+01,
777,8.40e-01,-1.40e+01,
778,8.40e-01,-1.40e+01,
779,8.40e-01,-1.40e+01,
780,8.00e-01,-1.40e+01,
781,8.00e-01,-1.40e+01,
782,8.00e-01,-1.40e+01,
783,8.00e-01,-1.40e+01,
784,8.00e-01,-1.40e+01,
785,8.00e-01,-1.40e+01,
786,7.20e-01,-1.40e+01,
787,7.20e-01,-1.40e+01,
788,7.20e-01,-1.40e+01,
789,7.20e-01,-1.40e+01,
790,7.20e-01,-1.40e+01,
791,7.20e-01,-1.40e+01,
792,6.80e-01,-1.40e+01,
793,6.80e-01,-1.40e+01,
794,6.80e-01,-1.40e+01,
795,6.80e-01,-1.40e+01,
796,6.40e-01,-1.40e+01,
797,6.40e-01,-1.40e+01,
798,6.40e-01,-1.40e+01,
799,6.40e-01,-1.40e+01,
800,6.40e-01,-1.40e+01,
801,6.40e-01,-1.40e+01,
802,6.00e-01,-1.40e+01,
803,6.00e-01,-1.40e+01,
804,5.60e-01,-1.40e+01,
805,5.60e-01,-1.40e+01,
806,5.60e-01,-1.40e+01,
807,5.60e-01,-1.40e+01,
808,5.20e-01,-1.40e+01,
809,5.20e-01,-1.40e+01,
810,4.80e-01,-1.40e+01,
811,4.80e-01,-1.40e+01,
812,4.80e-01,-1.40e+01,
813,4.80e-01,-1.40e+01,
814,4.80e-01,-1.40e+01,
815,4.80e-01,-1.40e+01,
816,4.40e-01,-1.40e+01,
817,4.40e-01,-1.40e+01,
818,4.40e-01,-1.40e+01,
819,4.40e-01,-1.40e+01,
820,4.00e-01,-1.40e+01,
821,4.00e-01,-1.40e+01,
822,3.60e-01,-1.40e+01,
823,3.60e-01,-1.40e+01,
824,3.60e-01,-1.40e+01,
825,3.60e-01,-1.40e+01,
826,3.20e-01,-1.40e+01,
827,3.20e-01,-1.40e+01,
828,2.80e-01,-1.40e+01,
829,2.80e-01,-1.40e+01,
830,2.80e-01,-1.40e+01,
831,2.80e-01,-1.40e+01,
832,2.40e-01,-1.36e+01,
833,2.40e-01,-1.36e+01,
834,2.40e-01,-1.36e+01,
835,2.40e-01,-1.36e+01,
836,1.60e-01,-1.36e+01,
837,1.60e-01,-1.36e+01,
