Versuch1/rawData/NewFile1ninv250.csv

X,CH1,CH2,Start,Increment,
Sequence,Volt,Volt,-1.200000e-02,2.000000e-05
0,-2.40e-01,-2.64e+00,
1,-2.40e-01,-2.64e+00,
2,-2.40e-01,-2.64e+00,
3,-2.40e-01,-2.64e+00,
4,-2.40e-01,-2.64e+00,
5,-2.40e-01,-2.64e+00,
6,-2.40e-01,-2.56e+00,
7,-2.40e-01,-2.56e+00,
8,-2.32e-01,-2.56e+00,
9,-2.32e-01,-2.56e+00,
10,-2.32e-01,-2.56e+00,
11,-2.32e-01,-2.56e+00,
12,-2.32e-01,-2.48e+00,
13,-2.32e-01,-2.48e+00,
14,-2.24e-01,-2.48e+00,
15,-2.24e-01,-2.48e+00,
16,-2.24e-01,-2.48e+00,
17,-2.24e-01,-2.48e+00,
18,-2.24e-01,-2.32e+00,
19,-2.24e-01,-2.32e+00,
20,-2.16e-01,-2.32e+00,
21,-2.16e-01,-2.32e+00,
22,-2.16e-01,-2.32e+00,
23,-2.16e-01,-2.32e+00,
24,-2.08e-01,-2.24e+00,
25,-2.08e-01,-2.24e+00,
26,-2.00e-01,-2.24e+00,
27,-2.00e-01,-2.24e+00,
28,-2.08e-01,-2.16e+00,
29,-2.08e-01,-2.16e+00,
30,-2.00e-01,-2.16e+00,
31,-2.00e-01,-2.16e+00,
32,-1.92e-01,-2.08e+00,
33,-1.92e-01,-2.08e+00,
34,-1.84e-01,-2.08e+00,
35,-1.84e-01,-2.08e+00,
36,-1.84e-01,-1.92e+00,
37,-1.84e-01,-1.92e+00,
38,-1.76e-01,-1.92e+00,
39,-1.76e-01,-1.92e+00,
40,-1.76e-01,-1.92e+00,
41,-1.76e-01,-1.92e+00,
42,-1.68e-01,-1.84e+00,
43,-1.68e-01,-1.84e+00,
44,-1.68e-01,-1.84e+00,
45,-1.68e-01,-1.84e+00,
46,-1.60e-01,-1.76e+00,
47,-1.60e-01,-1.76e+00,
48,-1.60e-01,-1.68e+00,
49,-1.60e-01,-1.68e+00,
50,-1.52e-01,-1.60e+00,
51,-1.52e-01,-1.60e+00,
52,-1.52e-01,-1.60e+00,
53,-1.52e-01,-1.60e+00,
54,-1.44e-01,-1.52e+00,
55,-1.44e-01,-1.52e+00,
56,-1.36e-01,-1.44e+00,
57,-1.36e-01,-1.44e+00,
58,-1.36e-01,-1.36e+00,
59,-1.36e-01,-1.36e+00,
60,-1.20e-01,-1.36e+00,
61,-1.20e-01,-1.36e+00,
62,-1.20e-01,-1.28e+00,
63,-1.20e-01,-1.28e+00,
64,-1.12e-01,-1.20e+00,
65,-1.12e-01,-1.20e+00,
66,-1.12e-01,-1.12e+00,
67,-1.12e-01,-1.12e+00,
68,-1.04e-01,-1.12e+00,
69,-1.04e-01,-1.12e+00,
70,-9.60e-02,-1.04e+00,
71,-9.60e-02,-1.04e+00,
72,-9.60e-02,-9.60e-01,
73,-9.60e-02,-9.60e-01,
74,-8.80e-02,-8.80e-01,
75,-8.80e-02,-8.80e-01,
76,-8.00e-02,-8.00e-01,
77,-8.00e-02,-8.00e-01,
78,-7.20e-02,-7.20e-01,
79,-7.20e-02,-7.20e-01,
80,-6.40e-02,-7.20e-01,
81,-6.40e-02,-7.20e-01,
82,-5.60e-02,-6.40e-01,
83,-5.60e-02,-6.40e-01,
84,-5.60e-02,-5.60e-01,
85,-5.60e-02,-5.60e-01,
86,-4.80e-02,-4.80e-01,
87,-4.80e-02,-4.80e-01,
88,-4.00e-02,-4.00e-01,
89,-4.00e-02,-4.00e-01,
90,-4.00e-02,-3.20e-01,
91,-4.00e-02,-3.20e-01,
92,-2.40e-02,-3.20e-01,
93,-2.40e-02,-3.20e-01,
94,-1.60e-02,-2.40e-01,
95,-1.60e-02,-2.40e-01,
96,-1.60e-02,-1.60e-01,
97,-1.60e-02,-1.60e-01,
98,-8.00e-03,-8.00e-02,
99,-8.00e-03,-8.00e-02,
100,0.00e+00,0.00e+00,
101,0.00e+00,0.00e+00,
102,0.00e+00,8.00e-02,
103,0.00e+00,8.00e-02,
104,8.00e-03,1.60e-01,
105,8.00e-03,1.60e-01,
106,1.60e-02,1.60e-01,
107,1.60e-02,1.60e-01,
108,1.60e-02,2.40e-01,
109,1.60e-02,2.40e-01,
110,2.40e-02,3.20e-01,
111,2.40e-02,3.20e-01,
112,4.00e-02,4.00e-01,
113,4.00e-02,4.00e-01,
114,4.00e-02,4.80e-01,
115,4.00e-02,4.80e-01,
116,4.80e-02,5.60e-01,
117,4.80e-02,5.60e-01,
118,5.60e-02,5.60e-01,
119,5.60e-02,5.60e-01,
120,6.40e-02,7.20e-01,
121,6.40e-02,7.20e-01,
122,6.40e-02,7.20e-01,
123,6.40e-02,7.20e-01,
124,7.20e-02,8.00e-01,
125,7.20e-02,8.00e-01,
126,7.20e-02,8.80e-01,
127,7.20e-02,8.80e-01,
128,8.00e-02,8.80e-01,
129,8.00e-02,8.80e-01,
130,8.80e-02,9.60e-01,
131,8.80e-02,9.60e-01,
132,8.80e-02,1.04e+00,
133,8.80e-02,1.04e+00,
134,1.04e-01,1.12e+00,
135,1.04e-01,1.12e+00,
136,1.04e-01,1.20e+00,
137,1.04e-01,1.20e+00,
138,1.12e-01,1.28e+00,
139,1.12e-01,1.28e+00,
140,1.20e-01,1.28e+00,
141,1.20e-01,1.28e+00,
142,1.20e-01,1.36e+00,
143,1.20e-01,1.36e+00,
144,1.28e-01,1.44e+00,
145,1.28e-01,1.44e+00,
146,1.28e-01,1.44e+00,
147,1.28e-01,1.44e+00,
148,1.44e-01,1.60e+00,
149,1.44e-01,1.60e+00,
150,1.44e-01,1.60e+00,
151,1.44e-01,1.60e+00,
152,1.52e-01,1.68e+00,
153,1.52e-01,1.68e+00,
154,1.60e-01,1.76e+00,
155,1.60e-01,1.76e+00,
156,1.60e-01,1.76e+00,
157,1.60e-01,1.76e+00,
158,1.68e-01,1.84e+00,
159,1.68e-01,1.84e+00,
160,1.68e-01,1.84e+00,
161,1.68e-01,1.84e+00,
162,1.76e-01,1.92e+00,
163,1.76e-01,1.92e+00,
164,1.84e-01,1.92e+00,
165,1.84e-01,1.92e+00,
166,1.76e-01,2.00e+00,
167,1.76e-01,2.00e+00,
168,1.92e-01,2.08e+00,
169,1.92e-01,2.08e+00,
170,1.92e-01,2.08e+00,
171,1.92e-01,2.08e+00,
172,2.00e-01,2.08e+00,
173,2.00e-01,2.08e+00,
174,2.00e-01,2.16e+00,
175,2.00e-01,2.16e+00,
176,2.08e-01,2.16e+00,
177,2.08e-01,2.16e+00,
178,2.08e-01,2.32e+00,
179,2.08e-01,2.32e+00,
180,2.08e-01,2.32e+00,
181,2.08e-01,2.32e+00,
182,2.16e-01,2.32e+00,
183,2.16e-01,2.32e+00,
184,2.16e-01,2.40e+00,
185,2.16e-01,2.40e+00,
186,2.16e-01,2.40e+00,
187,2.16e-01,2.40e+00,
188,2.24e-01,2.40e+00,
189,2.24e-01,2.40e+00,
190,2.24e-01,2.40e+00,
191,2.24e-01,2.40e+00,
192,2.32e-01,2.48e+00,
193,2.32e-01,2.48e+00,
194,2.24e-01,2.56e+00,
195,2.24e-01,2.56e+00,
196,2.40e-01,2.56e+00,
197,2.40e-01,2.56e+00,
198,2.40e-01,2.56e+00,
199,2.40e-01,2.56e+00,
200,2.32e-01,2.56e+00,
201,2.32e-01,2.56e+00,
202,2.32e-01,2.64e+00,
203,2.32e-01,2.64e+00,
204,2.40e-01,2.64e+00,
205,2.40e-01,2.64e+00,
206,2.40e-01,2.64e+00,
207,2.40e-01,2.64e+00,
208,2.40e-01,2.64e+00,
209,2.40e-01,2.64e+00,
210,2.40e-01,2.72e+00,
211,2.40e-01,2.72e+00,
212,2.40e-01,2.72e+00,
213,2.40e-01,2.72e+00,
214,2.40e-01,2.72e+00,
215,2.40e-01,2.72e+00,
216,2.48e-01,2.72e+00,
217,2.48e-01,2.72e+00,
218,2.48e-01,2.80e+00,
219,2.48e-01,2.80e+00,
220,2.40e-01,2.72e+00,
221,2.40e-01,2.72e+00,
222,2.40e-01,2.72e+00,
223,2.40e-01,2.72e+00,
224,2.48e-01,2.72e+00,
225,2.48e-01,2.72e+00,
226,2.40e-01,2.72e+00,
227,2.40e-01,2.72e+00,
228,2.40e-01,2.72e+00,
229,2.40e-01,2.72e+00,
230,2.48e-01,2.72e+00,
231,2.48e-01,2.72e+00,
232,2.48e-01,2.72e+00,
233,2.48e-01,2.72e+00,
234,2.40e-01,2.72e+00,
235,2.40e-01,2.72e+00,
236,2.48e-01,2.72e+00,
237,2.48e-01,2.72e+00,
238,2.48e-01,2.64e+00,
239,2.48e-01,2.64e+00,
240,2.40e-01,2.64e+00,
241,2.40e-01,2.64e+00,
242,2.40e-01,2.64e+00,
243,2.40e-01,2.64e+00,
244,2.40e-01,2.64e+00,
245,2.40e-01,2.64e+00,
246,2.40e-01,2.64e+00,
247,2.40e-01,2.64e+00,
248,2.32e-01,2.64e+00,
249,2.32e-01,2.64e+00,
250,2.32e-01,2.56e+00,
251,2.32e-01,2.56e+00,
252,2.32e-01,2.56e+00,
253,2.32e-01,2.56e+00,
254,2.24e-01,2.56e+00,
255,2.24e-01,2.56e+00,
256,2.24e-01,2.56e+00,
257,2.24e-01,2.56e+00,
258,2.24e-01,2.48e+00,
259,2.24e-01,2.48e+00,
260,2.24e-01,2.48e+00,
261,2.24e-01,2.48e+00,
262,2.24e-01,2.48e+00,
263,2.24e-01,2.48e+00,
264,2.16e-01,2.32e+00,
265,2.16e-01,2.32e+00,
266,2.16e-01,2.40e+00,
267,2.16e-01,2.40e+00,
268,2.08e-01,2.32e+00,
269,2.08e-01,2.32e+00,
270,2.08e-01,2.24e+00,
271,2.08e-01,2.24e+00,
272,2.08e-01,2.24e+00,
273,2.08e-01,2.24e+00,
274,2.00e-01,2.16e+00,
275,2.00e-01,2.16e+00,
276,2.00e-01,2.16e+00,
277,2.00e-01,2.16e+00,
278,1.92e-01,2.16e+00,
279,1.92e-01,2.16e+00,
280,1.92e-01,2.16e+00,
281,1.92e-01,2.16e+00,
282,1.84e-01,2.00e+00,
283,1.84e-01,2.00e+00,
284,1.76e-01,2.00e+00,
285,1.76e-01,2.00e+00,
286,1.76e-01,1.92e+00,
287,1.76e-01,1.92e+00,
288,1.76e-01,1.92e+00,
289,1.76e-01,1.92e+00,
290,1.68e-01,1.84e+00,
291,1.68e-01,1.84e+00,
292,1.60e-01,1.84e+00,
293,1.60e-01,1.84e+00,
294,1.60e-01,1.76e+00,
295,1.60e-01,1.76e+00,
296,1.52e-01,1.68e+00,
297,1.52e-01,1.68e+00,
298,1.44e-01,1.68e+00,
299,1.44e-01,1.68e+00,
300,1.44e-01,1.60e+00,
301,1.44e-01,1.60e+00,
302,1.36e-01,1.52e+00,
303,1.36e-01,1.52e+00,
304,1.36e-01,1.52e+00,
305,1.36e-01,1.52e+00,
306,1.28e-01,1.44e+00,
307,1.28e-01,1.44e+00,
308,1.20e-01,1.36e+00,
309,1.20e-01,1.36e+00,
310,1.12e-01,1.28e+00,
311,1.12e-01,1.28e+00,
312,1.12e-01,1.20e+00,
313,1.12e-01,1.20e+00,
314,1.04e-01,1.20e+00,
315,1.04e-01,1.20e+00,
316,9.60e-02,1.12e+00,
317,9.60e-02,1.12e+00,
318,9.60e-02,1.04e+00,
319,9.60e-02,1.04e+00,
320,8.80e-02,9.60e-01,
321,8.80e-02,9.60e-01,
322,8.00e-02,9.60e-01,
323,8.00e-02,9.60e-01,
324,8.00e-02,8.80e-01,
325,8.00e-02,8.80e-01,
326,6.40e-02,8.00e-01,
327,6.40e-02,8.00e-01,
328,6.40e-02,7.20e-01,
329,6.40e-02,7.20e-01,
330,5.60e-02,6.40e-01,
331,5.60e-02,6.40e-01,
332,4.80e-02,5.60e-01,
333,4.80e-02,5.60e-01,
334,4.00e-02,4.80e-01,
335,4.00e-02,4.80e-01,
336,4.00e-02,4.80e-01,
337,4.00e-02,4.80e-01,
338,3.20e-02,4.00e-01,
339,3.20e-02,4.00e-01,
340,2.40e-02,3.20e-01,
341,2.40e-02,3.20e-01,
342,2.40e-02,2.40e-01,
343,2.40e-02,2.40e-01,
344,8.00e-03,2.40e-01,
345,8.00e-03,2.40e-01,
346,8.00e-03,8.00e-02,
347,8.00e-03,8.00e-02,
348,8.00e-03,0.00e+00,
349,8.00e-03,0.00e+00,
350,-8.00e-03,-8.00e-02,
351,-8.00e-03,-8.00e-02,
352,-1.60e-02,-1.60e-01,
353,-1.60e-02,-1.60e-01,
354,-1.60e-02,-1.60e-01,
355,-1.60e-02,-1.60e-01,
356,-3.20e-02,-2.40e-01,
357,-3.20e-02,-2.40e-01,
358,-3.20e-02,-3.20e-01,
359,-3.20e-02,-3.20e-01,
360,-4.00e-02,-4.00e-01,
361,-4.00e-02,-4.00e-01,
362,-4.80e-02,-4.80e-01,
363,-4.80e-02,-4.80e-01,
364,-5.60e-02,-5.60e-01,
365,-5.60e-02,-5.60e-01,
366,-5.60e-02,-6.40e-01,
367,-5.60e-02,-6.40e-01,
368,-6.40e-02,-6.40e-01,
369,-6.40e-02,-6.40e-01,
370,-7.20e-02,-7.20e-01,
371,-7.20e-02,-7.20e-01,
372,-8.00e-02,-8.00e-01,
373,-8.00e-02,-8.00e-01,
374,-8.00e-02,-8.80e-01,
375,-8.00e-02,-8.80e-01,
376,-8.80e-02,-8.80e-01,
377,-8.80e-02,-8.80e-01,
378,-9.60e-02,-9.60e-01,
379,-9.60e-02,-9.60e-01,
380,-1.04e-01,-1.04e+00,
381,-1.04e-01,-1.04e+00,
382,-1.04e-01,-1.04e+00,
383,-1.04e-01,-1.04e+00,
384,-1.12e-01,-1.20e+00,
385,-1.12e-01,-1.20e+00,
386,-1.20e-01,-1.28e+00,
387,-1.20e-01,-1.28e+00,
388,-1.20e-01,-1.28e+00,
389,-1.20e-01,-1.28e+00,
390,-1.28e-01,-1.36e+00,
391,-1.28e-01,-1.36e+00,
392,-1.36e-01,-1.44e+00,
393,-1.36e-01,-1.44e+00,
394,-1.36e-01,-1.52e+00,
395,-1.36e-01,-1.52e+00,
396,-1.44e-01,-1.52e+00,
397,-1.44e-01,-1.52e+00,
398,-1.52e-01,-1.60e+00,
399,-1.52e-01,-1.60e+00,
400,-1.52e-01,-1.60e+00,
401,-1.52e-01,-1.60e+00,
402,-1.60e-01,-1.68e+00,
403,-1.60e-01,-1.68e+00,
404,-1.68e-01,-1.76e+00,
405,-1.68e-01,-1.76e+00,
406,-1.68e-01,-1.76e+00,
407,-1.68e-01,-1.76e+00,
408,-1.76e-01,-1.92e+00,
409,-1.76e-01,-1.92e+00,
410,-1.76e-01,-1.84e+00,
411,-1.76e-01,-1.84e+00,
412,-1.84e-01,-1.92e+00,
413,-1.84e-01,-1.92e+00,
414,-1.84e-01,-2.00e+00,
415,-1.84e-01,-2.00e+00,
416,-1.92e-01,-2.00e+00,
417,-1.92e-01,-2.00e+00,
418,-1.92e-01,-2.08e+00,
419,-1.92e-01,-2.08e+00,
420,-2.00e-01,-2.16e+00,
421,-2.00e-01,-2.16e+00,
422,-2.00e-01,-2.24e+00,
423,-2.00e-01,-2.24e+00,
424,-2.08e-01,-2.24e+00,
425,-2.08e-01,-2.24e+00,
426,-2.08e-01,-2.32e+00,
427,-2.08e-01,-2.32e+00,
428,-2.16e-01,-2.32e+00,
429,-2.16e-01,-2.32e+00,
430,-2.24e-01,-2.40e+00,
431,-2.24e-01,-2.40e+00,
432,-2.24e-01,-2.40e+00,
433,-2.24e-01,-2.40e+00,
434,-2.24e-01,-2.40e+00,
435,-2.24e-01,-2.40e+00,
436,-2.32e-01,-2.48e+00,
437,-2.32e-01,-2.48e+00,
438,-2.32e-01,-2.48e+00,
439,-2.32e-01,-2.48e+00,
440,-2.32e-01,-2.56e+00,
441,-2.32e-01,-2.56e+00,
442,-2.40e-01,-2.56e+00,
443,-2.40e-01,-2.56e+00,
444,-2.40e-01,-2.56e+00,
445,-2.40e-01,-2.56e+00,
446,-2.40e-01,-2.64e+00,
447,-2.40e-01,-2.64e+00,
448,-2.40e-01,-2.64e+00,
449,-2.40e-01,-2.64e+00,
450,-2.48e-01,-2.64e+00,
451,-2.48e-01,-2.64e+00,
452,-2.56e-01,-2.64e+00,
453,-2.56e-01,-2.64e+00,
454,-2.56e-01,-2.72e+00,
455,-2.56e-01,-2.72e+00,
456,-2.48e-01,-2.72e+00,
457,-2.48e-01,-2.72e+00,
458,-2.48e-01,-2.72e+00,
459,-2.48e-01,-2.72e+00,
460,-2.56e-01,-2.72e+00,
461,-2.56e-01,-2.72e+00,
462,-2.56e-01,-2.72e+00,
463,-2.56e-01,-2.72e+00,
464,-2.56e-01,-2.72e+00,
465,-2.56e-01,-2.72e+00,
466,-2.64e-01,-2.72e+00,
467,-2.64e-01,-2.72e+00,
468,-2.64e-01,-2.80e+00,
469,-2.64e-01,-2.80e+00,
470,-2.56e-01,-2.80e+00,
471,-2.56e-01,-2.80e+00,
472,-2.64e-01,-2.80e+00,
473,-2.64e-01,-2.80e+00,
474,-2.64e-01,-2.80e+00,
475,-2.64e-01,-2.80e+00,
476,-2.64e-01,-2.80e+00,
477,-2.64e-01,-2.80e+00,
478,-2.56e-01,-2.80e+00,
479,-2.56e-01,-2.80e+00,
480,-2.64e-01,-2.80e+00,
481,-2.64e-01,-2.80e+00,
482,-2.56e-01,-2.80e+00,
483,-2.56e-01,-2.80e+00,
484,-2.64e-01,-2.80e+00,
485,-2.64e-01,-2.80e+00,
486,-2.56e-01,-2.72e+00,
487,-2.56e-01,-2.72e+00,
488,-2.56e-01,-2.72e+00,
489,-2.56e-01,-2.72e+00,
490,-2.48e-01,-2.72e+00,
491,-2.48e-01,-2.72e+00,
492,-2.48e-01,-2.72e+00,
493,-2.48e-01,-2.72e+00,
494,-2.48e-01,-2.72e+00,
495,-2.48e-01,-2.72e+00,
496,-2.48e-01,-2.72e+00,
497,-2.48e-01,-2.72e+00,
498,-2.48e-01,-2.64e+00,
499,-2.48e-01,-2.64e+00,
500,-2.40e-01,-2.64e+00,
501,-2.40e-01,-2.64e+00,
502,-2.40e-01,-2.64e+00,
503,-2.40e-01,-2.64e+00,
504,-2.40e-01,-2.64e+00,
505,-2.40e-01,-2.64e+00,
506,-2.40e-01,-2.56e+00,
507,-2.40e-01,-2.56e+00,
508,-2.32e-01,-2.56e+00,
509,-2.32e-01,-2.56e+00,
510,-2.32e-01,-2.56e+00,
511,-2.32e-01,-2.56e+00,
512,-2.32e-01,-2.48e+00,
513,-2.32e-01,-2.48e+00,
514,-2.24e-01,-2.48e+00,
515,-2.24e-01,-2.48e+00,
516,-2.24e-01,-2.48e+00,
517,-2.24e-01,-2.48e+00,
518,-2.24e-01,-2.32e+00,
519,-2.24e-01,-2.32e+00,
520,-2.16e-01,-2.40e+00,
521,-2.16e-01,-2.40e+00,
522,-2.08e-01,-2.32e+00,
523,-2.08e-01,-2.32e+00,
524,-2.08e-01,-2.24e+00,
525,-2.08e-01,-2.24e+00,
526,-2.00e-01,-2.24e+00,
527,-2.00e-01,-2.24e+00,
528,-2.00e-01,-2.16e+00,
529,-2.00e-01,-2.16e+00,
530,-2.00e-01,-2.16e+00,
531,-2.00e-01,-2.16e+00,
532,-2.00e-01,-2.08e+00,
533,-2.00e-01,-2.08e+00,
534,-1.84e-01,-2.08e+00,
535,-1.84e-01,-2.08e+00,
536,-1.84e-01,-2.00e+00,
537,-1.84e-01,-2.00e+00,
538,-1.76e-01,-1.92e+00,
539,-1.76e-01,-1.92e+00,
540,-1.76e-01,-1.92e+00,
541,-1.76e-01,-1.92e+00,
542,-1.68e-01,-1.84e+00,
543,-1.68e-01,-1.84e+00,
544,-1.60e-01,-1.84e+00,
545,-1.60e-01,-1.84e+00,
546,-1.60e-01,-1.68e+00,
547,-1.60e-01,-1.68e+00,
548,-1.52e-01,-1.76e+00,
549,-1.52e-01,-1.76e+00,
550,-1.44e-01,-1.68e+00,
551,-1.44e-01,-1.68e+00,
552,-1.44e-01,-1.60e+00,
553,-1.44e-01,-1.60e+00,
554,-1.36e-01,-1.52e+00,
555,-1.36e-01,-1.52e+00,
556,-1.36e-01,-1.44e+00,
557,-1.36e-01,-1.44e+00,
558,-1.28e-01,-1.44e+00,
559,-1.28e-01,-1.44e+00,
560,-1.20e-01,-1.36e+00,
561,-1.20e-01,-1.36e+00,
562,-1.20e-01,-1.20e+00,
563,-1.20e-01,-1.20e+00,
564,-1.12e-01,-1.20e+00,
565,-1.12e-01,-1.20e+00,
566,-1.04e-01,-1.20e+00,
567,-1.04e-01,-1.20e+00,
568,-1.04e-01,-1.12e+00,
569,-1.04e-01,-1.12e+00,
570,-8.80e-02,-1.04e+00,
571,-8.80e-02,-1.04e+00,
572,-8.80e-02,-9.60e-01,
573,-8.80e-02,-9.60e-01,
574,-8.00e-02,-8.80e-01,
575,-8.00e-02,-8.80e-01,
576,-7.20e-02,-8.00e-01,
577,-7.20e-02,-8.00e-01,
578,-7.20e-02,-7.20e-01,
579,-7.20e-02,-7.20e-01,
580,-6.40e-02,-7.20e-01,
581,-6.40e-02,-7.20e-01,
582,-5.60e-02,-5.60e-01,
583,-5.60e-02,-5.60e-01,
584,-5.60e-02,-5.60e-01,
585,-5.60e-02,-5.60e-01,
586,-4.00e-02,-4.80e-01,
587,-4.00e-02,-4.80e-01,
588,-4.00e-02,-4.00e-01,
589,-4.00e-02,-4.00e-01,
590,-3.20e-02,-3.20e-01,
591,-3.20e-02,-3.20e-01,
592,-2.40e-02,-3.20e-01,
593,-2.40e-02,-3.20e-01,
594,-2.40e-02,-2.40e-01,
595,-2.40e-02,-2.40e-01,
596,-1.60e-02,-1.60e-01,
597,-1.60e-02,-1.60e-01,
598,-8.00e-03,-8.00e-02,
599,-8.00e-03,-8.00e-02,
600,0.00e+00,0.00e+00,
601,0.00e+00,0.00e+00,
602,0.00e+00,8.00e-02,
603,0.00e+00,8.00e-02,
604,8.00e-03,8.00e-02,
605,8.00e-03,8.00e-02,
606,1.60e-02,1.60e-01,
607,1.60e-02,1.60e-01,
608,2.40e-02,2.40e-01,
609,2.40e-02,2.40e-01,
610,3.20e-02,3.20e-01,
611,3.20e-02,3.20e-01,
612,4.00e-02,4.00e-01,
613,4.00e-02,4.00e-01,
614,4.00e-02,4.80e-01,
615,4.00e-02,4.80e-01,
616,4.80e-02,5.60e-01,
617,4.80e-02,5.60e-01,
618,5.60e-02,6.40e-01,
619,5.60e-02,6.40e-01,
620,6.40e-02,6.40e-01,
621,6.40e-02,6.40e-01,
622,7.20e-02,7.20e-01,
623,7.20e-02,7.20e-01,
624,7.20e-02,8.00e-01,
625,7.20e-02,8.00e-01,
626,7.20e-02,8.80e-01,
627,7.20e-02,8.80e-01,
628,8.00e-02,9.60e-01,
629,8.00e-02,9.60e-01,
630,8.80e-02,1.04e+00,
631,8.80e-02,1.04e+00,
632,9.60e-02,1.04e+00,
633,9.60e-02,1.04e+00,
634,1.04e-01,1.12e+00,
635,1.04e-01,1.12e+00,
636,1.12e-01,1.20e+00,
637,1.12e-01,1.20e+00,
638,1.12e-01,1.28e+00,
639,1.12e-01,1.28e+00,
640,1.20e-01,1.28e+00,
641,1.20e-01,1.28e+00,
642,1.28e-01,1.36e+00,
643,1.28e-01,1.36e+00,
644,1.28e-01,1.44e+00,
645,1.28e-01,1.44e+00,
646,1.36e-01,1.52e+00,
647,1.36e-01,1.52e+00,
648,1.44e-01,1.60e+00,
649,1.44e-01,1.60e+00,
650,1.44e-01,1.60e+00,
651,1.44e-01,1.60e+00,
652,1.52e-01,1.68e+00,
653,1.52e-01,1.68e+00,
654,1.60e-01,1.76e+00,
655,1.60e-01,1.76e+00,
656,1.60e-01,1.76e+00,
657,1.60e-01,1.76e+00,
658,1.68e-01,1.84e+00,
659,1.68e-01,1.84e+00,
660,1.68e-01,1.84e+00,
661,1.68e-01,1.84e+00,
662,1.76e-01,1.92e+00,
663,1.76e-01,1.92e+00,
664,1.76e-01,2.00e+00,
665,1.76e-01,2.00e+00,
666,1.84e-01,2.00e+00,
667,1.84e-01,2.00e+00,
668,1.84e-01,2.08e+00,
669,1.84e-01,2.08e+00,
670,1.84e-01,2.08e+00,
671,1.84e-01,2.08e+00,
672,2.00e-01,2.16e+00,
673,2.00e-01,2.16e+00,
674,1.92e-01,2.24e+00,
675,1.92e-01,2.24e+00,
676,2.00e-01,2.16e+00,
677,2.00e-01,2.16e+00,
678,2.00e-01,2.32e+00,
679,2.00e-01,2.32e+00,
680,2.08e-01,2.24e+00,
681,2.08e-01,2.24e+00,
682,2.16e-01,2.32e+00,
683,2.16e-01,2.32e+00,
684,2.16e-01,2.40e+00,
685,2.16e-01,2.40e+00,
686,2.16e-01,2.40e+00,
687,2.16e-01,2.40e+00,
688,2.24e-01,2.48e+00,
689,2.24e-01,2.48e+00,
690,2.24e-01,2.48e+00,
691,2.24e-01,2.48e+00,
692,2.24e-01,2.48e+00,
693,2.24e-01,2.48e+00,
694,2.32e-01,2.56e+00,
695,2.32e-01,2.56e+00,
696,2.32e-01,2.56e+00,
697,2.32e-01,2.56e+00,
698,2.32e-01,2.56e+00,
699,2.32e-01,2.56e+00,
700,2.32e-01,2.64e+00,
701,2.32e-01,2.64e+00,
702,2.32e-01,2.64e+00,
703,2.32e-01,2.64e+00,
704,2.32e-01,2.64e+00,
705,2.32e-01,2.64e+00,
706,2.40e-01,2.64e+00,
707,2.40e-01,2.64e+00,
708,2.48e-01,2.64e+00,
709,2.48e-01,2.64e+00,
710,2.40e-01,2.64e+00,
711,2.40e-01,2.64e+00,
712,2.48e-01,2.64e+00,
713,2.48e-01,2.64e+00,
714,2.48e-01,2.72e+00,
715,2.48e-01,2.72e+00,
716,2.40e-01,2.72e+00,
717,2.40e-01,2.72e+00,
718,2.40e-01,2.72e+00,
719,2.40e-01,2.72e+00,
720,2.40e-01,2.72e+00,
721,2.40e-01,2.72e+00,
722,2.48e-01,2.72e+00,
723,2.48e-01,2.72e+00,
724,2.40e-01,2.72e+00,
725,2.40e-01,2.72e+00,
726,2.48e-01,2.72e+00,
727,2.48e-01,2.72e+00,
728,2.40e-01,2.72e+00,
729,2.40e-01,2.72e+00,
730,2.40e-01,2.72e+00,
731,2.40e-01,2.72e+00,
732,2.48e-01,2.72e+00,
733,2.48e-01,2.72e+00,
734,2.48e-01,2.72e+00,
735,2.48e-01,2.72e+00,
736,2.48e-01,2.72e+00,
737,2.48e-01,2.72e+00,
738,2.40e-01,2.64e+00,
739,2.40e-01,2.64e+00,
740,2.48e-01,2.64e+00,
741,2.48e-01,2.64e+00,
742,2.48e-01,2.64e+00,
743,2.48e-01,2.64e+00,
744,2.40e-01,2.64e+00,
745,2.40e-01,2.64e+00,
746,2.32e-01,2.64e+00,
747,2.32e-01,2.64e+00,
748,2.32e-01,2.56e+00,
749,2.32e-01,2.56e+00,
750,2.40e-01,2.56e+00,
751,2.40e-01,2.56e+00,
752,2.40e-01,2.56e+00,
753,2.40e-01,2.56e+00,
754,2.24e-01,2.48e+00,
755,2.24e-01,2.48e+00,
756,2.24e-01,2.48e+00,
757,2.24e-01,2.48e+00,
758,2.24e-01,2.48e+00,
759,2.24e-01,2.48e+00,
760,2.24e-01,2.48e+00,
761,2.24e-01,2.48e+00,
762,2.16e-01,2.48e+00,
763,2.16e-01,2.48e+00,
764,2.16e-01,2.32e+00,
765,2.16e-01,2.32e+00,
766,2.16e-01,2.40e+00,
767,2.16e-01,2.40e+00,
768,2.08e-01,2.32e+00,
769,2.08e-01,2.32e+00,
770,2.08e-01,2.32e+00,
771,2.08e-01,2.32e+00,
772,2.00e-01,2.24e+00,
773,2.00e-01,2.24e+00,
774,2.00e-01,2.24e+00,
775,2.00e-01,2.24e+00,
776,2.00e-01,2.24e+00,
777,2.00e-01,2.24e+00,
778,1.92e-01,2.16e+00,
779,1.92e-01,2.16e+00,
780,1.92e-01,2.08e+00,
781,1.92e-01,2.08e+00,
782,1.84e-01,2.00e+00,
783,1.84e-01,2.00e+00,
784,1.76e-01,2.00e+00,
785,1.76e-01,2.00e+00,
786,1.76e-01,1.92e+00,
787,1.76e-01,1.92e+00,
788,1.68e-01,1.92e+00,
789,1.68e-01,1.92e+00,
790,1.68e-01,1.84e+00,
791,1.68e-01,1.84e+00,
792,1.60e-01,1.76e+00,
793,1.60e-01,1.76e+00,
794,1.60e-01,1.76e+00,
795,1.60e-01,1.76e+00,
796,1.52e-01,1.76e+00,
797,1.52e-01,1.76e+00,
798,1.44e-01,1.60e+00,
799,1.44e-01,1.60e+00,
800,1.44e-01,1.60e+00,
801,1.44e-01,1.60e+00,
802,1.36e-01,1.60e+00,
803,1.36e-01,1.60e+00,
804,1.36e-01,1.52e+00,
805,1.36e-01,1.52e+00,
806,1.20e-01,1.36e+00,
807,1.20e-01,1.36e+00,
808,1.28e-01,1.36e+00,
809,1.28e-01,1.36e+00,
810,1.12e-01,1.28e+00,
811,1.12e-01,1.28e+00,
812,1.12e-01,1.20e+00,
813,1.12e-01,1.20e+00,
814,1.04e-01,1.12e+00,
815,1.04e-01,1.12e+00,
816,9.60e-02,1.12e+00,
817,9.60e-02,1.12e+00,
818,9.60e-02,1.04e+00,
819,9.60e-02,1.04e+00,
820,8.00e-02,9.60e-01,
821,8.00e-02,9.60e-01,
822,8.00e-02,9.60e-01,
823,8.00e-02,9.60e-01,
824,8.00e-02,8.00e-01,
825,8.00e-02,8.00e-01,
826,7.20e-02,8.00e-01,
827,7.20e-02,8.00e-01,
828,6.40e-02,7.20e-01,
829,6.40e-02,7.20e-01,
830,5.60e-02,6.40e-01,
831,5.60e-02,6.40e-01,
832,4.80e-02,5.60e-01,
833,4.80e-02,5.60e-01,
834,4.00e-02,4.80e-01,
835,4.00e-02,4.80e-01,
836,4.00e-02,4.80e-01,
837,4.00e-02,4.80e-01,
838,3.20e-02,4.00e-01,
839,3.20e-02,4.00e-01,
