Versuch1/rawData/NewFile100kinv500.csv

X,CH1,CH2,Start,Increment,
Sequence,Volt,Volt,-1.200000e-02,2.000000e-05
0,-4.80e-01,4.40e+00,
1,-4.80e-01,4.40e+00,
2,-4.60e-01,4.60e+00,
3,-4.60e-01,4.60e+00,
4,-4.60e-01,4.60e+00,
5,-4.60e-01,4.60e+00,
6,-4.60e-01,4.60e+00,
7,-4.60e-01,4.60e+00,
8,-4.60e-01,4.40e+00,
9,-4.60e-01,4.40e+00,
10,-4.40e-01,4.20e+00,
11,-4.40e-01,4.20e+00,
12,-4.40e-01,4.20e+00,
13,-4.40e-01,4.20e+00,
14,-4.20e-01,4.20e+00,
15,-4.20e-01,4.20e+00,
16,-4.40e-01,4.20e+00,
17,-4.40e-01,4.20e+00,
18,-4.20e-01,4.20e+00,
19,-4.20e-01,4.20e+00,
20,-4.20e-01,4.00e+00,
21,-4.20e-01,4.00e+00,
22,-4.20e-01,4.00e+00,
23,-4.20e-01,4.00e+00,
24,-4.00e-01,3.80e+00,
25,-4.00e-01,3.80e+00,
26,-4.00e-01,3.80e+00,
27,-4.00e-01,3.80e+00,
28,-3.80e-01,3.80e+00,
29,-3.80e-01,3.80e+00,
30,-3.80e-01,3.60e+00,
31,-3.80e-01,3.60e+00,
32,-3.60e-01,3.60e+00,
33,-3.60e-01,3.60e+00,
34,-3.80e-01,3.60e+00,
35,-3.80e-01,3.60e+00,
36,-3.60e-01,3.40e+00,
37,-3.60e-01,3.40e+00,
38,-3.40e-01,3.40e+00,
39,-3.40e-01,3.40e+00,
40,-3.40e-01,3.20e+00,
41,-3.40e-01,3.20e+00,
42,-3.20e-01,3.20e+00,
43,-3.20e-01,3.20e+00,
44,-3.20e-01,3.00e+00,
45,-3.20e-01,3.00e+00,
46,-3.00e-01,3.00e+00,
47,-3.00e-01,3.00e+00,
48,-3.00e-01,3.00e+00,
49,-3.00e-01,3.00e+00,
50,-2.80e-01,2.80e+00,
51,-2.80e-01,2.80e+00,
52,-2.80e-01,2.60e+00,
53,-2.80e-01,2.60e+00,
54,-2.60e-01,2.60e+00,
55,-2.60e-01,2.60e+00,
56,-2.40e-01,2.40e+00,
57,-2.40e-01,2.40e+00,
58,-2.40e-01,2.40e+00,
59,-2.40e-01,2.40e+00,
60,-2.40e-01,2.20e+00,
61,-2.40e-01,2.20e+00,
62,-2.20e-01,2.20e+00,
63,-2.20e-01,2.20e+00,
64,-2.20e-01,2.00e+00,
65,-2.20e-01,2.00e+00,
66,-2.00e-01,1.80e+00,
67,-2.00e-01,1.80e+00,
68,-2.00e-01,1.80e+00,
69,-2.00e-01,1.80e+00,
70,-1.60e-01,1.60e+00,
71,-1.60e-01,1.60e+00,
72,-1.60e-01,1.40e+00,
73,-1.60e-01,1.40e+00,
74,-1.40e-01,1.40e+00,
75,-1.40e-01,1.40e+00,
76,-1.40e-01,1.20e+00,
77,-1.40e-01,1.20e+00,
78,-1.40e-01,1.20e+00,
79,-1.40e-01,1.20e+00,
80,-1.20e-01,1.00e+00,
81,-1.20e-01,1.00e+00,
82,-1.00e-01,1.00e+00,
83,-1.00e-01,1.00e+00,
84,-1.00e-01,8.00e-01,
85,-1.00e-01,8.00e-01,
86,-6.00e-02,6.00e-01,
87,-6.00e-02,6.00e-01,
88,-6.00e-02,4.00e-01,
89,-6.00e-02,4.00e-01,
90,-6.00e-02,4.00e-01,
91,-6.00e-02,4.00e-01,
92,-4.00e-02,2.00e-01,
93,-4.00e-02,2.00e-01,
94,-2.00e-02,2.00e-01,
95,-2.00e-02,2.00e-01,
96,-2.00e-02,0.00e+00,
97,-2.00e-02,0.00e+00,
98,0.00e+00,0.00e+00,
99,0.00e+00,0.00e+00,
100,0.00e+00,-2.00e-01,
101,0.00e+00,-2.00e-01,
102,2.00e-02,-4.00e-01,
103,2.00e-02,-4.00e-01,
104,4.00e-02,-4.00e-01,
105,4.00e-02,-4.00e-01,
106,4.00e-02,-6.00e-01,
107,4.00e-02,-6.00e-01,
108,6.00e-02,-8.00e-01,
109,6.00e-02,-8.00e-01,
110,6.00e-02,-8.00e-01,
111,6.00e-02,-8.00e-01,
112,8.00e-02,-1.00e+00,
113,8.00e-02,-1.00e+00,
114,1.00e-01,-1.20e+00,
115,1.00e-01,-1.20e+00,
116,1.00e-01,-1.20e+00,
117,1.00e-01,-1.20e+00,
118,1.20e-01,-1.40e+00,
119,1.20e-01,-1.40e+00,
120,1.40e-01,-1.40e+00,
121,1.40e-01,-1.40e+00,
122,1.40e-01,-1.60e+00,
123,1.40e-01,-1.60e+00,
124,1.60e-01,-1.60e+00,
125,1.60e-01,-1.60e+00,
126,1.80e-01,-1.80e+00,
127,1.80e-01,-1.80e+00,
128,1.80e-01,-1.80e+00,
129,1.80e-01,-1.80e+00,
130,1.80e-01,-2.00e+00,
131,1.80e-01,-2.00e+00,
132,2.00e-01,-2.20e+00,
133,2.00e-01,-2.20e+00,
134,2.20e-01,-2.40e+00,
135,2.20e-01,-2.40e+00,
136,2.40e-01,-2.40e+00,
137,2.40e-01,-2.40e+00,
138,2.40e-01,-2.40e+00,
139,2.40e-01,-2.40e+00,
140,2.60e-01,-2.60e+00,
141,2.60e-01,-2.60e+00,
142,2.60e-01,-2.80e+00,
143,2.60e-01,-2.80e+00,
144,2.80e-01,-3.00e+00,
145,2.80e-01,-3.00e+00,
146,3.00e-01,-3.00e+00,
147,3.00e-01,-3.00e+00,
148,3.00e-01,-3.20e+00,
149,3.00e-01,-3.20e+00,
150,3.00e-01,-3.20e+00,
151,3.00e-01,-3.20e+00,
152,3.20e-01,-3.40e+00,
153,3.20e-01,-3.40e+00,
154,3.20e-01,-3.40e+00,
155,3.20e-01,-3.40e+00,
156,3.40e-01,-3.60e+00,
157,3.40e-01,-3.60e+00,
158,3.40e-01,-3.60e+00,
159,3.40e-01,-3.60e+00,
160,3.60e-01,-3.60e+00,
161,3.60e-01,-3.60e+00,
162,3.60e-01,-3.60e+00,
163,3.60e-01,-3.60e+00,
164,3.60e-01,-3.80e+00,
165,3.60e-01,-3.80e+00,
166,3.80e-01,-4.00e+00,
167,3.80e-01,-4.00e+00,
168,4.00e-01,-4.00e+00,
169,4.00e-01,-4.00e+00,
170,3.80e-01,-4.00e+00,
171,3.80e-01,-4.00e+00,
172,4.20e-01,-4.20e+00,
173,4.20e-01,-4.20e+00,
174,4.20e-01,-4.20e+00,
175,4.20e-01,-4.20e+00,
176,4.20e-01,-4.40e+00,
177,4.20e-01,-4.40e+00,
178,4.20e-01,-4.40e+00,
179,4.20e-01,-4.40e+00,
180,4.40e-01,-4.40e+00,
181,4.40e-01,-4.40e+00,
182,4.40e-01,-4.60e+00,
183,4.40e-01,-4.60e+00,
184,4.40e-01,-4.60e+00,
185,4.40e-01,-4.60e+00,
186,4.60e-01,-4.60e+00,
187,4.60e-01,-4.60e+00,
188,4.60e-01,-4.60e+00,
189,4.60e-01,-4.60e+00,
190,4.80e-01,-4.60e+00,
191,4.80e-01,-4.60e+00,
192,4.60e-01,-4.80e+00,
193,4.60e-01,-4.80e+00,
194,4.80e-01,-4.80e+00,
195,4.80e-01,-4.80e+00,
196,4.80e-01,-4.80e+00,
197,4.80e-01,-4.80e+00,
198,4.80e-01,-4.80e+00,
199,4.80e-01,-4.80e+00,
200,5.00e-01,-5.00e+00,
201,5.00e-01,-5.00e+00,
202,5.00e-01,-4.80e+00,
203,5.00e-01,-4.80e+00,
204,5.00e-01,-5.00e+00,
205,5.00e-01,-5.00e+00,
206,5.00e-01,-5.00e+00,
207,5.00e-01,-5.00e+00,
208,5.00e-01,-5.20e+00,
209,5.00e-01,-5.20e+00,
210,5.20e-01,-5.20e+00,
211,5.20e-01,-5.20e+00,
212,5.00e-01,-5.20e+00,
213,5.00e-01,-5.20e+00,
214,5.20e-01,-5.20e+00,
215,5.20e-01,-5.20e+00,
216,5.00e-01,-5.20e+00,
217,5.00e-01,-5.20e+00,
218,5.00e-01,-5.20e+00,
219,5.00e-01,-5.20e+00,
220,5.20e-01,-5.20e+00,
221,5.20e-01,-5.20e+00,
222,5.20e-01,-5.20e+00,
223,5.20e-01,-5.20e+00,
224,5.20e-01,-5.20e+00,
225,5.20e-01,-5.20e+00,
226,5.20e-01,-5.20e+00,
227,5.20e-01,-5.20e+00,
228,5.20e-01,-5.20e+00,
229,5.20e-01,-5.20e+00,
230,5.20e-01,-5.20e+00,
231,5.20e-01,-5.20e+00,
232,5.20e-01,-5.20e+00,
233,5.20e-01,-5.20e+00,
234,5.20e-01,-5.20e+00,
235,5.20e-01,-5.20e+00,
236,5.20e-01,-5.20e+00,
237,5.20e-01,-5.20e+00,
238,5.00e-01,-5.20e+00,
239,5.00e-01,-5.20e+00,
240,5.00e-01,-5.00e+00,
241,5.00e-01,-5.00e+00,
242,5.00e-01,-5.20e+00,
243,5.00e-01,-5.20e+00,
244,5.00e-01,-5.20e+00,
245,5.00e-01,-5.20e+00,
246,5.00e-01,-5.00e+00,
247,5.00e-01,-5.00e+00,
248,5.00e-01,-5.00e+00,
249,5.00e-01,-5.00e+00,
250,4.80e-01,-4.80e+00,
251,4.80e-01,-4.80e+00,
252,4.80e-01,-5.00e+00,
253,4.80e-01,-5.00e+00,
254,4.60e-01,-4.80e+00,
255,4.60e-01,-4.80e+00,
256,4.60e-01,-4.80e+00,
257,4.60e-01,-4.80e+00,
258,4.80e-01,-4.80e+00,
259,4.80e-01,-4.80e+00,
260,4.80e-01,-4.80e+00,
261,4.80e-01,-4.80e+00,
262,4.60e-01,-4.60e+00,
263,4.60e-01,-4.60e+00,
264,4.60e-01,-4.80e+00,
265,4.60e-01,-4.80e+00,
266,4.60e-01,-4.40e+00,
267,4.60e-01,-4.40e+00,
268,4.40e-01,-4.40e+00,
269,4.40e-01,-4.40e+00,
270,4.20e-01,-4.60e+00,
271,4.20e-01,-4.60e+00,
272,4.40e-01,-4.40e+00,
273,4.40e-01,-4.40e+00,
274,4.20e-01,-4.40e+00,
275,4.20e-01,-4.40e+00,
276,4.20e-01,-4.20e+00,
277,4.20e-01,-4.20e+00,
278,4.00e-01,-4.20e+00,
279,4.00e-01,-4.20e+00,
280,4.00e-01,-4.00e+00,
281,4.00e-01,-4.00e+00,
282,3.80e-01,-4.00e+00,
283,3.80e-01,-4.00e+00,
284,4.00e-01,-4.00e+00,
285,4.00e-01,-4.00e+00,
286,3.80e-01,-3.80e+00,
287,3.80e-01,-3.80e+00,
288,3.60e-01,-3.60e+00,
289,3.60e-01,-3.60e+00,
290,3.40e-01,-3.60e+00,
291,3.40e-01,-3.60e+00,
292,3.40e-01,-3.60e+00,
293,3.40e-01,-3.60e+00,
294,3.40e-01,-3.60e+00,
295,3.40e-01,-3.60e+00,
296,3.40e-01,-3.20e+00,
297,3.40e-01,-3.20e+00,
298,3.20e-01,-3.40e+00,
299,3.20e-01,-3.40e+00,
300,3.20e-01,-3.20e+00,
301,3.20e-01,-3.20e+00,
302,3.00e-01,-3.20e+00,
303,3.00e-01,-3.20e+00,
304,3.00e-01,-3.00e+00,
305,3.00e-01,-3.00e+00,
306,2.80e-01,-2.80e+00,
307,2.80e-01,-2.80e+00,
308,2.60e-01,-2.60e+00,
309,2.60e-01,-2.60e+00,
310,2.60e-01,-2.40e+00,
311,2.60e-01,-2.40e+00,
312,2.40e-01,-2.60e+00,
313,2.40e-01,-2.60e+00,
314,2.40e-01,-2.40e+00,
315,2.40e-01,-2.40e+00,
316,2.20e-01,-2.40e+00,
317,2.20e-01,-2.40e+00,
318,2.20e-01,-2.20e+00,
319,2.20e-01,-2.20e+00,
320,2.00e-01,-2.00e+00,
321,2.00e-01,-2.00e+00,
322,2.00e-01,-1.80e+00,
323,2.00e-01,-1.80e+00,
324,1.60e-01,-1.80e+00,
325,1.60e-01,-1.80e+00,
326,1.60e-01,-1.60e+00,
327,1.60e-01,-1.60e+00,
328,1.40e-01,-1.40e+00,
329,1.40e-01,-1.40e+00,
330,1.40e-01,-1.40e+00,
331,1.40e-01,-1.40e+00,
332,1.40e-01,-1.20e+00,
333,1.40e-01,-1.20e+00,
334,1.00e-01,-1.20e+00,
335,1.00e-01,-1.20e+00,
336,1.00e-01,-1.00e+00,
337,1.00e-01,-1.00e+00,
338,8.00e-02,-8.00e-01,
339,8.00e-02,-8.00e-01,
340,8.00e-02,-8.00e-01,
341,8.00e-02,-8.00e-01,
342,6.00e-02,-8.00e-01,
343,6.00e-02,-8.00e-01,
344,4.00e-02,-6.00e-01,
345,4.00e-02,-6.00e-01,
346,4.00e-02,-4.00e-01,
347,4.00e-02,-4.00e-01,
348,4.00e-02,-2.00e-01,
349,4.00e-02,-2.00e-01,
350,2.00e-02,-2.00e-01,
351,2.00e-02,-2.00e-01,
352,0.00e+00,0.00e+00,
353,0.00e+00,0.00e+00,
354,0.00e+00,0.00e+00,
355,0.00e+00,0.00e+00,
356,-2.00e-02,2.00e-01,
357,-2.00e-02,2.00e-01,
358,-4.00e-02,2.00e-01,
359,-4.00e-02,2.00e-01,
360,-4.00e-02,6.00e-01,
361,-4.00e-02,6.00e-01,
362,-6.00e-02,6.00e-01,
363,-6.00e-02,6.00e-01,
364,-6.00e-02,8.00e-01,
365,-6.00e-02,8.00e-01,
366,-1.00e-01,8.00e-01,
367,-1.00e-01,8.00e-01,
368,-1.00e-01,1.00e+00,
369,-1.00e-01,1.00e+00,
370,-1.20e-01,1.00e+00,
371,-1.20e-01,1.00e+00,
372,-1.20e-01,1.20e+00,
373,-1.20e-01,1.20e+00,
374,-1.40e-01,1.40e+00,
375,-1.40e-01,1.40e+00,
376,-1.60e-01,1.40e+00,
377,-1.60e-01,1.40e+00,
378,-1.60e-01,1.60e+00,
379,-1.60e-01,1.60e+00,
380,-1.60e-01,1.80e+00,
381,-1.60e-01,1.80e+00,
382,-1.80e-01,1.80e+00,
383,-1.80e-01,1.80e+00,
384,-2.00e-01,2.00e+00,
385,-2.00e-01,2.00e+00,
386,-2.00e-01,2.00e+00,
387,-2.00e-01,2.00e+00,
388,-2.20e-01,2.20e+00,
389,-2.20e-01,2.20e+00,
390,-2.20e-01,2.40e+00,
391,-2.20e-01,2.40e+00,
392,-2.40e-01,2.40e+00,
393,-2.40e-01,2.40e+00,
394,-2.40e-01,2.40e+00,
395,-2.40e-01,2.40e+00,
396,-2.60e-01,2.60e+00,
397,-2.60e-01,2.60e+00,
398,-2.60e-01,2.60e+00,
399,-2.60e-01,2.60e+00,
400,-2.80e-01,2.80e+00,
401,-2.80e-01,2.80e+00,
402,-3.00e-01,2.80e+00,
403,-3.00e-01,2.80e+00,
404,-3.00e-01,3.00e+00,
405,-3.00e-01,3.00e+00,
406,-3.20e-01,3.20e+00,
407,-3.20e-01,3.20e+00,
408,-3.40e-01,3.00e+00,
409,-3.40e-01,3.00e+00,
410,-3.20e-01,3.40e+00,
411,-3.20e-01,3.40e+00,
412,-3.40e-01,3.40e+00,
413,-3.40e-01,3.40e+00,
414,-3.40e-01,3.40e+00,
415,-3.40e-01,3.40e+00,
416,-3.60e-01,3.60e+00,
417,-3.60e-01,3.60e+00,
418,-3.60e-01,3.60e+00,
419,-3.60e-01,3.60e+00,
420,-3.60e-01,3.80e+00,
421,-3.60e-01,3.80e+00,
422,-4.00e-01,3.80e+00,
423,-4.00e-01,3.80e+00,
424,-3.80e-01,3.80e+00,
425,-3.80e-01,3.80e+00,
426,-4.00e-01,4.00e+00,
427,-4.00e-01,4.00e+00,
428,-4.00e-01,4.00e+00,
429,-4.00e-01,4.00e+00,
430,-4.20e-01,4.00e+00,
431,-4.20e-01,4.00e+00,
432,-4.20e-01,4.20e+00,
433,-4.20e-01,4.20e+00,
434,-4.20e-01,4.20e+00,
435,-4.20e-01,4.20e+00,
436,-4.40e-01,4.40e+00,
437,-4.40e-01,4.40e+00,
438,-4.40e-01,4.40e+00,
439,-4.40e-01,4.40e+00,
440,-4.40e-01,4.20e+00,
441,-4.40e-01,4.20e+00,
442,-4.60e-01,4.60e+00,
443,-4.60e-01,4.60e+00,
444,-4.60e-01,4.60e+00,
445,-4.60e-01,4.60e+00,
446,-4.60e-01,4.40e+00,
447,-4.60e-01,4.40e+00,
448,-4.60e-01,4.60e+00,
449,-4.60e-01,4.60e+00,
450,-4.60e-01,4.60e+00,
451,-4.60e-01,4.60e+00,
452,-4.60e-01,4.60e+00,
453,-4.60e-01,4.60e+00,
454,-4.60e-01,4.80e+00,
455,-4.60e-01,4.80e+00,
456,-4.80e-01,4.60e+00,
457,-4.80e-01,4.60e+00,
458,-4.80e-01,4.80e+00,
459,-4.80e-01,4.80e+00,
460,-4.80e-01,4.80e+00,
461,-4.80e-01,4.80e+00,
462,-4.80e-01,4.80e+00,
463,-4.80e-01,4.80e+00,
464,-4.80e-01,4.80e+00,
465,-4.80e-01,4.80e+00,
466,-4.80e-01,4.80e+00,
467,-4.80e-01,4.80e+00,
468,-5.00e-01,4.80e+00,
469,-5.00e-01,4.80e+00,
470,-4.80e-01,4.80e+00,
471,-4.80e-01,4.80e+00,
472,-5.00e-01,4.80e+00,
473,-5.00e-01,4.80e+00,
474,-5.00e-01,4.80e+00,
475,-5.00e-01,4.80e+00,
476,-5.00e-01,4.80e+00,
477,-5.00e-01,4.80e+00,
478,-5.00e-01,4.60e+00,
479,-5.00e-01,4.60e+00,
480,-5.00e-01,4.80e+00,
481,-5.00e-01,4.80e+00,
482,-4.80e-01,4.80e+00,
483,-4.80e-01,4.80e+00,
484,-4.80e-01,4.80e+00,
485,-4.80e-01,4.80e+00,
486,-5.00e-01,4.80e+00,
487,-5.00e-01,4.80e+00,
488,-4.80e-01,4.80e+00,
489,-4.80e-01,4.80e+00,
490,-4.80e-01,4.80e+00,
491,-4.80e-01,4.80e+00,
492,-4.80e-01,4.80e+00,
493,-4.80e-01,4.80e+00,
494,-4.80e-01,4.80e+00,
495,-4.80e-01,4.80e+00,
496,-4.60e-01,4.80e+00,
497,-4.60e-01,4.80e+00,
498,-4.80e-01,4.60e+00,
499,-4.80e-01,4.60e+00,
500,-4.60e-01,4.60e+00,
501,-4.60e-01,4.60e+00,
502,-4.60e-01,4.60e+00,
503,-4.60e-01,4.60e+00,
504,-4.60e-01,4.60e+00,
505,-4.60e-01,4.60e+00,
506,-4.60e-01,4.40e+00,
507,-4.60e-01,4.40e+00,
508,-4.60e-01,4.40e+00,
509,-4.60e-01,4.40e+00,
510,-4.60e-01,4.20e+00,
511,-4.60e-01,4.20e+00,
512,-4.20e-01,4.40e+00,
513,-4.20e-01,4.40e+00,
514,-4.20e-01,4.40e+00,
515,-4.20e-01,4.40e+00,
516,-4.20e-01,4.20e+00,
517,-4.20e-01,4.20e+00,
518,-4.20e-01,4.20e+00,
519,-4.20e-01,4.20e+00,
520,-4.20e-01,4.20e+00,
521,-4.20e-01,4.20e+00,
522,-4.20e-01,4.00e+00,
523,-4.20e-01,4.00e+00,
524,-4.00e-01,4.00e+00,
525,-4.00e-01,4.00e+00,
526,-3.80e-01,4.00e+00,
527,-3.80e-01,4.00e+00,
528,-4.00e-01,3.80e+00,
529,-4.00e-01,3.80e+00,
530,-3.60e-01,3.60e+00,
531,-3.60e-01,3.60e+00,
532,-3.60e-01,3.60e+00,
533,-3.60e-01,3.60e+00,
534,-3.60e-01,3.60e+00,
535,-3.60e-01,3.60e+00,
536,-3.40e-01,3.20e+00,
537,-3.40e-01,3.20e+00,
538,-3.40e-01,3.20e+00,
539,-3.40e-01,3.20e+00,
540,-3.40e-01,3.20e+00,
541,-3.40e-01,3.20e+00,
542,-3.20e-01,3.20e+00,
543,-3.20e-01,3.20e+00,
544,-3.00e-01,3.00e+00,
545,-3.00e-01,3.00e+00,
546,-3.20e-01,3.00e+00,
547,-3.20e-01,3.00e+00,
548,-2.80e-01,2.80e+00,
549,-2.80e-01,2.80e+00,
550,-2.80e-01,2.60e+00,
551,-2.80e-01,2.60e+00,
552,-2.60e-01,2.60e+00,
553,-2.60e-01,2.60e+00,
554,-2.60e-01,2.60e+00,
555,-2.60e-01,2.60e+00,
556,-2.60e-01,2.40e+00,
557,-2.60e-01,2.40e+00,
558,-2.40e-01,2.40e+00,
559,-2.40e-01,2.40e+00,
560,-2.40e-01,2.20e+00,
561,-2.40e-01,2.20e+00,
562,-2.20e-01,2.20e+00,
563,-2.20e-01,2.20e+00,
564,-2.20e-01,2.00e+00,
565,-2.20e-01,2.00e+00,
566,-2.00e-01,2.00e+00,
567,-2.00e-01,2.00e+00,
568,-1.80e-01,1.80e+00,
569,-1.80e-01,1.80e+00,
570,-1.80e-01,1.60e+00,
571,-1.80e-01,1.60e+00,
572,-1.60e-01,1.40e+00,
573,-1.60e-01,1.40e+00,
574,-1.60e-01,1.40e+00,
575,-1.60e-01,1.40e+00,
576,-1.40e-01,1.20e+00,
577,-1.40e-01,1.20e+00,
578,-1.40e-01,1.20e+00,
579,-1.40e-01,1.20e+00,
580,-1.20e-01,1.00e+00,
581,-1.20e-01,1.00e+00,
582,-1.20e-01,1.00e+00,
583,-1.20e-01,1.00e+00,
584,-1.00e-01,8.00e-01,
585,-1.00e-01,8.00e-01,
586,-8.00e-02,8.00e-01,
587,-8.00e-02,8.00e-01,
588,-6.00e-02,6.00e-01,
589,-6.00e-02,6.00e-01,
590,-6.00e-02,6.00e-01,
591,-6.00e-02,6.00e-01,
592,-4.00e-02,4.00e-01,
593,-4.00e-02,4.00e-01,
594,-4.00e-02,2.00e-01,
595,-4.00e-02,2.00e-01,
596,-2.00e-02,2.00e-01,
597,-2.00e-02,2.00e-01,
598,0.00e+00,0.00e+00,
599,0.00e+00,0.00e+00,
600,2.00e-02,-2.00e-01,
601,2.00e-02,-2.00e-01,
602,2.00e-02,-2.00e-01,
603,2.00e-02,-2.00e-01,
604,4.00e-02,-4.00e-01,
605,4.00e-02,-4.00e-01,
606,4.00e-02,-6.00e-01,
607,4.00e-02,-6.00e-01,
608,6.00e-02,-8.00e-01,
609,6.00e-02,-8.00e-01,
610,8.00e-02,-8.00e-01,
611,8.00e-02,-8.00e-01,
612,8.00e-02,-8.00e-01,
613,8.00e-02,-8.00e-01,
614,1.00e-01,-1.20e+00,
615,1.00e-01,-1.20e+00,
616,1.00e-01,-1.20e+00,
617,1.00e-01,-1.20e+00,
618,1.20e-01,-1.40e+00,
619,1.20e-01,-1.40e+00,
620,1.40e-01,-1.40e+00,
621,1.40e-01,-1.40e+00,
622,1.40e-01,-1.60e+00,
623,1.40e-01,-1.60e+00,
624,1.60e-01,-1.60e+00,
625,1.60e-01,-1.60e+00,
626,1.60e-01,-1.80e+00,
627,1.60e-01,-1.80e+00,
628,1.80e-01,-1.80e+00,
629,1.80e-01,-1.80e+00,
630,1.80e-01,-2.20e+00,
631,1.80e-01,-2.20e+00,
632,2.00e-01,-2.20e+00,
633,2.00e-01,-2.20e+00,
634,2.00e-01,-2.40e+00,
635,2.00e-01,-2.40e+00,
636,2.20e-01,-2.40e+00,
637,2.20e-01,-2.40e+00,
638,2.40e-01,-2.40e+00,
639,2.40e-01,-2.40e+00,
640,2.60e-01,-2.60e+00,
641,2.60e-01,-2.60e+00,
642,2.60e-01,-2.80e+00,
643,2.60e-01,-2.80e+00,
644,2.80e-01,-2.80e+00,
645,2.80e-01,-2.80e+00,
646,2.80e-01,-3.00e+00,
647,2.80e-01,-3.00e+00,
648,2.80e-01,-3.00e+00,
649,2.80e-01,-3.00e+00,
650,3.00e-01,-3.20e+00,
651,3.00e-01,-3.20e+00,
652,3.20e-01,-3.20e+00,
653,3.20e-01,-3.20e+00,
654,3.20e-01,-3.40e+00,
655,3.20e-01,-3.40e+00,
656,3.40e-01,-3.40e+00,
657,3.40e-01,-3.40e+00,
658,3.40e-01,-3.60e+00,
659,3.40e-01,-3.60e+00,
660,3.60e-01,-3.60e+00,
661,3.60e-01,-3.60e+00,
662,3.60e-01,-3.60e+00,
663,3.60e-01,-3.60e+00,
664,3.60e-01,-3.80e+00,
665,3.60e-01,-3.80e+00,
666,3.80e-01,-4.00e+00,
667,3.80e-01,-4.00e+00,
668,3.80e-01,-4.00e+00,
669,3.80e-01,-4.00e+00,
670,4.00e-01,-4.00e+00,
671,4.00e-01,-4.00e+00,
672,4.00e-01,-4.40e+00,
673,4.00e-01,-4.40e+00,
674,4.00e-01,-4.40e+00,
675,4.00e-01,-4.40e+00,
676,4.20e-01,-4.40e+00,
677,4.20e-01,-4.40e+00,
678,4.20e-01,-4.40e+00,
679,4.20e-01,-4.40e+00,
680,4.40e-01,-4.40e+00,
681,4.40e-01,-4.40e+00,
682,4.40e-01,-4.40e+00,
683,4.40e-01,-4.40e+00,
684,4.60e-01,-4.60e+00,
685,4.60e-01,-4.60e+00,
686,4.60e-01,-4.80e+00,
687,4.60e-01,-4.80e+00,
688,4.60e-01,-4.80e+00,
689,4.60e-01,-4.80e+00,
690,4.60e-01,-4.80e+00,
691,4.60e-01,-4.80e+00,
692,4.60e-01,-4.80e+00,
693,4.60e-01,-4.80e+00,
694,4.80e-01,-5.00e+00,
695,4.80e-01,-5.00e+00,
696,4.80e-01,-4.80e+00,
697,4.80e-01,-4.80e+00,
698,4.80e-01,-4.80e+00,
699,4.80e-01,-4.80e+00,
700,5.00e-01,-5.00e+00,
701,5.00e-01,-5.00e+00,
702,5.00e-01,-5.00e+00,
703,5.00e-01,-5.00e+00,
704,5.00e-01,-5.00e+00,
705,5.00e-01,-5.00e+00,
706,5.00e-01,-5.20e+00,
707,5.00e-01,-5.20e+00,
708,5.00e-01,-5.20e+00,
709,5.00e-01,-5.20e+00,
710,5.00e-01,-5.20e+00,
711,5.00e-01,-5.20e+00,
712,5.00e-01,-5.00e+00,
713,5.00e-01,-5.00e+00,
714,5.00e-01,-5.20e+00,
715,5.00e-01,-5.20e+00,
716,5.00e-01,-5.20e+00,
717,5.00e-01,-5.20e+00,
718,5.00e-01,-5.20e+00,
719,5.00e-01,-5.20e+00,
720,5.20e-01,-5.20e+00,
721,5.20e-01,-5.20e+00,
722,5.00e-01,-5.20e+00,
723,5.00e-01,-5.20e+00,
724,5.20e-01,-5.20e+00,
725,5.20e-01,-5.20e+00,
726,5.20e-01,-5.20e+00,
727,5.20e-01,-5.20e+00,
728,5.00e-01,-5.20e+00,
729,5.00e-01,-5.20e+00,
730,5.20e-01,-5.00e+00,
731,5.20e-01,-5.00e+00,
732,5.20e-01,-5.00e+00,
733,5.20e-01,-5.00e+00,
734,5.20e-01,-5.00e+00,
735,5.20e-01,-5.00e+00,
736,5.00e-01,-5.20e+00,
737,5.00e-01,-5.20e+00,
738,5.00e-01,-5.20e+00,
739,5.00e-01,-5.20e+00,
740,5.00e-01,-5.20e+00,
741,5.00e-01,-5.20e+00,
742,5.00e-01,-5.20e+00,
743,5.00e-01,-5.20e+00,
744,5.00e-01,-5.00e+00,
745,5.00e-01,-5.00e+00,
746,5.00e-01,-5.00e+00,
747,5.00e-01,-5.00e+00,
748,5.00e-01,-5.00e+00,
749,5.00e-01,-5.00e+00,
750,5.00e-01,-5.00e+00,
751,5.00e-01,-5.00e+00,
752,4.80e-01,-4.80e+00,
753,4.80e-01,-4.80e+00,
754,4.80e-01,-4.80e+00,
755,4.80e-01,-4.80e+00,
756,4.60e-01,-4.80e+00,
757,4.60e-01,-4.80e+00,
758,4.60e-01,-4.60e+00,
759,4.60e-01,-4.60e+00,
760,4.80e-01,-4.80e+00,
761,4.80e-01,-4.80e+00,
762,4.60e-01,-4.60e+00,
763,4.60e-01,-4.60e+00,
764,4.60e-01,-4.80e+00,
765,4.60e-01,-4.80e+00,
766,4.40e-01,-4.40e+00,
767,4.40e-01,-4.40e+00,
768,4.40e-01,-4.40e+00,
769,4.40e-01,-4.40e+00,
770,4.40e-01,-4.40e+00,
771,4.40e-01,-4.40e+00,
772,4.40e-01,-4.40e+00,
773,4.40e-01,-4.40e+00,
774,4.40e-01,-4.20e+00,
775,4.40e-01,-4.20e+00,
776,4.00e-01,-4.20e+00,
777,4.00e-01,-4.20e+00,
778,4.00e-01,-4.20e+00,
779,4.00e-01,-4.20e+00,
780,4.00e-01,-4.00e+00,
781,4.00e-01,-4.00e+00,
782,3.80e-01,-4.00e+00,
783,3.80e-01,-4.00e+00,
784,4.00e-01,-4.00e+00,
785,4.00e-01,-4.00e+00,
786,3.60e-01,-3.80e+00,
787,3.60e-01,-3.80e+00,
788,3.60e-01,-3.80e+00,
789,3.60e-01,-3.80e+00,
790,3.60e-01,-3.60e+00,
791,3.60e-01,-3.60e+00,
792,3.60e-01,-3.60e+00,
793,3.60e-01,-3.60e+00,
794,3.40e-01,-3.60e+00,
795,3.40e-01,-3.60e+00,
796,3.40e-01,-3.40e+00,
797,3.40e-01,-3.40e+00,
798,3.20e-01,-3.20e+00,
799,3.20e-01,-3.20e+00,
800,3.20e-01,-3.00e+00,
801,3.20e-01,-3.00e+00,
802,3.00e-01,-3.20e+00,
803,3.00e-01,-3.20e+00,
804,3.00e-01,-2.80e+00,
805,3.00e-01,-2.80e+00,
806,2.80e-01,-2.80e+00,
807,2.80e-01,-2.80e+00,
808,2.60e-01,-2.80e+00,
809,2.60e-01,-2.80e+00,
810,2.60e-01,-2.60e+00,
811,2.60e-01,-2.60e+00,
812,2.40e-01,-2.60e+00,
813,2.40e-01,-2.60e+00,
814,2.40e-01,-2.40e+00,
815,2.40e-01,-2.40e+00,
816,2.20e-01,-2.40e+00,
817,2.20e-01,-2.40e+00,
818,2.00e-01,-2.20e+00,
819,2.00e-01,-2.20e+00,
820,2.00e-01,-2.20e+00,
821,2.00e-01,-2.20e+00,
822,1.80e-01,-2.00e+00,
823,1.80e-01,-2.00e+00,
824,1.80e-01,-1.80e+00,
825,1.80e-01,-1.80e+00,
826,1.60e-01,-1.80e+00,
827,1.60e-01,-1.80e+00,
828,1.60e-01,-1.60e+00,
829,1.60e-01,-1.60e+00,
830,1.40e-01,-1.40e+00,
831,1.40e-01,-1.40e+00,
832,1.20e-01,-1.40e+00,
833,1.20e-01,-1.40e+00,
834,1.00e-01,-1.20e+00,
